G04 (created by PCBNEW (2013-07-07 BZR 4022)-stable) date 02/05/2014 21:17:25*
%MOIN*%
G04 Gerber Fmt 3.4, Leading zero omitted, Abs format*
%FSLAX34Y34*%
G01*
G70*
G90*
G04 APERTURE LIST*
%ADD10C,0.00590551*%
%ADD11C,0.0472441*%
%ADD12R,0.0472441X0.0472441*%
%ADD13R,0.06X0.06*%
%ADD14C,0.06*%
%ADD15R,0.1X0.1*%
%ADD16C,0.1*%
%ADD17C,0.141732*%
%ADD18C,0.0393701*%
%ADD19C,0.01*%
G04 APERTURE END LIST*
G54D10*
G54D11*
X39156Y-32406D03*
G54D12*
X39156Y-33193D03*
G54D11*
X39944Y-33193D03*
X39944Y-32406D03*
X40731Y-33193D03*
X40731Y-32406D03*
X41518Y-33193D03*
X41518Y-32406D03*
X42306Y-33193D03*
X42306Y-32406D03*
X43093Y-33193D03*
X43093Y-32406D03*
X43881Y-33193D03*
X43881Y-32406D03*
X44668Y-33193D03*
X44668Y-32406D03*
X45455Y-33193D03*
X45455Y-32406D03*
X46243Y-33193D03*
X46243Y-32406D03*
G54D13*
X39716Y-28937D03*
G54D14*
X40716Y-28937D03*
X41716Y-28937D03*
X42716Y-28937D03*
X43716Y-28937D03*
X44716Y-28937D03*
X45716Y-28937D03*
G54D15*
X41716Y-25787D03*
G54D16*
X43716Y-25787D03*
G54D17*
X37007Y-33070D03*
X48425Y-33070D03*
G54D18*
X43200Y-27673D03*
X41850Y-27661D03*
X41125Y-30960D03*
G54D19*
X42306Y-33193D02*
X42700Y-32800D01*
X44716Y-29692D02*
X42716Y-31692D01*
X44716Y-29692D02*
X44716Y-28937D01*
X42700Y-31709D02*
X42716Y-31692D01*
X42700Y-32800D02*
X42700Y-31709D01*
X40731Y-33193D02*
X40731Y-33174D01*
X41125Y-32779D02*
X41125Y-30960D01*
X40731Y-33174D02*
X41125Y-32779D01*
X40731Y-32406D02*
X40731Y-30725D01*
X40748Y-30708D02*
X41716Y-29740D01*
X41716Y-29740D02*
X41716Y-28937D01*
X40731Y-30725D02*
X40748Y-30708D01*
X42306Y-32406D02*
X42306Y-31118D01*
X42306Y-31118D02*
X42400Y-31025D01*
X43716Y-29708D02*
X43716Y-28937D01*
X42322Y-31102D02*
X42400Y-31025D01*
X42400Y-31025D02*
X43716Y-29708D01*
X41518Y-32406D02*
X41518Y-30922D01*
X41518Y-30922D02*
X41600Y-30840D01*
X42716Y-29724D02*
X42716Y-28937D01*
X41535Y-30905D02*
X41600Y-30840D01*
X41600Y-30840D02*
X42716Y-29724D01*
G54D10*
G36*
X49720Y-34366D02*
X49383Y-34366D01*
X49383Y-32976D01*
X49347Y-32792D01*
X49275Y-32618D01*
X49171Y-32462D01*
X49039Y-32328D01*
X48883Y-32223D01*
X48710Y-32150D01*
X48525Y-32112D01*
X48337Y-32111D01*
X48153Y-32146D01*
X47978Y-32217D01*
X47821Y-32320D01*
X47687Y-32451D01*
X47581Y-32606D01*
X47506Y-32779D01*
X47467Y-32963D01*
X47465Y-33151D01*
X47499Y-33336D01*
X47568Y-33511D01*
X47670Y-33669D01*
X47800Y-33804D01*
X47955Y-33911D01*
X48127Y-33987D01*
X48311Y-34027D01*
X48499Y-34031D01*
X48684Y-33998D01*
X48859Y-33930D01*
X49018Y-33829D01*
X49154Y-33700D01*
X49262Y-33546D01*
X49339Y-33374D01*
X49380Y-33191D01*
X49383Y-32976D01*
X49383Y-34366D01*
X46729Y-34366D01*
X46729Y-33146D01*
X46711Y-33052D01*
X46674Y-32964D01*
X46621Y-32884D01*
X46554Y-32817D01*
X46529Y-32800D01*
X46544Y-32791D01*
X46613Y-32725D01*
X46668Y-32647D01*
X46706Y-32560D01*
X46728Y-32467D01*
X46729Y-32358D01*
X46711Y-32265D01*
X46674Y-32176D01*
X46621Y-32097D01*
X46554Y-32029D01*
X46475Y-31976D01*
X46387Y-31939D01*
X46294Y-31920D01*
X46268Y-31920D01*
X46268Y-28908D01*
X46252Y-28801D01*
X46215Y-28699D01*
X46191Y-28653D01*
X46096Y-28627D01*
X46025Y-28698D01*
X46025Y-28556D01*
X45999Y-28462D01*
X45901Y-28416D01*
X45796Y-28390D01*
X45688Y-28385D01*
X45581Y-28401D01*
X45479Y-28437D01*
X45433Y-28462D01*
X45407Y-28556D01*
X45716Y-28866D01*
X46025Y-28556D01*
X46025Y-28698D01*
X45787Y-28937D01*
X46096Y-29246D01*
X46191Y-29220D01*
X46237Y-29122D01*
X46263Y-29016D01*
X46268Y-28908D01*
X46268Y-31920D01*
X46199Y-31919D01*
X46105Y-31937D01*
X46025Y-31969D01*
X46025Y-29317D01*
X45716Y-29007D01*
X45407Y-29317D01*
X45433Y-29411D01*
X45531Y-29457D01*
X45636Y-29483D01*
X45744Y-29488D01*
X45852Y-29472D01*
X45953Y-29436D01*
X45999Y-29411D01*
X46025Y-29317D01*
X46025Y-31969D01*
X46016Y-31973D01*
X45937Y-32025D01*
X45869Y-32092D01*
X45849Y-32120D01*
X45834Y-32097D01*
X45767Y-32029D01*
X45688Y-31976D01*
X45600Y-31939D01*
X45506Y-31920D01*
X45411Y-31919D01*
X45317Y-31937D01*
X45229Y-31973D01*
X45149Y-32025D01*
X45081Y-32092D01*
X45062Y-32120D01*
X45047Y-32097D01*
X44979Y-32029D01*
X44900Y-31976D01*
X44812Y-31939D01*
X44719Y-31920D01*
X44624Y-31919D01*
X44530Y-31937D01*
X44442Y-31973D01*
X44362Y-32025D01*
X44294Y-32092D01*
X44274Y-32120D01*
X44259Y-32097D01*
X44192Y-32029D01*
X44113Y-31976D01*
X44025Y-31939D01*
X43932Y-31920D01*
X43836Y-31919D01*
X43743Y-31937D01*
X43654Y-31973D01*
X43574Y-32025D01*
X43506Y-32092D01*
X43487Y-32120D01*
X43472Y-32097D01*
X43405Y-32029D01*
X43326Y-31976D01*
X43238Y-31939D01*
X43144Y-31920D01*
X43049Y-31919D01*
X43000Y-31929D01*
X43000Y-31833D01*
X44928Y-29905D01*
X44946Y-29883D01*
X44964Y-29862D01*
X44964Y-29861D01*
X44965Y-29859D01*
X44978Y-29835D01*
X44992Y-29811D01*
X44992Y-29809D01*
X44993Y-29808D01*
X45001Y-29781D01*
X45009Y-29755D01*
X45010Y-29753D01*
X45010Y-29752D01*
X45013Y-29724D01*
X45016Y-29697D01*
X45016Y-29694D01*
X45016Y-29693D01*
X45016Y-29693D01*
X45016Y-29692D01*
X45016Y-29398D01*
X45056Y-29372D01*
X45134Y-29298D01*
X45197Y-29209D01*
X45215Y-29168D01*
X45217Y-29174D01*
X45241Y-29220D01*
X45336Y-29246D01*
X45645Y-28937D01*
X45336Y-28627D01*
X45241Y-28653D01*
X45216Y-28707D01*
X45204Y-28677D01*
X45144Y-28587D01*
X45068Y-28511D01*
X44979Y-28450D01*
X44879Y-28409D01*
X44774Y-28387D01*
X44666Y-28386D01*
X44560Y-28406D01*
X44469Y-28443D01*
X44469Y-25766D01*
X44451Y-25620D01*
X44404Y-25480D01*
X44354Y-25385D01*
X44239Y-25335D01*
X44168Y-25406D01*
X44168Y-25264D01*
X44118Y-25149D01*
X43985Y-25083D01*
X43843Y-25044D01*
X43696Y-25034D01*
X43549Y-25052D01*
X43409Y-25099D01*
X43314Y-25149D01*
X43264Y-25264D01*
X43716Y-25716D01*
X44168Y-25264D01*
X44168Y-25406D01*
X43787Y-25787D01*
X44239Y-26239D01*
X44354Y-26188D01*
X44420Y-26056D01*
X44459Y-25914D01*
X44469Y-25766D01*
X44469Y-28443D01*
X44460Y-28447D01*
X44370Y-28506D01*
X44293Y-28581D01*
X44232Y-28670D01*
X44216Y-28707D01*
X44204Y-28677D01*
X44168Y-28623D01*
X44168Y-26310D01*
X43716Y-25858D01*
X43645Y-25928D01*
X43645Y-25787D01*
X43193Y-25335D01*
X43078Y-25385D01*
X43012Y-25517D01*
X42973Y-25660D01*
X42963Y-25807D01*
X42981Y-25954D01*
X43028Y-26094D01*
X43078Y-26188D01*
X43193Y-26239D01*
X43645Y-25787D01*
X43645Y-25928D01*
X43264Y-26310D01*
X43314Y-26425D01*
X43447Y-26491D01*
X43589Y-26530D01*
X43736Y-26540D01*
X43883Y-26522D01*
X44023Y-26475D01*
X44118Y-26425D01*
X44168Y-26310D01*
X44168Y-28623D01*
X44144Y-28587D01*
X44068Y-28511D01*
X43979Y-28450D01*
X43879Y-28409D01*
X43774Y-28387D01*
X43666Y-28386D01*
X43647Y-28390D01*
X43647Y-27629D01*
X43630Y-27543D01*
X43597Y-27462D01*
X43548Y-27389D01*
X43486Y-27327D01*
X43414Y-27278D01*
X43333Y-27244D01*
X43247Y-27226D01*
X43160Y-27226D01*
X43074Y-27242D01*
X42992Y-27275D01*
X42919Y-27323D01*
X42856Y-27384D01*
X42807Y-27456D01*
X42772Y-27537D01*
X42754Y-27623D01*
X42753Y-27710D01*
X42769Y-27796D01*
X42801Y-27878D01*
X42848Y-27952D01*
X42909Y-28015D01*
X42981Y-28065D01*
X43062Y-28100D01*
X43147Y-28119D01*
X43235Y-28120D01*
X43321Y-28105D01*
X43403Y-28074D01*
X43477Y-28027D01*
X43540Y-27966D01*
X43591Y-27895D01*
X43626Y-27814D01*
X43646Y-27729D01*
X43647Y-27629D01*
X43647Y-28390D01*
X43560Y-28406D01*
X43460Y-28447D01*
X43370Y-28506D01*
X43293Y-28581D01*
X43232Y-28670D01*
X43216Y-28707D01*
X43204Y-28677D01*
X43144Y-28587D01*
X43068Y-28511D01*
X42979Y-28450D01*
X42879Y-28409D01*
X42774Y-28387D01*
X42666Y-28386D01*
X42560Y-28406D01*
X42466Y-28444D01*
X42466Y-26312D01*
X42466Y-26262D01*
X42466Y-25262D01*
X42456Y-25214D01*
X42438Y-25168D01*
X42410Y-25128D01*
X42375Y-25093D01*
X42334Y-25065D01*
X42289Y-25047D01*
X42241Y-25037D01*
X42191Y-25037D01*
X41191Y-25037D01*
X41143Y-25047D01*
X41098Y-25065D01*
X41057Y-25093D01*
X41022Y-25128D01*
X40994Y-25168D01*
X40976Y-25214D01*
X40966Y-25262D01*
X40966Y-25312D01*
X40966Y-26312D01*
X40976Y-26360D01*
X40994Y-26405D01*
X41022Y-26446D01*
X41057Y-26481D01*
X41098Y-26508D01*
X41143Y-26527D01*
X41191Y-26537D01*
X41241Y-26537D01*
X42241Y-26537D01*
X42289Y-26527D01*
X42334Y-26508D01*
X42375Y-26481D01*
X42410Y-26446D01*
X42438Y-26405D01*
X42456Y-26360D01*
X42466Y-26312D01*
X42466Y-28444D01*
X42460Y-28447D01*
X42370Y-28506D01*
X42297Y-28577D01*
X42297Y-27617D01*
X42280Y-27531D01*
X42246Y-27450D01*
X42198Y-27377D01*
X42136Y-27315D01*
X42063Y-27266D01*
X41983Y-27232D01*
X41897Y-27214D01*
X41809Y-27214D01*
X41723Y-27230D01*
X41642Y-27263D01*
X41569Y-27311D01*
X41506Y-27372D01*
X41456Y-27445D01*
X41422Y-27525D01*
X41404Y-27611D01*
X41402Y-27698D01*
X41418Y-27785D01*
X41451Y-27866D01*
X41498Y-27940D01*
X41559Y-28003D01*
X41631Y-28053D01*
X41711Y-28088D01*
X41797Y-28107D01*
X41884Y-28109D01*
X41971Y-28093D01*
X42052Y-28062D01*
X42126Y-28015D01*
X42190Y-27954D01*
X42240Y-27883D01*
X42276Y-27803D01*
X42295Y-27717D01*
X42297Y-27617D01*
X42297Y-28577D01*
X42293Y-28581D01*
X42232Y-28670D01*
X42216Y-28707D01*
X42204Y-28677D01*
X42144Y-28587D01*
X42068Y-28511D01*
X41979Y-28450D01*
X41879Y-28409D01*
X41774Y-28387D01*
X41666Y-28386D01*
X41560Y-28406D01*
X41460Y-28447D01*
X41370Y-28506D01*
X41293Y-28581D01*
X41232Y-28670D01*
X41216Y-28707D01*
X41204Y-28677D01*
X41144Y-28587D01*
X41068Y-28511D01*
X40979Y-28450D01*
X40879Y-28409D01*
X40774Y-28387D01*
X40666Y-28386D01*
X40560Y-28406D01*
X40460Y-28447D01*
X40370Y-28506D01*
X40293Y-28581D01*
X40266Y-28620D01*
X40266Y-28612D01*
X40256Y-28564D01*
X40238Y-28518D01*
X40210Y-28477D01*
X40175Y-28442D01*
X40134Y-28415D01*
X40089Y-28396D01*
X40041Y-28387D01*
X39991Y-28387D01*
X39391Y-28387D01*
X39343Y-28396D01*
X39298Y-28415D01*
X39257Y-28442D01*
X39222Y-28477D01*
X39194Y-28518D01*
X39176Y-28564D01*
X39166Y-28612D01*
X39166Y-28661D01*
X39166Y-29261D01*
X39176Y-29309D01*
X39194Y-29355D01*
X39222Y-29396D01*
X39257Y-29431D01*
X39298Y-29458D01*
X39343Y-29477D01*
X39391Y-29487D01*
X39441Y-29487D01*
X40041Y-29487D01*
X40089Y-29477D01*
X40134Y-29458D01*
X40175Y-29431D01*
X40210Y-29396D01*
X40238Y-29355D01*
X40256Y-29309D01*
X40266Y-29261D01*
X40266Y-29254D01*
X40283Y-29280D01*
X40358Y-29357D01*
X40446Y-29419D01*
X40545Y-29462D01*
X40651Y-29485D01*
X40758Y-29488D01*
X40865Y-29469D01*
X40965Y-29430D01*
X41056Y-29372D01*
X41134Y-29298D01*
X41197Y-29209D01*
X41216Y-29167D01*
X41224Y-29189D01*
X41283Y-29280D01*
X41358Y-29357D01*
X41416Y-29398D01*
X41416Y-29615D01*
X40535Y-30496D01*
X40519Y-30513D01*
X40501Y-30534D01*
X40483Y-30555D01*
X40483Y-30557D01*
X40482Y-30558D01*
X40469Y-30582D01*
X40455Y-30607D01*
X40455Y-30608D01*
X40454Y-30609D01*
X40446Y-30636D01*
X40438Y-30662D01*
X40437Y-30664D01*
X40437Y-30665D01*
X40434Y-30693D01*
X40431Y-30721D01*
X40431Y-30724D01*
X40431Y-30724D01*
X40431Y-30724D01*
X40431Y-30725D01*
X40431Y-32021D01*
X40425Y-32025D01*
X40357Y-32092D01*
X40337Y-32120D01*
X40322Y-32097D01*
X40255Y-32029D01*
X40176Y-31976D01*
X40088Y-31939D01*
X39995Y-31920D01*
X39899Y-31919D01*
X39806Y-31937D01*
X39717Y-31973D01*
X39637Y-32025D01*
X39569Y-32092D01*
X39550Y-32120D01*
X39535Y-32097D01*
X39468Y-32029D01*
X39389Y-31976D01*
X39301Y-31939D01*
X39207Y-31920D01*
X39112Y-31919D01*
X39018Y-31937D01*
X38930Y-31973D01*
X38850Y-32025D01*
X38782Y-32092D01*
X38728Y-32170D01*
X38690Y-32258D01*
X38671Y-32351D01*
X38669Y-32447D01*
X38687Y-32540D01*
X38722Y-32629D01*
X38773Y-32709D01*
X38800Y-32737D01*
X38761Y-32763D01*
X38726Y-32798D01*
X38698Y-32839D01*
X38680Y-32884D01*
X38670Y-32932D01*
X38670Y-32982D01*
X38670Y-33081D01*
X38732Y-33143D01*
X39106Y-33143D01*
X39106Y-33135D01*
X39206Y-33135D01*
X39206Y-33143D01*
X39214Y-33143D01*
X39214Y-33243D01*
X39206Y-33243D01*
X39206Y-33617D01*
X39269Y-33679D01*
X39417Y-33679D01*
X39465Y-33670D01*
X39511Y-33651D01*
X39552Y-33624D01*
X39587Y-33589D01*
X39612Y-33550D01*
X39627Y-33565D01*
X39705Y-33620D01*
X39793Y-33658D01*
X39886Y-33678D01*
X39981Y-33680D01*
X40075Y-33664D01*
X40164Y-33629D01*
X40244Y-33578D01*
X40313Y-33512D01*
X40337Y-33479D01*
X40348Y-33497D01*
X40414Y-33565D01*
X40493Y-33620D01*
X40580Y-33658D01*
X40673Y-33678D01*
X40768Y-33680D01*
X40862Y-33664D01*
X40951Y-33629D01*
X41032Y-33578D01*
X41101Y-33512D01*
X41124Y-33479D01*
X41136Y-33497D01*
X41202Y-33565D01*
X41280Y-33620D01*
X41367Y-33658D01*
X41461Y-33678D01*
X41556Y-33680D01*
X41650Y-33664D01*
X41739Y-33629D01*
X41819Y-33578D01*
X41888Y-33512D01*
X41912Y-33479D01*
X41923Y-33497D01*
X41989Y-33565D01*
X42067Y-33620D01*
X42155Y-33658D01*
X42248Y-33678D01*
X42343Y-33680D01*
X42437Y-33664D01*
X42526Y-33629D01*
X42607Y-33578D01*
X42676Y-33512D01*
X42699Y-33479D01*
X42710Y-33497D01*
X42777Y-33565D01*
X42855Y-33620D01*
X42942Y-33658D01*
X43035Y-33678D01*
X43131Y-33680D01*
X43225Y-33664D01*
X43313Y-33629D01*
X43394Y-33578D01*
X43463Y-33512D01*
X43486Y-33479D01*
X43498Y-33497D01*
X43564Y-33565D01*
X43642Y-33620D01*
X43730Y-33658D01*
X43823Y-33678D01*
X43918Y-33680D01*
X44012Y-33664D01*
X44101Y-33629D01*
X44181Y-33578D01*
X44250Y-33512D01*
X44274Y-33479D01*
X44285Y-33497D01*
X44351Y-33565D01*
X44430Y-33620D01*
X44517Y-33658D01*
X44610Y-33678D01*
X44705Y-33680D01*
X44799Y-33664D01*
X44888Y-33629D01*
X44969Y-33578D01*
X45038Y-33512D01*
X45061Y-33479D01*
X45073Y-33497D01*
X45139Y-33565D01*
X45217Y-33620D01*
X45304Y-33658D01*
X45398Y-33678D01*
X45493Y-33680D01*
X45587Y-33664D01*
X45676Y-33629D01*
X45756Y-33578D01*
X45825Y-33512D01*
X45849Y-33479D01*
X45860Y-33497D01*
X45926Y-33565D01*
X46004Y-33620D01*
X46092Y-33658D01*
X46185Y-33678D01*
X46280Y-33680D01*
X46374Y-33664D01*
X46463Y-33629D01*
X46544Y-33578D01*
X46613Y-33512D01*
X46668Y-33435D01*
X46706Y-33347D01*
X46728Y-33254D01*
X46729Y-33146D01*
X46729Y-34366D01*
X39106Y-34366D01*
X39106Y-33617D01*
X39106Y-33243D01*
X38732Y-33243D01*
X38670Y-33306D01*
X38670Y-33405D01*
X38670Y-33454D01*
X38680Y-33502D01*
X38698Y-33548D01*
X38726Y-33589D01*
X38761Y-33624D01*
X38802Y-33651D01*
X38847Y-33670D01*
X38895Y-33679D01*
X39044Y-33679D01*
X39106Y-33617D01*
X39106Y-34366D01*
X37966Y-34366D01*
X37966Y-32976D01*
X37930Y-32792D01*
X37858Y-32618D01*
X37754Y-32462D01*
X37621Y-32328D01*
X37466Y-32223D01*
X37292Y-32150D01*
X37108Y-32112D01*
X36920Y-32111D01*
X36735Y-32146D01*
X36561Y-32217D01*
X36404Y-32320D01*
X36269Y-32451D01*
X36163Y-32606D01*
X36089Y-32779D01*
X36050Y-32963D01*
X36047Y-33151D01*
X36081Y-33336D01*
X36151Y-33511D01*
X36252Y-33669D01*
X36383Y-33804D01*
X36537Y-33911D01*
X36710Y-33987D01*
X36893Y-34027D01*
X37081Y-34031D01*
X37266Y-33998D01*
X37442Y-33930D01*
X37600Y-33829D01*
X37737Y-33700D01*
X37845Y-33546D01*
X37921Y-33374D01*
X37963Y-33191D01*
X37966Y-32976D01*
X37966Y-34366D01*
X35712Y-34366D01*
X35712Y-24295D01*
X49720Y-24295D01*
X49720Y-34366D01*
X49720Y-34366D01*
G37*
G54D19*
X49720Y-34366D02*
X49383Y-34366D01*
X49383Y-32976D01*
X49347Y-32792D01*
X49275Y-32618D01*
X49171Y-32462D01*
X49039Y-32328D01*
X48883Y-32223D01*
X48710Y-32150D01*
X48525Y-32112D01*
X48337Y-32111D01*
X48153Y-32146D01*
X47978Y-32217D01*
X47821Y-32320D01*
X47687Y-32451D01*
X47581Y-32606D01*
X47506Y-32779D01*
X47467Y-32963D01*
X47465Y-33151D01*
X47499Y-33336D01*
X47568Y-33511D01*
X47670Y-33669D01*
X47800Y-33804D01*
X47955Y-33911D01*
X48127Y-33987D01*
X48311Y-34027D01*
X48499Y-34031D01*
X48684Y-33998D01*
X48859Y-33930D01*
X49018Y-33829D01*
X49154Y-33700D01*
X49262Y-33546D01*
X49339Y-33374D01*
X49380Y-33191D01*
X49383Y-32976D01*
X49383Y-34366D01*
X46729Y-34366D01*
X46729Y-33146D01*
X46711Y-33052D01*
X46674Y-32964D01*
X46621Y-32884D01*
X46554Y-32817D01*
X46529Y-32800D01*
X46544Y-32791D01*
X46613Y-32725D01*
X46668Y-32647D01*
X46706Y-32560D01*
X46728Y-32467D01*
X46729Y-32358D01*
X46711Y-32265D01*
X46674Y-32176D01*
X46621Y-32097D01*
X46554Y-32029D01*
X46475Y-31976D01*
X46387Y-31939D01*
X46294Y-31920D01*
X46268Y-31920D01*
X46268Y-28908D01*
X46252Y-28801D01*
X46215Y-28699D01*
X46191Y-28653D01*
X46096Y-28627D01*
X46025Y-28698D01*
X46025Y-28556D01*
X45999Y-28462D01*
X45901Y-28416D01*
X45796Y-28390D01*
X45688Y-28385D01*
X45581Y-28401D01*
X45479Y-28437D01*
X45433Y-28462D01*
X45407Y-28556D01*
X45716Y-28866D01*
X46025Y-28556D01*
X46025Y-28698D01*
X45787Y-28937D01*
X46096Y-29246D01*
X46191Y-29220D01*
X46237Y-29122D01*
X46263Y-29016D01*
X46268Y-28908D01*
X46268Y-31920D01*
X46199Y-31919D01*
X46105Y-31937D01*
X46025Y-31969D01*
X46025Y-29317D01*
X45716Y-29007D01*
X45407Y-29317D01*
X45433Y-29411D01*
X45531Y-29457D01*
X45636Y-29483D01*
X45744Y-29488D01*
X45852Y-29472D01*
X45953Y-29436D01*
X45999Y-29411D01*
X46025Y-29317D01*
X46025Y-31969D01*
X46016Y-31973D01*
X45937Y-32025D01*
X45869Y-32092D01*
X45849Y-32120D01*
X45834Y-32097D01*
X45767Y-32029D01*
X45688Y-31976D01*
X45600Y-31939D01*
X45506Y-31920D01*
X45411Y-31919D01*
X45317Y-31937D01*
X45229Y-31973D01*
X45149Y-32025D01*
X45081Y-32092D01*
X45062Y-32120D01*
X45047Y-32097D01*
X44979Y-32029D01*
X44900Y-31976D01*
X44812Y-31939D01*
X44719Y-31920D01*
X44624Y-31919D01*
X44530Y-31937D01*
X44442Y-31973D01*
X44362Y-32025D01*
X44294Y-32092D01*
X44274Y-32120D01*
X44259Y-32097D01*
X44192Y-32029D01*
X44113Y-31976D01*
X44025Y-31939D01*
X43932Y-31920D01*
X43836Y-31919D01*
X43743Y-31937D01*
X43654Y-31973D01*
X43574Y-32025D01*
X43506Y-32092D01*
X43487Y-32120D01*
X43472Y-32097D01*
X43405Y-32029D01*
X43326Y-31976D01*
X43238Y-31939D01*
X43144Y-31920D01*
X43049Y-31919D01*
X43000Y-31929D01*
X43000Y-31833D01*
X44928Y-29905D01*
X44946Y-29883D01*
X44964Y-29862D01*
X44964Y-29861D01*
X44965Y-29859D01*
X44978Y-29835D01*
X44992Y-29811D01*
X44992Y-29809D01*
X44993Y-29808D01*
X45001Y-29781D01*
X45009Y-29755D01*
X45010Y-29753D01*
X45010Y-29752D01*
X45013Y-29724D01*
X45016Y-29697D01*
X45016Y-29694D01*
X45016Y-29693D01*
X45016Y-29693D01*
X45016Y-29692D01*
X45016Y-29398D01*
X45056Y-29372D01*
X45134Y-29298D01*
X45197Y-29209D01*
X45215Y-29168D01*
X45217Y-29174D01*
X45241Y-29220D01*
X45336Y-29246D01*
X45645Y-28937D01*
X45336Y-28627D01*
X45241Y-28653D01*
X45216Y-28707D01*
X45204Y-28677D01*
X45144Y-28587D01*
X45068Y-28511D01*
X44979Y-28450D01*
X44879Y-28409D01*
X44774Y-28387D01*
X44666Y-28386D01*
X44560Y-28406D01*
X44469Y-28443D01*
X44469Y-25766D01*
X44451Y-25620D01*
X44404Y-25480D01*
X44354Y-25385D01*
X44239Y-25335D01*
X44168Y-25406D01*
X44168Y-25264D01*
X44118Y-25149D01*
X43985Y-25083D01*
X43843Y-25044D01*
X43696Y-25034D01*
X43549Y-25052D01*
X43409Y-25099D01*
X43314Y-25149D01*
X43264Y-25264D01*
X43716Y-25716D01*
X44168Y-25264D01*
X44168Y-25406D01*
X43787Y-25787D01*
X44239Y-26239D01*
X44354Y-26188D01*
X44420Y-26056D01*
X44459Y-25914D01*
X44469Y-25766D01*
X44469Y-28443D01*
X44460Y-28447D01*
X44370Y-28506D01*
X44293Y-28581D01*
X44232Y-28670D01*
X44216Y-28707D01*
X44204Y-28677D01*
X44168Y-28623D01*
X44168Y-26310D01*
X43716Y-25858D01*
X43645Y-25928D01*
X43645Y-25787D01*
X43193Y-25335D01*
X43078Y-25385D01*
X43012Y-25517D01*
X42973Y-25660D01*
X42963Y-25807D01*
X42981Y-25954D01*
X43028Y-26094D01*
X43078Y-26188D01*
X43193Y-26239D01*
X43645Y-25787D01*
X43645Y-25928D01*
X43264Y-26310D01*
X43314Y-26425D01*
X43447Y-26491D01*
X43589Y-26530D01*
X43736Y-26540D01*
X43883Y-26522D01*
X44023Y-26475D01*
X44118Y-26425D01*
X44168Y-26310D01*
X44168Y-28623D01*
X44144Y-28587D01*
X44068Y-28511D01*
X43979Y-28450D01*
X43879Y-28409D01*
X43774Y-28387D01*
X43666Y-28386D01*
X43647Y-28390D01*
X43647Y-27629D01*
X43630Y-27543D01*
X43597Y-27462D01*
X43548Y-27389D01*
X43486Y-27327D01*
X43414Y-27278D01*
X43333Y-27244D01*
X43247Y-27226D01*
X43160Y-27226D01*
X43074Y-27242D01*
X42992Y-27275D01*
X42919Y-27323D01*
X42856Y-27384D01*
X42807Y-27456D01*
X42772Y-27537D01*
X42754Y-27623D01*
X42753Y-27710D01*
X42769Y-27796D01*
X42801Y-27878D01*
X42848Y-27952D01*
X42909Y-28015D01*
X42981Y-28065D01*
X43062Y-28100D01*
X43147Y-28119D01*
X43235Y-28120D01*
X43321Y-28105D01*
X43403Y-28074D01*
X43477Y-28027D01*
X43540Y-27966D01*
X43591Y-27895D01*
X43626Y-27814D01*
X43646Y-27729D01*
X43647Y-27629D01*
X43647Y-28390D01*
X43560Y-28406D01*
X43460Y-28447D01*
X43370Y-28506D01*
X43293Y-28581D01*
X43232Y-28670D01*
X43216Y-28707D01*
X43204Y-28677D01*
X43144Y-28587D01*
X43068Y-28511D01*
X42979Y-28450D01*
X42879Y-28409D01*
X42774Y-28387D01*
X42666Y-28386D01*
X42560Y-28406D01*
X42466Y-28444D01*
X42466Y-26312D01*
X42466Y-26262D01*
X42466Y-25262D01*
X42456Y-25214D01*
X42438Y-25168D01*
X42410Y-25128D01*
X42375Y-25093D01*
X42334Y-25065D01*
X42289Y-25047D01*
X42241Y-25037D01*
X42191Y-25037D01*
X41191Y-25037D01*
X41143Y-25047D01*
X41098Y-25065D01*
X41057Y-25093D01*
X41022Y-25128D01*
X40994Y-25168D01*
X40976Y-25214D01*
X40966Y-25262D01*
X40966Y-25312D01*
X40966Y-26312D01*
X40976Y-26360D01*
X40994Y-26405D01*
X41022Y-26446D01*
X41057Y-26481D01*
X41098Y-26508D01*
X41143Y-26527D01*
X41191Y-26537D01*
X41241Y-26537D01*
X42241Y-26537D01*
X42289Y-26527D01*
X42334Y-26508D01*
X42375Y-26481D01*
X42410Y-26446D01*
X42438Y-26405D01*
X42456Y-26360D01*
X42466Y-26312D01*
X42466Y-28444D01*
X42460Y-28447D01*
X42370Y-28506D01*
X42297Y-28577D01*
X42297Y-27617D01*
X42280Y-27531D01*
X42246Y-27450D01*
X42198Y-27377D01*
X42136Y-27315D01*
X42063Y-27266D01*
X41983Y-27232D01*
X41897Y-27214D01*
X41809Y-27214D01*
X41723Y-27230D01*
X41642Y-27263D01*
X41569Y-27311D01*
X41506Y-27372D01*
X41456Y-27445D01*
X41422Y-27525D01*
X41404Y-27611D01*
X41402Y-27698D01*
X41418Y-27785D01*
X41451Y-27866D01*
X41498Y-27940D01*
X41559Y-28003D01*
X41631Y-28053D01*
X41711Y-28088D01*
X41797Y-28107D01*
X41884Y-28109D01*
X41971Y-28093D01*
X42052Y-28062D01*
X42126Y-28015D01*
X42190Y-27954D01*
X42240Y-27883D01*
X42276Y-27803D01*
X42295Y-27717D01*
X42297Y-27617D01*
X42297Y-28577D01*
X42293Y-28581D01*
X42232Y-28670D01*
X42216Y-28707D01*
X42204Y-28677D01*
X42144Y-28587D01*
X42068Y-28511D01*
X41979Y-28450D01*
X41879Y-28409D01*
X41774Y-28387D01*
X41666Y-28386D01*
X41560Y-28406D01*
X41460Y-28447D01*
X41370Y-28506D01*
X41293Y-28581D01*
X41232Y-28670D01*
X41216Y-28707D01*
X41204Y-28677D01*
X41144Y-28587D01*
X41068Y-28511D01*
X40979Y-28450D01*
X40879Y-28409D01*
X40774Y-28387D01*
X40666Y-28386D01*
X40560Y-28406D01*
X40460Y-28447D01*
X40370Y-28506D01*
X40293Y-28581D01*
X40266Y-28620D01*
X40266Y-28612D01*
X40256Y-28564D01*
X40238Y-28518D01*
X40210Y-28477D01*
X40175Y-28442D01*
X40134Y-28415D01*
X40089Y-28396D01*
X40041Y-28387D01*
X39991Y-28387D01*
X39391Y-28387D01*
X39343Y-28396D01*
X39298Y-28415D01*
X39257Y-28442D01*
X39222Y-28477D01*
X39194Y-28518D01*
X39176Y-28564D01*
X39166Y-28612D01*
X39166Y-28661D01*
X39166Y-29261D01*
X39176Y-29309D01*
X39194Y-29355D01*
X39222Y-29396D01*
X39257Y-29431D01*
X39298Y-29458D01*
X39343Y-29477D01*
X39391Y-29487D01*
X39441Y-29487D01*
X40041Y-29487D01*
X40089Y-29477D01*
X40134Y-29458D01*
X40175Y-29431D01*
X40210Y-29396D01*
X40238Y-29355D01*
X40256Y-29309D01*
X40266Y-29261D01*
X40266Y-29254D01*
X40283Y-29280D01*
X40358Y-29357D01*
X40446Y-29419D01*
X40545Y-29462D01*
X40651Y-29485D01*
X40758Y-29488D01*
X40865Y-29469D01*
X40965Y-29430D01*
X41056Y-29372D01*
X41134Y-29298D01*
X41197Y-29209D01*
X41216Y-29167D01*
X41224Y-29189D01*
X41283Y-29280D01*
X41358Y-29357D01*
X41416Y-29398D01*
X41416Y-29615D01*
X40535Y-30496D01*
X40519Y-30513D01*
X40501Y-30534D01*
X40483Y-30555D01*
X40483Y-30557D01*
X40482Y-30558D01*
X40469Y-30582D01*
X40455Y-30607D01*
X40455Y-30608D01*
X40454Y-30609D01*
X40446Y-30636D01*
X40438Y-30662D01*
X40437Y-30664D01*
X40437Y-30665D01*
X40434Y-30693D01*
X40431Y-30721D01*
X40431Y-30724D01*
X40431Y-30724D01*
X40431Y-30724D01*
X40431Y-30725D01*
X40431Y-32021D01*
X40425Y-32025D01*
X40357Y-32092D01*
X40337Y-32120D01*
X40322Y-32097D01*
X40255Y-32029D01*
X40176Y-31976D01*
X40088Y-31939D01*
X39995Y-31920D01*
X39899Y-31919D01*
X39806Y-31937D01*
X39717Y-31973D01*
X39637Y-32025D01*
X39569Y-32092D01*
X39550Y-32120D01*
X39535Y-32097D01*
X39468Y-32029D01*
X39389Y-31976D01*
X39301Y-31939D01*
X39207Y-31920D01*
X39112Y-31919D01*
X39018Y-31937D01*
X38930Y-31973D01*
X38850Y-32025D01*
X38782Y-32092D01*
X38728Y-32170D01*
X38690Y-32258D01*
X38671Y-32351D01*
X38669Y-32447D01*
X38687Y-32540D01*
X38722Y-32629D01*
X38773Y-32709D01*
X38800Y-32737D01*
X38761Y-32763D01*
X38726Y-32798D01*
X38698Y-32839D01*
X38680Y-32884D01*
X38670Y-32932D01*
X38670Y-32982D01*
X38670Y-33081D01*
X38732Y-33143D01*
X39106Y-33143D01*
X39106Y-33135D01*
X39206Y-33135D01*
X39206Y-33143D01*
X39214Y-33143D01*
X39214Y-33243D01*
X39206Y-33243D01*
X39206Y-33617D01*
X39269Y-33679D01*
X39417Y-33679D01*
X39465Y-33670D01*
X39511Y-33651D01*
X39552Y-33624D01*
X39587Y-33589D01*
X39612Y-33550D01*
X39627Y-33565D01*
X39705Y-33620D01*
X39793Y-33658D01*
X39886Y-33678D01*
X39981Y-33680D01*
X40075Y-33664D01*
X40164Y-33629D01*
X40244Y-33578D01*
X40313Y-33512D01*
X40337Y-33479D01*
X40348Y-33497D01*
X40414Y-33565D01*
X40493Y-33620D01*
X40580Y-33658D01*
X40673Y-33678D01*
X40768Y-33680D01*
X40862Y-33664D01*
X40951Y-33629D01*
X41032Y-33578D01*
X41101Y-33512D01*
X41124Y-33479D01*
X41136Y-33497D01*
X41202Y-33565D01*
X41280Y-33620D01*
X41367Y-33658D01*
X41461Y-33678D01*
X41556Y-33680D01*
X41650Y-33664D01*
X41739Y-33629D01*
X41819Y-33578D01*
X41888Y-33512D01*
X41912Y-33479D01*
X41923Y-33497D01*
X41989Y-33565D01*
X42067Y-33620D01*
X42155Y-33658D01*
X42248Y-33678D01*
X42343Y-33680D01*
X42437Y-33664D01*
X42526Y-33629D01*
X42607Y-33578D01*
X42676Y-33512D01*
X42699Y-33479D01*
X42710Y-33497D01*
X42777Y-33565D01*
X42855Y-33620D01*
X42942Y-33658D01*
X43035Y-33678D01*
X43131Y-33680D01*
X43225Y-33664D01*
X43313Y-33629D01*
X43394Y-33578D01*
X43463Y-33512D01*
X43486Y-33479D01*
X43498Y-33497D01*
X43564Y-33565D01*
X43642Y-33620D01*
X43730Y-33658D01*
X43823Y-33678D01*
X43918Y-33680D01*
X44012Y-33664D01*
X44101Y-33629D01*
X44181Y-33578D01*
X44250Y-33512D01*
X44274Y-33479D01*
X44285Y-33497D01*
X44351Y-33565D01*
X44430Y-33620D01*
X44517Y-33658D01*
X44610Y-33678D01*
X44705Y-33680D01*
X44799Y-33664D01*
X44888Y-33629D01*
X44969Y-33578D01*
X45038Y-33512D01*
X45061Y-33479D01*
X45073Y-33497D01*
X45139Y-33565D01*
X45217Y-33620D01*
X45304Y-33658D01*
X45398Y-33678D01*
X45493Y-33680D01*
X45587Y-33664D01*
X45676Y-33629D01*
X45756Y-33578D01*
X45825Y-33512D01*
X45849Y-33479D01*
X45860Y-33497D01*
X45926Y-33565D01*
X46004Y-33620D01*
X46092Y-33658D01*
X46185Y-33678D01*
X46280Y-33680D01*
X46374Y-33664D01*
X46463Y-33629D01*
X46544Y-33578D01*
X46613Y-33512D01*
X46668Y-33435D01*
X46706Y-33347D01*
X46728Y-33254D01*
X46729Y-33146D01*
X46729Y-34366D01*
X39106Y-34366D01*
X39106Y-33617D01*
X39106Y-33243D01*
X38732Y-33243D01*
X38670Y-33306D01*
X38670Y-33405D01*
X38670Y-33454D01*
X38680Y-33502D01*
X38698Y-33548D01*
X38726Y-33589D01*
X38761Y-33624D01*
X38802Y-33651D01*
X38847Y-33670D01*
X38895Y-33679D01*
X39044Y-33679D01*
X39106Y-33617D01*
X39106Y-34366D01*
X37966Y-34366D01*
X37966Y-32976D01*
X37930Y-32792D01*
X37858Y-32618D01*
X37754Y-32462D01*
X37621Y-32328D01*
X37466Y-32223D01*
X37292Y-32150D01*
X37108Y-32112D01*
X36920Y-32111D01*
X36735Y-32146D01*
X36561Y-32217D01*
X36404Y-32320D01*
X36269Y-32451D01*
X36163Y-32606D01*
X36089Y-32779D01*
X36050Y-32963D01*
X36047Y-33151D01*
X36081Y-33336D01*
X36151Y-33511D01*
X36252Y-33669D01*
X36383Y-33804D01*
X36537Y-33911D01*
X36710Y-33987D01*
X36893Y-34027D01*
X37081Y-34031D01*
X37266Y-33998D01*
X37442Y-33930D01*
X37600Y-33829D01*
X37737Y-33700D01*
X37845Y-33546D01*
X37921Y-33374D01*
X37963Y-33191D01*
X37966Y-32976D01*
X37966Y-34366D01*
X35712Y-34366D01*
X35712Y-24295D01*
X49720Y-24295D01*
X49720Y-34366D01*
M02*
