PCBNEW-LibModule-V1  vie 01 nov 2013 13:30:08 COT
# encoding utf-8
Units mm
$INDEX
FT232RL
$EndINDEX
$MODULE FT232RL
Po 0 0 0 15 5273F326 00000000 ~~
Li FT232RL
Sc 0
AR 
Op 0 0 0
T0 4.1656 -3.2512 1 1 0 0.20066 N V 21 N "FT232RL"
T1 10.5156 -3.0988 0.5 0.5 0 0.125 N V 21 N "VAL**"
DC 0 -1.27 -0.1016 -1.4732 0.09906 21
DS -0.6604 -2.2352 -0.6604 -5.588 0.09906 21
DS -0.6604 -2.2352 -0.6604 -0.9144 0.09906 21
DS -0.6604 -0.9144 1.016 -0.9144 0.09906 21
DS 1.016 -0.9144 2.8956 -0.9144 0.09906 21
DS 2.8956 -0.9144 6.4008 -0.9144 0.09906 21
DS 6.4008 -0.9144 8.7884 -0.9144 0.09906 21
DS 8.7884 -0.9144 8.89 -0.9144 0.09906 21
DS 8.89 -0.9144 8.89 -2.1336 0.09906 21
DS 8.89 -2.1336 8.89 -5.588 0.09906 21
DS 8.89 -5.588 -0.6096 -5.588 0.09906 21
$PAD
Sh "1" R 0.3 2.2 0 0 0
Dr 0 0 0
At SMD N 00888000
Ne 0 ""
Po 0 0.475
$EndPAD
$PAD
Sh "2" R 0.3 2.2 0 0 0
Dr 0 0 0
At SMD N 00888000
Ne 0 ""
Po 0.65 0.475
$EndPAD
$PAD
Sh "3" R 0.3 2.2 0 0 0
Dr 0 0 0
At SMD N 00888000
Ne 0 ""
Po 1.3 0.475
$EndPAD
$PAD
Sh "4" R 0.3 2.2 0 0 0
Dr 0 0 0
At SMD N 00888000
Ne 0 ""
Po 1.95 0.475
$EndPAD
$PAD
Sh "5" R 0.3 2.2 0 0 0
Dr 0 0 0
At SMD N 00888000
Ne 0 ""
Po 2.6 0.475
$EndPAD
$PAD
Sh "6" R 0.3 2.2 0 0 0
Dr 0 0 0
At SMD N 00888000
Ne 0 ""
Po 3.25 0.475
$EndPAD
$PAD
Sh "7" R 0.3 2.2 0 0 0
Dr 0 0 0
At SMD N 00888000
Ne 0 ""
Po 3.9 0.475
$EndPAD
$PAD
Sh "8" R 0.3 2.2 0 0 0
Dr 0 0 0
At SMD N 00888000
Ne 0 ""
Po 4.55 0.475
$EndPAD
$PAD
Sh "9" R 0.3 2.2 0 0 0
Dr 0 0 0
At SMD N 00888000
Ne 0 ""
Po 5.2 0.475
$EndPAD
$PAD
Sh "10" R 0.3 2.2 0 0 0
Dr 0 0 0
At SMD N 00888000
Ne 0 ""
Po 5.85 0.475
$EndPAD
$PAD
Sh "11" R 0.3 2.2 0 0 0
Dr 0 0 0
At SMD N 00888000
Ne 0 ""
Po 6.5 0.475
$EndPAD
$PAD
Sh "12" R 0.3 2.2 0 0 0
Dr 0 0 0
At SMD N 00888000
Ne 0 ""
Po 7.15 0.475
$EndPAD
$PAD
Sh "13" R 0.3 2.2 0 0 0
Dr 0 0 0
At SMD N 00888000
Ne 0 ""
Po 7.8 0.475
$EndPAD
$PAD
Sh "14" R 0.3 2.2 0 0 0
Dr 0 0 0
At SMD N 00888000
Ne 0 ""
Po 8.45 0.475
$EndPAD
$PAD
Sh "15" R 0.3 2.2 0 0 0
Dr 0 0 0
At SMD N 00888000
Ne 0 ""
Po 8.45 -7.02
$EndPAD
$PAD
Sh "16" R 0.3 2.2 0 0 0
Dr 0 0 0
At SMD N 00888000
Ne 0 ""
Po 7.8 -7.02
$EndPAD
$PAD
Sh "17" R 0.3 2.2 0 0 0
Dr 0 0 0
At SMD N 00888000
Ne 0 ""
Po 7.15 -7.02
$EndPAD
$PAD
Sh "18" R 0.3 2.2 0 0 0
Dr 0 0 0
At SMD N 00888000
Ne 0 ""
Po 6.5 -7.02
$EndPAD
$PAD
Sh "19" R 0.3 2.2 0 0 0
Dr 0 0 0
At SMD N 00888000
Ne 0 ""
Po 5.85 -7.02
$EndPAD
$PAD
Sh "20" R 0.3 2.2 0 0 0
Dr 0 0 0
At SMD N 00888000
Ne 0 ""
Po 5.2 -7.02
$EndPAD
$PAD
Sh "21" R 0.3 2.2 0 0 0
Dr 0 0 0
At SMD N 00888000
Ne 0 ""
Po 4.55 -7.02
$EndPAD
$PAD
Sh "22" R 0.3 2.2 0 0 0
Dr 0 0 0
At SMD N 00888000
Ne 0 ""
Po 3.9 -7.02
$EndPAD
$PAD
Sh "23" R 0.3 2.2 0 0 0
Dr 0 0 0
At SMD N 00888000
Ne 0 ""
Po 3.25 -7.02
$EndPAD
$PAD
Sh "24" R 0.3 2.2 0 0 0
Dr 0 0 0
At SMD N 00888000
Ne 0 ""
Po 2.6 -7.02
$EndPAD
$PAD
Sh "25" R 0.3 2.2 0 0 0
Dr 0 0 0
At SMD N 00888000
Ne 0 ""
Po 1.95 -7.02
$EndPAD
$PAD
Sh "26" R 0.3 2.2 0 0 0
Dr 0 0 0
At SMD N 00888000
Ne 0 ""
Po 1.3 -7.02
$EndPAD
$PAD
Sh "27" R 0.3 2.2 0 0 0
Dr 0 0 0
At SMD N 00888000
Ne 0 ""
Po 0.65 -7.02
$EndPAD
$PAD
Sh "28" R 0.3 2.2 0 0 0
Dr 0 0 0
At SMD N 00888000
Ne 0 ""
Po 0 -7.02
$EndPAD
$EndMODULE FT232RL
$EndLIBRARY
