PCBNEW-LibModule-V1  dom 13 oct 2013 16:13:47 COT
# encoding utf-8
Units mm
$INDEX
L7
$EndINDEX
$MODULE L7
Po 0 0 0 15 525B0CE5 00000000 ~~
Li L7
Sc 0
AR 
Op 0 0 0
T0 0.9652 3.6576 1.524 1.524 0 0.20066 N V 21 N "L7"
T1 1.9304 -3.6068 1.524 1.524 0 0.20066 N I 21 N "VAL**"
$PAD
Sh "1" R 1 3 0 0 0
Dr 0 0 0
At SMD N 00888000
Ne 0 ""
Po 0 0
$EndPAD
$PAD
Sh "2" R 1 3 0 0 0
Dr 0 0 0
At SMD N 00888000
Ne 0 ""
Po 2.1 0
$EndPAD
$EndMODULE L7
$EndLIBRARY
