PCBNEW-LibModule-V1  dom 06 oct 2013 15:05:52 COT
# encoding utf-8
Units mm
$INDEX
FT232RL
LM2621
$EndINDEX
$MODULE FT232RL
Po 0 0 0 15 5251BAA0 00000000 ~~
Li FT232RL
Sc 0
AR 
Op 0 0 0
T0 3.9624 -3.8608 1.524 1.524 0 0.20066 N V 21 N "FT232RL"
T1 13.0048 -3.8608 1.524 1.524 0 0.20066 N V 21 N "VAL**"
DC -0.3556 -2.6924 -0.254 -2.54 0.09906 21
DS 9 -5.5 9 -2.3 0.09906 21
DS -1 -5.5 9 -5.5 0.09906 21
DS -1 -2.3 9 -2.3 0.09906 21
DS -1 -2.3 -1 -5.5 0.09906 21
$PAD
Sh "1" R 0.3 2 0 0 0
Dr 0 0 0
At SMD N 00888000
Ne 0 ""
Po 0 -1
$EndPAD
$PAD
Sh "2" R 0.3 2 0 0 0
Dr 0 0 0
At SMD N 00888000
Ne 0 ""
Po 0.65 -1
$EndPAD
$PAD
Sh "3" R 0.3 2 0 0 0
Dr 0 0 0
At SMD N 00888000
Ne 0 ""
Po 1.3 -1
$EndPAD
$PAD
Sh "4" R 0.3 2 0 0 0
Dr 0 0 0
At SMD N 00888000
Ne 0 ""
Po 1.95 -1
$EndPAD
$PAD
Sh "5" R 0.3 2 0 0 0
Dr 0 0 0
At SMD N 00888000
Ne 0 ""
Po 2.6 -1
$EndPAD
$PAD
Sh "6" R 0.3 2 0 0 0
Dr 0 0 0
At SMD N 00888000
Ne 0 ""
Po 3.25 -1
$EndPAD
$PAD
Sh "7" R 0.3 2 0 0 0
Dr 0 0 0
At SMD N 00888000
Ne 0 ""
Po 3.9 -1
$EndPAD
$PAD
Sh "8" R 0.3 2 0 0 0
Dr 0 0 0
At SMD N 00888000
Ne 0 ""
Po 4.55 -1
$EndPAD
$PAD
Sh "9" R 0.3 2 0 0 0
Dr 0 0 0
At SMD N 00888000
Ne 0 ""
Po 5.2 -1
$EndPAD
$PAD
Sh "10" R 0.3 2 0 0 0
Dr 0 0 0
At SMD N 00888000
Ne 0 ""
Po 5.85 -1
$EndPAD
$PAD
Sh "11" R 0.3 2 0 0 0
Dr 0 0 0
At SMD N 00888000
Ne 0 ""
Po 6.5 -1
$EndPAD
$PAD
Sh "12" R 0.3 2 0 0 0
Dr 0 0 0
At SMD N 00888000
Ne 0 ""
Po 7.15 -1
$EndPAD
$PAD
Sh "13" R 0.3 2 0 0 0
Dr 0 0 0
At SMD N 00888000
Ne 0 ""
Po 7.8 -1
$EndPAD
$PAD
Sh "14" R 0.3 2 0 0 0
Dr 0 0 0
At SMD N 00888000
Ne 0 ""
Po 8.45 -1
$EndPAD
$PAD
Sh "15" R 0.3 2 0 0 0
Dr 0 0 0
At SMD N 00888000
Ne 0 ""
Po 8.45 -6.8
$EndPAD
$PAD
Sh "16" R 0.3 2 0 0 0
Dr 0 0 0
At SMD N 00888000
Ne 0 ""
Po 7.8 -6.8
$EndPAD
$PAD
Sh "17" R 0.3 2 0 0 0
Dr 0 0 0
At SMD N 00888000
Ne 0 ""
Po 7.15 -6.8
$EndPAD
$PAD
Sh "18" R 0.3 2 0 0 0
Dr 0 0 0
At SMD N 00888000
Ne 0 ""
Po 6.5 -6.8
$EndPAD
$PAD
Sh "19" R 0.3 2 0 0 0
Dr 0 0 0
At SMD N 00888000
Ne 0 ""
Po 5.85 -6.8
$EndPAD
$PAD
Sh "20" R 0.3 2 0 0 0
Dr 0 0 0
At SMD N 00888000
Ne 0 ""
Po 5.2 -6.8
$EndPAD
$PAD
Sh "21" R 0.3 2 0 0 0
Dr 0 0 0
At SMD N 00888000
Ne 0 ""
Po 4.55 -6.8
$EndPAD
$PAD
Sh "22" R 0.3 2 0 0 0
Dr 0 0 0
At SMD N 00888000
Ne 0 ""
Po 3.9 -6.8
$EndPAD
$PAD
Sh "23" R 0.3 2 0 0 0
Dr 0 0 0
At SMD N 00888000
Ne 0 ""
Po 3.25 -6.8
$EndPAD
$PAD
Sh "24" R 0.3 2 0 0 0
Dr 0 0 0
At SMD N 00888000
Ne 0 ""
Po 2.6 -6.8
$EndPAD
$PAD
Sh "25" R 0.3 2 0 0 0
Dr 0 0 0
At SMD N 00888000
Ne 0 ""
Po 1.95 -6.8
$EndPAD
$PAD
Sh "26" R 0.3 2 0 0 0
Dr 0 0 0
At SMD N 00888000
Ne 0 ""
Po 2.6 -13.6
$EndPAD
$PAD
Sh "27" R 0.3 2 0 0 0
Dr 0 0 0
At SMD N 00888000
Ne 0 ""
Po 0.65 -6.8
$EndPAD
$PAD
Sh "28" R 0.3 2 0 0 0
Dr 0 0 0
At SMD N 00888000
Ne 0 ""
Po 0 -6.8
$EndPAD
$EndMODULE FT232RL
$MODULE LM2621
Po 0 0 0 15 5251C27E 00000000 ~~
Li LM2621
Sc 0
AR 
Op 0 0 0
T0 7.9756 -2.3876 1.524 1.524 0 0.20066 N V 21 N "LM2621"
T1 -4.572 -2.3368 1.524 1.524 0 0.20066 N V 21 N "VAL**"
DC -0.508 -1.8796 -0.3556 -1.8288 0.09906 21
DS -1 -1.5 2.7 -1.5 0.09906 21
DS -1 -3.5052 2.7 -3.5052 0.09906 21
DS 2.7 -3.5 2.7 -1.5 0.09906 21
DS -1 -3.5 -1 -1.5 0.09906 21
$PAD
Sh "1" R 0.38 1.2 0 0 0
Dr 0 0 0
At SMD N 00888000
Ne 0 ""
Po 0 -0.6
$EndPAD
$PAD
Sh "2" R 0.38 1.2 0 0 0
Dr 0 0 0
At SMD N 00888000
Ne 0 ""
Po 0.65 -0.6
$EndPAD
$PAD
Sh "3" R 0.38 1.2 0 0 0
Dr 0 0 0
At SMD N 00888000
Ne 0 ""
Po 1.3 -0.6
$EndPAD
$PAD
Sh "4" R 0.38 1.2 0 0 0
Dr 0 0 0
At SMD N 00888000
Ne 0 ""
Po 1.95 -0.6
$EndPAD
$PAD
Sh "5" R 0.38 1.2 0 0 0
Dr 0 0 0
At SMD N 00888000
Ne 0 ""
Po 1.95 -4.45
$EndPAD
$PAD
Sh "6" R 0.38 1.2 0 0 0
Dr 0 0 0
At SMD N 00888000
Ne 0 ""
Po 1.3 -4.45
$EndPAD
$PAD
Sh "7" R 0.38 1.2 0 0 0
Dr 0 0 0
At SMD N 00888000
Ne 0 ""
Po 0.65 -4.45
$EndPAD
$PAD
Sh "8" R 0.38 1.2 0 0 0
Dr 0 0 0
At SMD N 00888000
Ne 0 ""
Po 0 -4.45
$EndPAD
$EndMODULE LM2621
$EndLIBRARY
