PCBNEW-LibModule-V1  vie 01 nov 2013 12:56:24 COT
# encoding utf-8
Units mm
$INDEX
LTC3533
$EndINDEX
$MODULE LTC3533
Po 0 0 0 15 5273EB2E 00000000 ~~
Li LTC3533
Sc 0
AR 
Op 0 0 0
T0 5.2832 -1.3716 0.5 0.5 0 0.125 N V 21 N "LTC3533"
T1 -2.3368 -1.3208 0.7 0.7 0 0.175 N V 21 N "VAL**"
DC 0 -0.7112 -0.0508 -0.7112 0.09906 21
DS -0.4064 -2.4384 3.4036 -2.4384 0.09906 21
DS 3.4036 -2.4384 3.4036 -0.4572 0.09906 21
DS 3.4036 -0.4572 -0.4064 -0.4572 0.09906 21
DS -0.4064 -0.4572 -0.4064 -2.4384 0.09906 21
$PAD
Sh "1" R 0.25 1.7 0 0 0
Dr 0 0 0
At SMD N 00888000
Ne 0 ""
Po 0 0.5
$EndPAD
$PAD
Sh "2" R 0.25 1.7 0 0 0
Dr 0 0 0
At SMD N 00888000
Ne 0 ""
Po 0.5 0.5
$EndPAD
$PAD
Sh "3" R 0.25 1.7 0 0 0
Dr 0 0 0
At SMD N 00888000
Ne 0 ""
Po 1 0.5
$EndPAD
$PAD
Sh "4" R 0.25 1.7 0 0 0
Dr 0 0 0
At SMD N 00888000
Ne 0 ""
Po 1.5 0.5
$EndPAD
$PAD
Sh "5" R 0.25 1.7 0 0 0
Dr 0 0 0
At SMD N 00888000
Ne 0 ""
Po 2 0.5
$EndPAD
$PAD
Sh "6" R 0.25 1.7 0 0 0
Dr 0 0 0
At SMD N 00888000
Ne 0 ""
Po 2.5 0.5
$EndPAD
$PAD
Sh "7" R 0.25 1.7 0 0 0
Dr 0 0 0
At SMD N 00888000
Ne 0 ""
Po 3 0.5
$EndPAD
$PAD
Sh "8" R 0.25 1.7 0 0 0
Dr 0 0 0
At SMD N 00888000
Ne 0 ""
Po 3 -3.4
$EndPAD
$PAD
Sh "9" R 0.25 1.7 0 0 0
Dr 0 0 0
At SMD N 00888000
Ne 0 ""
Po 2.5 -3.4
$EndPAD
$PAD
Sh "10" R 0.25 1.7 0 0 0
Dr 0 0 0
At SMD N 00888000
Ne 0 ""
Po 2 -3.4
$EndPAD
$PAD
Sh "11" R 0.25 1.7 0 0 0
Dr 0 0 0
At SMD N 00888000
Ne 0 ""
Po 1.5 -3.4
$EndPAD
$PAD
Sh "12" R 0.25 1.7 0 0 0
Dr 0 0 0
At SMD N 00888000
Ne 0 ""
Po 1 -3.4
$EndPAD
$PAD
Sh "13" R 0.25 1.7 0 0 0
Dr 0 0 0
At SMD N 00888000
Ne 0 ""
Po 0.5 -3.4
$EndPAD
$PAD
Sh "14" R 0.25 1.7 0 0 0
Dr 0 0 0
At SMD N 00888000
Ne 0 ""
Po 0 -3.4
$EndPAD
$PAD
Sh "15" R 3.3 1.7 0 0 0
Dr 0 0 0
At SMD N 00888000
Ne 0 ""
Po 1.5 -1.45
$EndPAD
$EndMODULE LTC3533
$EndLIBRARY
