PCBNEW-LibModule-V1  dom 06 oct 2013 15:19:07 COT
# encoding utf-8
Units mm
$INDEX
DO-214AA
$EndINDEX
$MODULE DO-214AA
Po 0 0 0 15 5251C564 00000000 ~~
Li DO-214AA
Sc 0
AR 
Op 0 0 0
T0 0.7112 -3.81 1.524 1.524 0 0.20066 N V 21 N "DO-214AA"
T1 1.5748 3.1496 1.524 1.524 0 0.20066 N V 21 N "VAL**"
$PAD
Sh "1" R 2.159 2.743 0 0 0
Dr 0 0 0
At SMD N 00888000
Ne 0 ""
Po 0 0
$EndPAD
$PAD
Sh "2" R 2.159 2.743 0 0 0
Dr 0 0 0
At SMD N 00888000
Ne 0 ""
Po 4.42 0
$EndPAD
$EndMODULE DO-214AA
$EndLIBRARY
