PCBNEW-LibModule-V1  mar 30 abr 2013 12:24:51 COT
# encoding utf-8
Units mm
$INDEX
pin_array_7
$EndINDEX
$MODULE pin_array_7
Po 0 0 0 15 517FE820 00000000 ~~
Li pin_array_7
Cd Double rangee de contacts 2 x 4 pins
Kw CONN
Sc 0
AR 
Op 0 0 0
T0 0 -2.54 1.016 1.016 0 0.2032 N V 21 N "PIN_ARRAY_7"
T1 0 2.54 1.016 1.016 0 0.2032 N I 21 N "Val**"
DS -8.89 -1.27 -8.89 1.27 0.3 21
DS -8.89 1.27 8.89 1.27 0.3 21
DS 8.89 1.27 8.89 -1.27 0.3 21
DS 8.89 -1.27 -8.89 -1.27 0.3 21
$PAD
Sh "1" R 1.524 1.524 0 0 0
Dr 1.016 0 0
At STD N 00E0FFFF
Ne 0 ""
Po -7.62 0
$EndPAD
$PAD
Sh "2" C 1.524 1.524 0 0 0
Dr 1.016 0 0
At STD N 00E0FFFF
Ne 0 ""
Po -5.08 0
$EndPAD
$PAD
Sh "3" C 1.524 1.524 0 0 0
Dr 1.016 0 0
At STD N 00E0FFFF
Ne 0 ""
Po -2.54 0
$EndPAD
$PAD
Sh "4" C 1.524 1.524 0 0 0
Dr 1.016 0 0
At STD N 00E0FFFF
Ne 0 ""
Po 0 0
$EndPAD
$PAD
Sh "5" C 1.524 1.524 0 0 0
Dr 1.016 0 0
At STD N 00E0FFFF
Ne 0 ""
Po 2.54 0
$EndPAD
$PAD
Sh "6" C 1.524 1.524 0 0 0
Dr 1.016 0 0
At STD N 00E0FFFF
Ne 0 ""
Po 5.08 0
$EndPAD
$PAD
Sh "7" C 1.524 1.524 0 0 0
Dr 1.016 0 0
At STD N 00E0FFFF
Ne 0 ""
Po 7.62 0
$EndPAD
$EndMODULE pin_array_7
$EndLIBRARY
