PCBNEW-LibModule-V1  mar 05 nov 2013 17:49:24 COT
# encoding utf-8
Units mm
$INDEX
Xtend_RF_Holes
pin_array_10x2(2mm)
pin_array_12x2
$EndINDEX
$MODULE Xtend_RF_Holes
Po 0 0 0 15 517FF5C1 00000000 ~~
Li Xtend_RF_Holes
Sc 0
AR 
Op 0 0 0
T0 0 0 1 1 0 0.15 N V 21 N "Xtend_RF_Holes"
T1 0 2 1 1 0 0.15 N V 21 N "VAL**"
$PAD
Sh "1" C 3.6 3.6 0 0 0
Dr 3.3 0 0
At STD N 00E0FFFF
Ne 0 ""
Po -14 0
$EndPAD
$PAD
Sh "2" C 3.6 3.6 0 0 0
Dr 3.3 0 0
At STD N 00E0FFFF
Ne 0 ""
Po 15 0
$EndPAD
$EndMODULE Xtend_RF_Holes
$MODULE pin_array_10x2(2mm)
Po 0 0 0 15 527975EF 00000000 ~~
Li pin_array_10x2(2mm)
Cd Double rangee de contacts 2 x 12 pins
Kw CONN
Sc 0
AR /517EDF43
Op 0 0 0
T0 0 -3.81 1.016 1.016 0 0.254 N V 21 N ""
T1 0 4 1.016 1.016 0 0.2032 N V 21 N "XTend RF Module"
DS -10 -2 -10 2 0.3 21
DS -10 2 10 2 0.3 21
DS 10 2 10 -2 0.3 21
DS 10 -2 -10 -2 0.3 21
$PAD
Sh "2" C 1.2 1.2 0 0 0
Dr 0.8128 0 0
At STD N 00E0FFFF
Ne 8 "SHDN"
Po -9 -1
$EndPAD
$PAD
Sh "1" R 1.2 1.2 0 0 0
Dr 0.8128 0 0
At STD N 00E0FFFF
Ne 4 "GND"
Po -9 1
$EndPAD
$PAD
Sh "3" C 1.2 1.2 0 0 0
Dr 0.8128 0 0
At STD N 00E0FFFF
Ne 7 "RX LED"
Po -7 1
$EndPAD
$PAD
Sh "4" C 1.2 1.2 0 0 0
Dr 0.8128 0 0
At STD N 00E0FFFF
Ne 10 "TX POWER"
Po -7 -1
$EndPAD
$PAD
Sh "5" C 1.2 1.2 0 0 0
Dr 0.8128 0 0
At STD N 00E0FFFF
Ne 2 "DI"
Po -5 1
$EndPAD
$PAD
Sh "6" C 1.2 1.2 0 0 0
Dr 0.8128 0 0
At STD N 00E0FFFF
Ne 3 "DO"
Po -5 -1
$EndPAD
$PAD
Sh "7" C 1.2 1.2 0 0 0
Dr 0.8128 0 0
At STD N 00E0FFFF
Ne 8 "SHDN"
Po -3 1
$EndPAD
$PAD
Sh "8" C 1.2 1.2 0 0 0
Dr 0.8128 0 0
At STD N 00E0FFFF
Ne 9 "SLEEP"
Po -3 -1
$EndPAD
$PAD
Sh "9" C 1.2 1.2 0 0 0
Dr 0.8128 0 0
At STD N 00E0FFFF
Ne 1 "CTS"
Po -1 1
$EndPAD
$PAD
Sh "10" C 1.2 1.2 0 0 0
Dr 0.8128 0 0
At STD N 00E0FFFF
Ne 6 "RTS"
Po -1 -1
$EndPAD
$PAD
Sh "11" C 1.2 1.2 0 0 0
Dr 0.8128 0 0
At STD N 00E0FFFF
Ne 5 "RSSI"
Po 1 1
$EndPAD
$PAD
Sh "12" C 1.2 1.2 0 0 0
Dr 0.8128 0 0
At STD N 00E0FFFF
Ne 0 ""
Po 1 -1
$EndPAD
$PAD
Sh "13" C 1.2 1.2 0 0 0
Dr 0.8128 0 0
At STD N 00E0FFFF
Ne 0 ""
Po 3 1
$EndPAD
$PAD
Sh "14" C 1.2 1.2 0 0 0
Dr 0.8128 0 0
At STD N 00E0FFFF
Ne 0 ""
Po 3 -1
$EndPAD
$PAD
Sh "15" C 1.2 1.2 0 0 0
Dr 0.8128 0 0
At STD N 00E0FFFF
Ne 0 ""
Po 5 1
$EndPAD
$PAD
Sh "16" C 1.2 1.2 0 0 0
Dr 0.8128 0 0
At STD N 00E0FFFF
Ne 0 ""
Po 5 -1
$EndPAD
$PAD
Sh "17" C 1.2 1.2 0 0 0
Dr 0.8128 0 0
At STD N 00E0FFFF
Ne 0 ""
Po 7 1
$EndPAD
$PAD
Sh "18" C 1.2 1.2 0 0 0
Dr 0.8128 0 0
At STD N 00E0FFFF
Ne 0 ""
Po 7 -1
$EndPAD
$PAD
Sh "19" C 1.2 1.2 0 0 0
Dr 0.8128 0 0
At STD N 00E0FFFF
Ne 0 ""
Po 9 1
$EndPAD
$PAD
Sh "20" C 1.2 1.2 0 0 0
Dr 0.8128 0 0
At STD N 00E0FFFF
Ne 0 ""
Po 9 -1
$EndPAD
$EndMODULE pin_array_10x2(2mm)
$MODULE pin_array_12x2
Po 0 0 0 15 517FF362 00000000 ~~
Li pin_array_12x2
Cd Double rangee de contacts 2 x 12 pins
Kw CONN
Sc 0
AR 
Op 0 0 0
T0 0 -3.81 1.016 1.016 0 0.254 N V 21 N "PIN_ARRAY_10X2(2mm)"
T1 0 4 1.016 1.016 0 0.2032 N V 21 N "Val**"
DS -10 -2 -10 2 0.3 21
DS -10 2 10 2 0.3 21
DS 10 2 10 -2 0.3 21
DS 10 -2 -10 -2 0.3 21
$PAD
Sh "2" C 1 1 0 0 0
Dr 0.8128 0 0
At STD N 00E0FFFF
Ne 0 ""
Po -9 -1
$EndPAD
$PAD
Sh "1" R 1 1 0 0 0
Dr 0.8128 0 0
At STD N 00E0FFFF
Ne 0 ""
Po -9 1
$EndPAD
$PAD
Sh "3" C 1 1 0 0 0
Dr 0.8128 0 0
At STD N 00E0FFFF
Ne 0 ""
Po -7 1
$EndPAD
$PAD
Sh "4" C 1 1 0 0 0
Dr 0.8128 0 0
At STD N 00E0FFFF
Ne 0 ""
Po -7 -1
$EndPAD
$PAD
Sh "5" C 1 1 0 0 0
Dr 0.8128 0 0
At STD N 00E0FFFF
Ne 0 ""
Po -5 1
$EndPAD
$PAD
Sh "6" C 1 1 0 0 0
Dr 0.8128 0 0
At STD N 00E0FFFF
Ne 0 ""
Po -5 -1
$EndPAD
$PAD
Sh "7" C 1 1 0 0 0
Dr 0.8128 0 0
At STD N 00E0FFFF
Ne 0 ""
Po -3 1
$EndPAD
$PAD
Sh "8" C 1 1 0 0 0
Dr 0.8128 0 0
At STD N 00E0FFFF
Ne 0 ""
Po -3 -1
$EndPAD
$PAD
Sh "9" C 1 1 0 0 0
Dr 0.8128 0 0
At STD N 00E0FFFF
Ne 0 ""
Po -1 1
$EndPAD
$PAD
Sh "10" C 1 1 0 0 0
Dr 0.8128 0 0
At STD N 00E0FFFF
Ne 0 ""
Po -1 -1
$EndPAD
$PAD
Sh "11" C 1 1 0 0 0
Dr 0.8128 0 0
At STD N 00E0FFFF
Ne 0 ""
Po 1 1
$EndPAD
$PAD
Sh "12" C 1 1 0 0 0
Dr 0.8128 0 0
At STD N 00E0FFFF
Ne 0 ""
Po 1 -1
$EndPAD
$PAD
Sh "13" C 1 1 0 0 0
Dr 0.8128 0 0
At STD N 00E0FFFF
Ne 0 ""
Po 3 1
$EndPAD
$PAD
Sh "14" C 1 1 0 0 0
Dr 0.8128 0 0
At STD N 00E0FFFF
Ne 0 ""
Po 3 -1
$EndPAD
$PAD
Sh "15" C 1 1 0 0 0
Dr 0.8128 0 0
At STD N 00E0FFFF
Ne 0 ""
Po 5 1
$EndPAD
$PAD
Sh "16" C 1 1 0 0 0
Dr 0.8128 0 0
At STD N 00E0FFFF
Ne 0 ""
Po 5 -1
$EndPAD
$PAD
Sh "17" C 1 1 0 0 0
Dr 0.8128 0 0
At STD N 00E0FFFF
Ne 0 ""
Po 7 1
$EndPAD
$PAD
Sh "18" C 1 1 0 0 0
Dr 0.8128 0 0
At STD N 00E0FFFF
Ne 0 ""
Po 7 -1
$EndPAD
$PAD
Sh "19" C 1 1 0 0 0
Dr 0.8128 0 0
At STD N 00E0FFFF
Ne 0 ""
Po 9 1
$EndPAD
$PAD
Sh "20" C 1 1 0 0 0
Dr 0.8128 0 0
At STD N 00E0FFFF
Ne 0 ""
Po 9 -1
$EndPAD
$SHAPE3D
Na "pin_array/pins_array_12x2.wrl"
Sc 1 1 1
Of 0 0 0
Ro 0 0 0
$EndSHAPE3D
$EndMODULE pin_array_12x2
$EndLIBRARY
