PCBNEW-LibModule-V1
$INDEX
LOGO
$EndINDEX
#
# LOGO
# pixmap w = 311, h = 207
#
$MODULE LOGO
Po 0 0 0 15 00000000 00000000 ~~
Li LOGO
T0 0 3733 600 600 0 120 N I 21 "G***"
T1 0 -3733 600 600 0 120 N I 21 "LOGO"
DP 0 0 0 0 326 1 21
Dl 5200 -3332
Dl 5191 -3262
Dl 5164 -3252
Dl 5140 -3299
Dl 5142 -3330
Dl 5141 -3361
Dl 5108 -3379
Dl 5032 -3389
Dl 4937 -3393
Dl 4793 -3391
Dl 4696 -3373
Dl 4666 -3359
Dl 4634 -3318
Dl 4634 -3383
Dl 4617 -3400
Dl 4600 -3383
Dl 4617 -3367
Dl 4634 -3383
Dl 4634 -3318
Dl 4606 -3281
Dl 4556 -3174
Dl 4534 -3073
Dl 4533 -3068
Dl 4560 -2986
Dl 4628 -2897
Dl 4716 -2822
Dl 4799 -2784
Dl 4911 -2787
Dl 5028 -2832
Dl 5117 -2905
Dl 5131 -2925
Dl 5137 -2908
Dl 5143 -2833
Dl 5148 -2699
Dl 5153 -2505
Dl 5157 -2249
Dl 5160 -1932
Dl 5162 -1552
Dl 5164 -1108
Dl 5165 -600
Dl 5165 -26
Dl 5165 17
Dl 5165 532
Dl 5164 1006
Dl 5163 1435
Dl 5161 1817
Dl 5158 2149
Dl 5155 2428
Dl 5151 2653
Dl 5147 2819
Dl 5142 2925
Dl 5137 2968
Dl 5135 2968
Dl 5119 2908
Dl 5124 2885
Dl 5127 2867
Dl 5118 2874
Dl 5100 2874
Dl 5100 -2717
Dl 5100 -2783
Dl 5084 -2800
Dl 5067 -2783
Dl 5084 -2767
Dl 5100 -2783
Dl 5100 -2717
Dl 5084 -2733
Dl 5067 -2717
Dl 5084 -2700
Dl 5100 -2717
Dl 5100 2874
Dl 5074 2876
Dl 5034 2861
Dl 5034 -2650
Dl 5017 -2667
Dl 5000 -2650
Dl 5017 -2633
Dl 5034 -2650
Dl 5034 2861
Dl 5001 2850
Dl 4994 2846
Dl 4900 2821
Dl 4900 2750
Dl 4884 2733
Dl 4867 2750
Dl 4867 -2717
Dl 4850 -2733
Dl 4834 -2717
Dl 4850 -2700
Dl 4867 -2717
Dl 4867 2750
Dl 4884 2767
Dl 4900 2750
Dl 4900 2821
Dl 4865 2812
Dl 4743 2835
Dl 4700 2865
Dl 4700 -2683
Dl 4684 -2700
Dl 4667 -2683
Dl 4684 -2667
Dl 4700 -2683
Dl 4700 2865
Dl 4667 2888
Dl 4667 2783
Dl 4650 2767
Dl 4634 2783
Dl 4650 2800
Dl 4667 2783
Dl 4667 2888
Dl 4642 2906
Dl 4600 2974
Dl 4600 -2777
Dl 4600 -2782
Dl 4576 -2810
Dl 4562 -2820
Dl 4539 -2824
Dl 4547 -2805
Dl 4581 -2770
Dl 4600 -2777
Dl 4600 2974
Dl 4575 3015
Dl 4567 3065
Dl 4567 2817
Dl 4550 2800
Dl 4534 2817
Dl 4550 2833
Dl 4567 2817
Dl 4567 3065
Dl 4555 3142
Dl 4572 3254
Dl 4624 3334
Dl 4648 3356
Dl 4737 3433
Dl 4534 3433
Dl 4534 3317
Dl 4517 3300
Dl 4500 3317
Dl 4500 -3017
Dl 4500 -3383
Dl 4484 -3400
Dl 4467 -3383
Dl 4484 -3367
Dl 4500 -3383
Dl 4500 -3017
Dl 4484 -3033
Dl 4467 -3017
Dl 4484 -3000
Dl 4500 -3017
Dl 4500 3317
Dl 4517 3333
Dl 4534 3317
Dl 4534 3433
Dl 13 3433
Dl -542 3433
Dl -1078 3433
Dl -1592 3432
Dl -2080 3431
Dl -2537 3430
Dl -2961 3429
Dl -3347 3427
Dl -3693 3426
Dl -3993 3424
Dl -4245 3422
Dl -4366 3420
Dl -4366 2750
Dl -4383 2733
Dl -4400 2750
Dl -4383 2767
Dl -4366 2750
Dl -4366 3420
Dl -4400 3420
Dl -4400 3050
Dl -4416 3033
Dl -4433 3050
Dl -4433 2817
Dl -4433 -3350
Dl -4450 -3367
Dl -4466 -3350
Dl -4450 -3333
Dl -4433 -3350
Dl -4433 2817
Dl -4450 2800
Dl -4466 2817
Dl -4466 -2950
Dl -4483 -2967
Dl -4498 -2952
Dl -4498 -3133
Dl -4500 -3139
Dl -4500 -3317
Dl -4516 -3333
Dl -4533 -3317
Dl -4516 -3300
Dl -4500 -3317
Dl -4500 -3139
Dl -4521 -3199
Dl -4525 -3207
Dl -4612 -3323
Dl -4735 -3386
Dl -4857 -3400
Dl -4995 -3382
Dl -5082 -3323
Dl -5121 -3220
Dl -5121 -3089
Dl -5107 -2961
Dl -5095 -2887
Dl -5084 -2851
Dl -5067 -2842
Dl -5053 -2844
Dl -5025 -2825
Dl -5026 -2806
Dl -5019 -2776
Dl -5008 -2778
Dl -4955 -2786
Dl -4879 -2773
Dl -4806 -2747
Dl -4762 -2717
Dl -4759 -2703
Dl -4747 -2678
Dl -4732 -2684
Dl -4715 -2719
Dl -4732 -2749
Dl -4744 -2785
Dl -4699 -2810
Dl -4682 -2814
Dl -4606 -2860
Dl -4542 -2963
Dl -4537 -2975
Dl -4502 -3068
Dl -4498 -3133
Dl -4498 -2952
Dl -4500 -2950
Dl -4483 -2933
Dl -4466 -2950
Dl -4466 2817
Dl -4450 2833
Dl -4433 2817
Dl -4433 3050
Dl -4416 3067
Dl -4400 3050
Dl -4400 3420
Dl -4433 3420
Dl -4433 3350
Dl -4450 3333
Dl -4466 3350
Dl -4450 3367
Dl -4433 3350
Dl -4433 3420
Dl -4444 3420
Dl -4587 3418
Dl -4671 3416
Dl -4692 3414
Dl -4646 3393
Dl -4611 3386
Dl -4560 3357
Dl -4549 3330
Dl -4541 3266
Dl -4522 3177
Dl -4521 3173
Dl -4512 3069
Dl -4533 3021
Dl -4533 2817
Dl -4550 2800
Dl -4566 2817
Dl -4550 2833
Dl -4533 2817
Dl -4533 3021
Dl -4553 2976
Dl -4554 2973
Dl -4594 2903
Dl -4607 2857
Dl -4606 2856
Dl -4619 2843
Dl -4632 2849
Dl -4664 2850
Dl -4666 2840
Dl -4696 2823
Dl -4771 2815
Dl -4815 2815
Dl -4912 2813
Dl -4946 2794
Dl -4943 2786
Dl -4948 2780
Dl -4987 2815
Dl -4990 2819
Dl -5000 2832
Dl -5000 -2650
Dl -5016 -2667
Dl -5033 -2650
Dl -5016 -2633
Dl -5000 -2650
Dl -5000 2832
Dl -5087 2946
Dl -5100 2989
Dl -5100 2817
Dl -5100 2750
Dl -5100 -2750
Dl -5116 -2767
Dl -5133 -2750
Dl -5116 -2733
Dl -5100 -2750
Dl -5100 2750
Dl -5116 2733
Dl -5133 2750
Dl -5116 2767
Dl -5100 2750
Dl -5100 2817
Dl -5116 2800
Dl -5133 2817
Dl -5116 2833
Dl -5100 2817
Dl -5100 2989
Dl -5129 3085
Dl -5133 3158
Dl -5113 3292
Dl -5046 3386
Dl -4989 3424
Dl -4960 3445
Dl -4984 3456
Dl -5047 3460
Dl -5166 3464
Dl -5166 15
Dl -5166 -3433
Dl 17 -3433
Dl 5200 -3433
Dl 5200 -3332
Dl 5200 -3332
DP 0 0 0 0 18 1 21
Dl 5200 3383
Dl 5190 3442
Dl 5167 3453
Dl 5167 3417
Dl 5150 3400
Dl 5134 3417
Dl 5150 3433
Dl 5167 3417
Dl 5167 3453
Dl 5146 3464
Dl 5097 3467
Dl 4993 3467
Dl 5072 3384
Dl 5143 3318
Dl 5183 3308
Dl 5199 3353
Dl 5200 3383
Dl 5200 3383
DP 0 0 0 0 32 1 21
Dl -4566 3124
Dl -4595 3250
Dl -4666 3336
Dl -4666 3317
Dl -4683 3300
Dl -4700 3317
Dl -4683 3333
Dl -4666 3317
Dl -4666 3336
Dl -4670 3341
Dl -4777 3388
Dl -4833 3384
Dl -4833 3283
Dl -4850 3267
Dl -4866 3283
Dl -4850 3300
Dl -4833 3283
Dl -4833 3384
Dl -4901 3381
Dl -4954 3361
Dl -5045 3285
Dl -5089 3179
Dl -5084 3065
Dl -5027 2963
Dl -5017 2953
Dl -4907 2888
Dl -4792 2875
Dl -4686 2909
Dl -4606 2985
Dl -4568 3096
Dl -4566 3124
Dl -4566 3124
DP 0 0 0 0 18 1 21
Dl 5134 3097
Dl 5107 3225
Dl 5039 3322
Dl 4942 3380
Dl 4833 3393
Dl 4724 3353
Dl 4682 3318
Dl 4615 3212
Dl 4603 3098
Dl 4640 2993
Dl 4719 2913
Dl 4834 2874
Dl 4851 2873
Dl 4963 2894
Dl 5060 2954
Dl 5121 3039
Dl 5134 3097
Dl 5134 3097
DP 0 0 0 0 6 1 21
Dl -4566 3350
Dl -4583 3367
Dl -4600 3350
Dl -4583 3333
Dl -4566 3350
Dl -4566 3350
DP 0 0 0 0 31 1 21
Dl 5131 -3042
Dl 5108 -3002
Dl 5098 -3000
Dl 5078 -2980
Dl 5082 -2969
Dl 5074 -2929
Dl 5034 -2895
Dl 5034 -3117
Dl 5017 -3133
Dl 5000 -3117
Dl 5017 -3100
Dl 5034 -3117
Dl 5034 -2895
Dl 5022 -2884
Dl 4945 -2848
Dl 4864 -2834
Dl 4864 -2833
Dl 4773 -2854
Dl 4693 -2898
Dl 4627 -2989
Dl 4606 -3105
Dl 4632 -3221
Dl 4661 -3268
Dl 4753 -3335
Dl 4867 -3353
Dl 4979 -3326
Dl 5069 -3257
Dl 5096 -3212
Dl 5127 -3119
Dl 5131 -3042
Dl 5131 -3042
DP 0 0 0 0 43 1 21
Dl -4566 -3082
Dl -4595 -2970
Dl -4669 -2889
Dl -4772 -2846
Dl -4833 -2848
Dl -4833 -3250
Dl -4850 -3267
Dl -4866 -3250
Dl -4850 -3233
Dl -4833 -3250
Dl -4833 -2848
Dl -4889 -2848
Dl -4966 -2885
Dl -4966 -3017
Dl -4983 -3033
Dl -5000 -3017
Dl -5000 -3183
Dl -5016 -3200
Dl -5033 -3183
Dl -5016 -3167
Dl -5000 -3183
Dl -5000 -3017
Dl -4983 -3000
Dl -4966 -3017
Dl -4966 -2885
Dl -4998 -2899
Dl -5056 -2976
Dl -5086 -3080
Dl -5082 -3183
Dl -5058 -3236
Dl -4995 -3295
Dl -4944 -3328
Dl -4870 -3356
Dl -4800 -3366
Dl -4753 -3358
Dl -4750 -3334
Dl -4744 -3315
Dl -4722 -3319
Dl -4667 -3309
Dl -4615 -3252
Dl -4578 -3164
Dl -4566 -3082
Dl -4566 -3082
$EndMODULE LOGO
$EndLIBRARY
