PCBNEW-LibModule-V1  dom 06 oct 2013 16:31:02 COT
# encoding utf-8
Units mm
$INDEX
SM1212
$EndINDEX
$MODULE SM1212
Po 0 0 0 15 5251D682 00000000 ~~
Li SM1212
Sc 0
AR /524F62FD
Op 0 0 0
T0 1.1176 -3.048 1.524 1.524 0 0.20066 N V 21 N "L1"
T1 2.1844 3.5052 1.524 1.524 0 0.20066 N V 21 N "6.8uH"
$PAD
Sh "1" R 1 3 0 0 0
Dr 0 0 0
At SMD N 00888000
Ne 1 "VCC"
Po 0 0
$EndPAD
$PAD
Sh "2" R 1 3 0 0 0
Dr 0 0 0
At SMD N 00888000
Ne 0 ""
Po 2.2 0
$EndPAD
$EndMODULE SM1212
$EndLIBRARY
