PCBNEW-LibModule-V1  vie 01 nov 2013 15:12:52 COT
# encoding utf-8
Units mm
$INDEX
SOIC16
$EndINDEX
$MODULE SOIC16
Po 0 0 0 15 52740B2C 00000000 ~~
Li SOIC16
Sc 0
AR /525AAD88
Op 0 0 0
T0 11.0236 -2.8956 1 1 0 0.20066 N V 21 N "U4"
T1 3.9116 -2.794 1 1 0 0.20066 N V 21 N "MAX232"
DS -0.9144 -4.318 -0.9144 -1.4224 0.09906 21
DS -0.9144 -1.4224 -0.9144 -1.1176 0.09906 21
DS -0.9144 -1.1176 -0.9144 -1.0668 0.09906 21
DS -0.9144 -1.0668 -0.6096 -1.0668 0.09906 21
DS -0.5588 -1.0668 1.8288 -1.0668 0.09906 21
DS 1.8288 -1.0668 5.6388 -1.0668 0.09906 21
DS 5.6388 -1.0668 9.5504 -1.0668 0.09906 21
DS 9.5504 -1.0668 9.5504 -2.2352 0.09906 21
DS 9.5504 -2.2352 9.5504 -4.318 0.09906 21
DS 9.5504 -4.318 6.096 -4.318 0.09906 21
DS 6.096 -4.318 3.0988 -4.318 0.09906 21
DS 3.0988 -4.318 -0.9144 -4.318 0.09906 21
DC 0 -1.6764 0.1524 -1.3716 0.09906 21
$PAD
Sh "1" R 0.6 2.5 0 0 0
Dr 0 0 0
At SMD N 00888000
Ne 7 "N-0000011"
Po 0 0.475
$EndPAD
$PAD
Sh "2" R 0.6 2.5 0 0 0
Dr 0 0 0
At SMD N 00888000
Ne 6 "N-000001"
Po 1.27 0.475
$EndPAD
$PAD
Sh "3" R 0.6 2.55 0 0 0
Dr 0 0 0
At SMD N 00888000
Ne 8 "N-0000012"
Po 2.54 0.475
$EndPAD
$PAD
Sh "4" R 0.6 2.5 0 0 0
Dr 0 0 0
At SMD N 00888000
Ne 9 "N-0000013"
Po 3.81 0.475
$EndPAD
$PAD
Sh "5" R 0.6 2.5 0 0 0
Dr 0 0 0
At SMD N 00888000
Ne 10 "N-0000014"
Po 5.07 0.475
$EndPAD
$PAD
Sh "6" R 0.6 2.5 0 0 0
Dr 0 0 0
At SMD N 00888000
Ne 11 "N-000002"
Po 6.34 0.475
$EndPAD
$PAD
Sh "7" R 0.6 2.5 0 0 0
Dr 0 0 0
At SMD N 00888000
Ne 15 "N-0000077"
Po 7.61 0.475
$EndPAD
$PAD
Sh "8" R 0.6 2.5 0 0 0
Dr 0 0 0
At SMD N 00888000
Ne 16 "N-0000078"
Po 8.89 0.475
$EndPAD
$PAD
Sh "9" R 0.6 2.5 0 0 0
Dr 0 0 0
At SMD N 00888000
Ne 14 "N-0000074"
Po 8.89 -5.87
$EndPAD
$PAD
Sh "10" R 0.6 2.5 0 0 0
Dr 0 0 0
At SMD N 00888000
Ne 13 "N-0000073"
Po 7.62 -5.875
$EndPAD
$PAD
Sh "11" R 0.6 2.5 0 0 0
Dr 0 0 0
At SMD N 00888000
Ne 3 "/TX_FT232"
Po 6.35 -5.875
$EndPAD
$PAD
Sh "12" R 0.6 2.5 0 0 0
Dr 0 0 0
At SMD N 00888000
Ne 1 "/RX_FT232"
Po 5.08 -5.875
$EndPAD
$PAD
Sh "13" R 0.6 2.5 0 0 0
Dr 0 0 0
At SMD N 00888000
Ne 2 "/Rx"
Po 3.81 -5.875
$EndPAD
$PAD
Sh "14" R 0.6 2.5 0 0 0
Dr 0 0 0
At SMD N 00888000
Ne 4 "/Tx"
Po 2.54 -5.875
$EndPAD
$PAD
Sh "15" R 0.6 2.5 0 0 0
Dr 0 0 0
At SMD N 00888000
Ne 5 "GND"
Po 1.27 -5.875
$EndPAD
$PAD
Sh "16" R 0.6 2.5 0 0 0
Dr 0 0 0
At SMD N 00888000
Ne 12 "N-0000023"
Po 0 -5.875
$EndPAD
$EndMODULE SOIC16
$EndLIBRARY
