PCBNEW-LibModule-V1  lun 14 oct 2013 10:29:21 COT
# encoding utf-8
Units mm
$INDEX
U3
$EndINDEX
$MODULE U3
Po 0 0 0 15 525C0DC4 00000000 ~~
Li U3
Sc 0
AR /525AD3C9
Op 0 0 0
T0 -1.27 -2.032 0.5 0.5 0 0.125 N V 21 N "U3"
T1 3.048 -2.032 0.5 0.5 900 0.125 N V 21 N "TPS62046DGQ"
DC -0.0508 -0.9144 0 -0.8128 0.09906 21
DS -0.4064 -3.4544 -0.4064 -0.5588 0.09906 21
DS -0.4064 -3.4544 2.3368 -3.4544 0.09906 21
DS 2.3368 -3.4544 2.3368 -0.5588 0.09906 21
DS 2.3368 -0.5588 -0.254 -0.5588 0.09906 21
DS -0.254 -0.5588 -0.3556 -0.5588 0.09906 21
DS -0.3556 -0.5588 -0.3556 -2.286 0.09906 21
DS -0.3556 -2.286 -0.3556 -3.4544 0.09906 21
$PAD
Sh "1" R 0.27 1 0 0 0
Dr 0 0 0
At SMD N 00888000
Ne 2 "/5V3"
Po 0 0
$EndPAD
$PAD
Sh "2" R 0.27 1 0 0 0
Dr 0 0 0
At SMD N 00888000
Ne 2 "/5V3"
Po 0.5 0
$EndPAD
$PAD
Sh "3" R 0.27 1 0 0 0
Dr 0 0 0
At SMD N 00888000
Ne 2 "/5V3"
Po 1 0
$EndPAD
$PAD
Sh "4" R 0.27 1 0 0 0
Dr 0 0 0
At SMD N 00888000
Ne 3 "GND"
Po 1.5 0
$EndPAD
$PAD
Sh "5" R 0.27 1 0 0 0
Dr 0 0 0
At SMD N 00888000
Ne 1 "+3.3VP"
Po 2 0
$EndPAD
$PAD
Sh "6" R 0.27 1 0 0 0
Dr 0 0 0
At SMD N 00888000
Ne 3 "GND"
Po 2 -4
$EndPAD
$PAD
Sh "7" R 0.27 1 0 0 0
Dr 0 0 0
At SMD N 00888000
Ne 4 "N-0000045"
Po 1.5 -4
$EndPAD
$PAD
Sh "8" R 0.27 1 0 0 0
Dr 0 0 0
At SMD N 00888000
Ne 4 "N-0000045"
Po 1 -4
$EndPAD
$PAD
Sh "9" R 0.27 1 0 0 0
Dr 0 0 0
At SMD N 00888000
Ne 3 "GND"
Po 0.5 -4
$EndPAD
$PAD
Sh "10" R 0.27 1 0 0 0
Dr 0 0 0
At SMD N 00888000
Ne 3 "GND"
Po 0 -4
$EndPAD
$PAD
Sh "" R 1.88 1.57 0 0 0
Dr 0 0 0
At SMD N 00888000
Ne 0 ""
Po 1 -2.1
$EndPAD
$PAD
Sh "" R 10 10 0 0 900
Dr 0 0 0
At SMD N 00440001
Ne 0 ""
Po 1 -2.1
$EndPAD
$PAD
Sh "" C 1 1 0 0 0
Dr 0.5 0 0
At STD N 00F0FFFF
Ne 0 ""
Po 1 -2.1
$EndPAD
$EndMODULE U3
$EndLIBRARY
