PCBNEW-LibModule-V1  17/09/2013 08:22:16 p.m.
# encoding utf-8
Units mm
$INDEX
LOGO
un
$EndINDEX
$MODULE LOGO
Po 0 0 0 15 00000000 00000000 ~~
Li LOGO
Sc 0
AR 
Op 0 0 0
T0 0 3.46964 1.524 1.524 0 0.3048 N I 21 N "G***"
T1 0 -3.46964 1.524 1.524 0 0.3048 N I 21 N "LOGO"
DP 0 0 0 0 44 0.00254 21
Dl 0.08636 2.11836
Dl -1.12014 2.11328
Dl -1.66624 2.1082
Dl -2.07518 2.08788
Dl -2.39014 2.05232
Dl -2.64668 1.99644
Dl -2.77622 1.9558
Dl -3.29438 1.69926
Dl -3.69062 1.32588
Dl -3.90398 0.97536
Dl -3.97002 0.8001
Dl -4.01574 0.59182
Dl -4.04368 0.31242
Dl -4.05638 -0.06604
Dl -4.06146 -0.52832
Dl -4.064 -1.69164
Dl -3.77698 -1.69164
Dl -3.48996 -1.69164
Dl -3.4544 -0.5715
Dl -3.42646 0
Dl -3.38074 0.42926
Dl -3.30454 0.74168
Dl -3.19024 0.96774
Dl -3.03022 1.13284
Dl -2.85496 1.2446
Dl -2.52984 1.34874
Dl -2.0828 1.39192
Dl -2.02438 1.39446
Dl -1.69672 1.3843
Dl -1.47066 1.34366
Dl -1.2827 1.24968
Dl -1.16078 1.16332
Dl -0.9779 0.99822
Dl -0.84836 0.8001
Dl -0.75946 0.54102
Dl -0.70612 0.19558
Dl -0.68326 -0.27178
Dl -0.67818 -0.6985
Dl -0.67564 -1.69164
Dl -0.29464 -1.69164
Dl 0.08636 -1.69164
Dl 0.08636 0.21336
Dl 0.08636 2.11836
Dl 0.08636 2.11836
DP 0 0 0 0 47 0.00254 21
Dl 4.41452 2.11836
Dl 4.12242 2.11836
Dl 3.83286 2.11836
Dl 3.79476 0.94996
Dl 3.77444 0.4445
Dl 3.7465 0.0762
Dl 3.7084 -0.18542
Dl 3.65506 -0.3683
Dl 3.60426 -0.47752
Dl 3.32994 -0.78486
Dl 2.95402 -0.98806
Dl 2.52222 -1.0795
Dl 2.0701 -1.04902
Dl 1.69418 -0.91694
Dl 1.4478 -0.76962
Dl 1.27 -0.59944
Dl 1.14554 -0.381
Dl 1.06934 -0.08382
Dl 1.03124 0.3175
Dl 1.016 0.85598
Dl 1.016 0.99568
Dl 1.016 2.11836
Dl 0.635 2.11836
Dl 0.254 2.11836
Dl 0.254 0.20574
Dl 0.254 -1.70434
Dl 1.72212 -1.6764
Dl 2.25298 -1.66624
Dl 2.64668 -1.65354
Dl 2.92862 -1.63576
Dl 3.12674 -1.60782
Dl 3.2766 -1.56718
Dl 3.40106 -1.50622
Dl 3.53314 -1.4224
Dl 3.54076 -1.41732
Dl 3.81508 -1.19126
Dl 4.06654 -0.9144
Dl 4.1275 -0.83058
Dl 4.2164 -0.68834
Dl 4.2799 -0.55372
Dl 4.32308 -0.39624
Dl 4.35102 -0.18288
Dl 4.3688 0.12192
Dl 4.3815 0.54356
Dl 4.38912 0.82042
Dl 4.41452 2.11836
Dl 4.41452 2.11836
$EndMODULE LOGO
$MODULE un
Po 0 0 0 15 52390044 00000000 ~~
Li un
Sc 0
AR 
Op 0 0 0
T0 0 3.46964 1.524 1.524 0 0.3048 N I 21 N ""
T1 0 -3.46964 1.524 1.524 0 0.3048 N I 21 N ""
DP 0 0 0 0 44 0.00254 21
Dl 0.08636 2.11836
Dl -1.12014 2.11328
Dl -1.66624 2.1082
Dl -2.07518 2.08788
Dl -2.39014 2.05232
Dl -2.64668 1.99644
Dl -2.77622 1.9558
Dl -3.29438 1.69926
Dl -3.69062 1.32588
Dl -3.90398 0.97536
Dl -3.97002 0.8001
Dl -4.01574 0.59182
Dl -4.04368 0.31242
Dl -4.05638 -0.06604
Dl -4.06146 -0.52832
Dl -4.064 -1.69164
Dl -3.77698 -1.69164
Dl -3.48996 -1.69164
Dl -3.4544 -0.5715
Dl -3.42646 0
Dl -3.38074 0.42926
Dl -3.30454 0.74168
Dl -3.19024 0.96774
Dl -3.03022 1.13284
Dl -2.85496 1.2446
Dl -2.52984 1.34874
Dl -2.0828 1.39192
Dl -2.02438 1.39446
Dl -1.69672 1.3843
Dl -1.47066 1.34366
Dl -1.2827 1.24968
Dl -1.16078 1.16332
Dl -0.9779 0.99822
Dl -0.84836 0.8001
Dl -0.75946 0.54102
Dl -0.70612 0.19558
Dl -0.68326 -0.27178
Dl -0.67818 -0.6985
Dl -0.67564 -1.69164
Dl -0.29464 -1.69164
Dl 0.08636 -1.69164
Dl 0.08636 0.21336
Dl 0.08636 2.11836
Dl 0.08636 2.11836
DP 0 0 0 0 47 0.00254 21
Dl 4.41452 2.11836
Dl 4.12242 2.11836
Dl 3.83286 2.11836
Dl 3.79476 0.94996
Dl 3.77444 0.4445
Dl 3.7465 0.0762
Dl 3.7084 -0.18542
Dl 3.65506 -0.3683
Dl 3.60426 -0.47752
Dl 3.32994 -0.78486
Dl 2.95402 -0.98806
Dl 2.52222 -1.0795
Dl 2.0701 -1.04902
Dl 1.69418 -0.91694
Dl 1.4478 -0.76962
Dl 1.27 -0.59944
Dl 1.14554 -0.381
Dl 1.06934 -0.08382
Dl 1.03124 0.3175
Dl 1.016 0.85598
Dl 1.016 0.99568
Dl 1.016 2.11836
Dl 0.635 2.11836
Dl 0.254 2.11836
Dl 0.254 0.20574
Dl 0.254 -1.70434
Dl 1.72212 -1.6764
Dl 2.25298 -1.66624
Dl 2.64668 -1.65354
Dl 2.92862 -1.63576
Dl 3.12674 -1.60782
Dl 3.2766 -1.56718
Dl 3.40106 -1.50622
Dl 3.53314 -1.4224
Dl 3.54076 -1.41732
Dl 3.81508 -1.19126
Dl 4.06654 -0.9144
Dl 4.1275 -0.83058
Dl 4.2164 -0.68834
Dl 4.2799 -0.55372
Dl 4.32308 -0.39624
Dl 4.35102 -0.18288
Dl 4.3688 0.12192
Dl 4.3815 0.54356
Dl 4.38912 0.82042
Dl 4.41452 2.11836
Dl 4.41452 2.11836
$EndMODULE un
$EndLIBRARY
