PCBNEW-LibModule-V1  17/09/2013 08:23:34 p.m.
# encoding utf-8
Units mm
$INDEX
LOGO
unAS
$EndINDEX
$MODULE LOGO
Po 0 0 0 15 00000000 00000000 ~~
Li LOGO
Sc 0
AR 
Op 0 0 0
T0 0 3.72364 1.524 1.524 0 0.3048 N I 21 N "G***"
T1 0 -3.72364 1.524 1.524 0 0.3048 N I 21 N "LOGO"
DP 0 0 0 0 363 0.00254 21
Dl 5.16382 1.2573
Dl 5.14604 1.50622
Dl 5.07238 1.69418
Dl 4.92506 1.83642
Dl 4.67868 1.9431
Dl 4.30784 2.03454
Dl 3.79476 2.1209
Dl 3.76428 2.12598
Dl 3.25628 2.17424
Dl 2.77876 2.17424
Dl 2.36982 2.12852
Dl 2.06502 2.03962
Dl 1.97866 1.98882
Dl 1.92786 1.93802
Dl 1.95326 1.90246
Dl 2.07518 1.88214
Dl 2.31648 1.86944
Dl 2.69748 1.86436
Dl 2.83718 1.86182
Dl 3.53314 1.83642
Dl 4.06908 1.76784
Dl 4.445 1.65862
Dl 4.65836 1.50368
Dl 4.71424 1.30556
Dl 4.61518 1.06172
Dl 4.53136 0.94742
Dl 4.31038 0.68834
Dl 3.99542 0.9017
Dl 3.83032 1.00584
Dl 3.67284 1.0668
Dl 3.47472 1.09474
Dl 3.19024 1.0922
Dl 2.94132 1.08204
Dl 2.48666 1.04648
Dl 2.19456 0.98552
Dl 2.05486 0.89662
Dl 2.06502 0.77724
Dl 2.06756 0.7747
Dl 2.18694 0.73914
Dl 2.44348 0.8001
Dl 2.46888 0.81026
Dl 2.91338 0.91694
Dl 3.33502 0.9271
Dl 3.68554 0.84074
Dl 3.85318 0.73914
Dl 4.07924 0.5461
Dl 3.45694 0.15748
Dl 3.05816 -0.0889
Dl 2.77622 -0.25654
Dl 2.58826 -0.35306
Dl 2.46888 -0.39116
Dl 2.39268 -0.381
Dl 2.34442 -0.34544
Dl 2.286 -0.2159
Dl 2.286 -1.1938
Dl 2.23266 -1.24206
Dl 2.20218 -1.22682
Dl 2.11836 -1.11506
Dl 2.11582 -1.08966
Dl 2.16916 -1.04394
Dl 2.20218 -1.05664
Dl 2.28346 -1.17094
Dl 2.286 -1.1938
Dl 2.286 -0.2159
Dl 2.28092 -0.2032
Dl 2.25298 0.02032
Dl 2.25298 0.04064
Dl 2.22758 0.24638
Dl 2.16916 0.36322
Dl 2.159 0.37084
Dl 2.07518 0.46736
Dl 2.01168 0.59944
Dl 2.01168 -0.51054
Dl 1.99644 -0.6604
Dl 1.91008 -0.6604
Dl 1.75006 -0.51308
Dl 1.60782 -0.32512
Dl 1.60782 -0.78232
Dl 1.5367 -0.85344
Dl 1.36398 -0.9271
Dl 1.16332 -0.98044
Dl 1.0033 -0.99314
Dl 0.97536 -0.98552
Dl 0.89916 -0.90932
Dl 0.85852 -0.73152
Dl 0.84582 -0.4191
Dl 0.84582 -0.38354
Dl 0.84074 -0.08382
Dl 0.81788 0.08128
Dl 0.76454 0.15494
Dl 0.67818 0.17018
Dl 0.5842 0.1524
Dl 0.5334 0.0762
Dl 0.51308 -0.09906
Dl 0.508 -0.37592
Dl 0.49022 -0.80264
Dl 0.4318 -1.09728
Dl 0.31496 -1.28778
Dl 0.12446 -1.40716
Dl 0.04318 -1.43764
Dl -0.22606 -1.49606
Dl -0.45466 -1.4605
Dl -0.51562 -1.4351
Dl -0.74168 -1.30048
Dl -0.87376 -1.1049
Dl -0.9271 -0.80264
Dl -0.93218 -0.61976
Dl -0.9525 -0.21844
Dl -1.01092 0.03302
Dl -1.11506 0.1524
Dl -1.19634 0.17018
Dl -1.26238 0.15748
Dl -1.3081 0.1016
Dl -1.33604 -0.02286
Dl -1.34874 -0.24892
Dl -1.35382 -0.59944
Dl -1.35382 -0.8509
Dl -1.36144 -1.3208
Dl -1.38176 -1.6383
Dl -1.41224 -1.80086
Dl -1.44018 -1.81864
Dl -1.47574 -1.71704
Dl -1.50368 -1.47574
Dl -1.51892 -1.1303
Dl -1.524 -0.8001
Dl -1.524 0.17018
Dl -1.7145 0.17018
Dl -1.7145 -1.8923
Dl -1.778 -1.94056
Dl -1.95326 -2.00152
Dl -2.25298 -2.06248
Dl -2.62382 -2.1209
Dl -3.02514 -2.16662
Dl -3.40614 -2.19456
Dl -3.61696 -2.19964
Dl -4.04368 -2.16154
Dl -4.4069 -2.05486
Dl -4.6863 -1.89738
Dl -4.85902 -1.70434
Dl -4.9022 -1.49098
Dl -4.81076 -1.29286
Dl -4.68376 -1.17602
Dl -4.47548 -1.02108
Dl -4.23926 -0.8636
Dl -4.02844 -0.73914
Dl -3.89128 -0.67818
Dl -3.87858 -0.67564
Dl -3.84556 -0.75438
Dl -3.82016 -0.95758
Dl -3.81 -1.24714
Dl -3.81 -1.27508
Dl -3.80746 -1.5875
Dl -3.78968 -1.76276
Dl -3.7465 -1.83896
Dl -3.66522 -1.85166
Dl -3.6195 -1.84658
Dl -3.52298 -1.81864
Dl -3.46202 -1.74498
Dl -3.42392 -1.59004
Dl -3.39852 -1.31572
Dl -3.38582 -1.1557
Dl -3.35788 -0.80518
Dl -3.3147 -0.58166
Dl -3.24866 -0.43688
Dl -3.14452 -0.3302
Dl -2.86258 -0.19812
Dl -2.54 -0.18288
Dl -2.2479 -0.28702
Dl -2.20218 -0.32004
Dl -2.05232 -0.53086
Dl -1.94056 -0.87376
Dl -1.87706 -1.3081
Dl -1.8669 -1.54432
Dl -1.83896 -1.76784
Dl -1.7653 -1.86436
Dl -1.75768 -1.86436
Dl -1.7145 -1.8923
Dl -1.7145 0.17018
Dl -1.85928 0.17018
Dl -2.0828 0.1905
Dl -2.22758 0.23876
Dl -2.24536 0.25654
Dl -2.20218 0.3302
Dl -2.03708 0.43942
Dl -1.7907 0.56642
Dl -1.49606 0.69342
Dl -1.19888 0.80264
Dl -0.93218 0.8763
Dl -0.8128 0.89408
Dl -0.59182 0.9271
Dl -0.45466 0.96266
Dl -0.43942 0.97282
Dl -0.3556 1.01092
Dl -0.20828 0.98806
Dl 0.04318 0.89408
Dl 0.06604 0.88392
Dl 0.34544 0.73406
Dl 0.60452 0.54102
Dl 0.6223 0.52578
Dl 0.762 0.37338
Dl 0.94742 0.14986
Dl 1.15316 -0.1143
Dl 1.34874 -0.37592
Dl 1.50622 -0.59944
Dl 1.59512 -0.7493
Dl 1.60782 -0.78232
Dl 1.60782 -0.32512
Dl 1.52654 -0.2159
Dl 1.52146 -0.20574
Dl 1.26238 0.17018
Dl 1.55194 0.17018
Dl 1.72974 0.15748
Dl 1.83642 0.08636
Dl 1.91008 -0.08128
Dl 1.94818 -0.21336
Dl 2.01168 -0.51054
Dl 2.01168 0.59944
Dl 1.9812 0.66548
Dl 1.95072 0.75438
Dl 1.83642 1.0033
Dl 1.7145 1.08712
Dl 1.69926 1.07696
Dl 1.69926 0.53848
Dl 1.69672 0.3937
Dl 1.63322 0.35306
Dl 1.48336 0.35814
Dl 1.46812 0.45974
Dl 1.52908 0.55626
Dl 1.62306 0.6477
Dl 1.67894 0.59182
Dl 1.69926 0.53848
Dl 1.69926 1.07696
Dl 1.57988 1.00076
Dl 1.4732 0.8255
Dl 1.32842 0.5588
Dl 1.21412 0.43434
Dl 1.08458 0.44196
Dl 0.89916 0.57658
Dl 0.78232 0.67818
Dl 0.56388 0.86106
Dl 0.38608 0.98806
Dl 0.3048 1.02616
Dl 0.30734 1.04902
Dl 0.44196 1.08712
Dl 0.4572 1.08966
Dl 0.7112 1.1938
Dl 0.81788 1.35128
Dl 0.76454 1.54686
Dl 0.6985 1.62814
Dl 0.56134 1.85674
Dl 0.56134 2.0066
Dl 0.53848 2.1844
Dl 0.38608 2.30124
Dl 0.14224 2.3368
Dl 0.08382 2.32918
Dl 0.08382 1.18618
Dl 0.03048 1.10744
Dl -0.12446 1.15824
Dl -0.17018 1.18618
Dl -0.23622 1.24714
Dl -0.1524 1.26746
Dl -0.10668 1.27
Dl 0.04318 1.23952
Dl 0.08382 1.18618
Dl 0.08382 2.32918
Dl 0.02286 2.32156
Dl -0.19304 2.30886
Dl -0.49022 2.3495
Dl -0.89916 2.44602
Dl -1.10744 2.50444
Dl -1.25222 2.47396
Dl -1.41986 2.3495
Dl -1.42494 2.34442
Dl -1.57734 2.15392
Dl -1.59004 2.0574
Dl -1.4605 2.05232
Dl -1.43256 2.05994
Dl -1.19888 2.07264
Dl -1.04902 1.99136
Dl -1.016 1.88976
Dl -0.9525 1.79832
Dl -0.78994 1.79324
Dl -0.6096 1.778
Dl -0.53086 1.7145
Dl -0.56134 1.62052
Dl -0.61468 1.61036
Dl -0.76708 1.5748
Dl -1.04902 1.47574
Dl -1.43002 1.32588
Dl -1.88214 1.1303
Dl -2.3241 0.93472
Dl -3.37566 0.37338
Dl -4.3688 -0.32258
Dl -4.60248 -0.51562
Dl -4.98856 -0.85852
Dl -5.23748 -1.14554
Dl -5.36194 -1.397
Dl -5.37718 -1.6383
Dl -5.2959 -1.8796
Dl -5.1181 -2.16154
Dl -4.88696 -2.34696
Dl -4.56438 -2.46126
Dl -4.1148 -2.51968
Dl -4.0513 -2.52222
Dl -3.29184 -2.52476
Dl -2.47904 -2.44348
Dl -1.59004 -2.27584
Dl -0.61214 -2.01676
Dl 0.47752 -1.66116
Dl 0.90932 -1.50622
Dl 1.86436 -1.15824
Dl 2.14376 -1.48336
Dl 2.3622 -1.69418
Dl 2.51206 -1.75006
Dl 2.59334 -1.65354
Dl 2.6035 -1.40208
Dl 2.58826 -1.26238
Dl 2.5654 -1.00838
Dl 2.5908 -0.86614
Dl 2.67462 -0.77978
Dl 2.70764 -0.762
Dl 2.9083 -0.70866
Dl 3.0226 -0.80264
Dl 3.048 -0.96266
Dl 3.12674 -1.22682
Dl 3.34772 -1.4605
Dl 3.68046 -1.6383
Dl 4.09956 -1.74498
Dl 4.13766 -1.75006
Dl 4.51866 -1.7526
Dl 4.77774 -1.6637
Dl 4.89966 -1.4859
Dl 4.90982 -1.40208
Dl 4.84886 -1.23444
Dl 4.70154 -1.03632
Dl 4.51866 -0.86106
Dl 4.35102 -0.76708
Dl 4.31546 -0.762
Dl 4.2037 -0.81026
Dl 4.21894 -0.93726
Dl 4.35356 -1.11506
Dl 4.41198 -1.1684
Dl 4.58724 -1.36906
Dl 4.61264 -1.51638
Dl 4.48818 -1.59766
Dl 4.36118 -1.60782
Dl 4.06146 -1.55956
Dl 3.76174 -1.4351
Dl 3.50774 -1.26492
Dl 3.3401 -1.07188
Dl 3.302 -0.9398
Dl 3.36042 -0.8382
Dl 3.52044 -0.64516
Dl 3.76428 -0.38354
Dl 4.064 -0.07874
Dl 4.23418 0.08636
Dl 4.59486 0.43688
Dl 4.8514 0.6985
Dl 5.01904 0.89154
Dl 5.11302 1.03886
Dl 5.1562 1.16332
Dl 5.16382 1.2573
Dl 5.16382 1.2573
$EndMODULE LOGO
$MODULE unAS
Po 0 0 0 15 52390083 00000000 ~~
Li unAS
Sc 0
AR 
Op 0 0 0
T0 0 3.72364 1.524 1.524 0 0.3048 N I 21 N ""
T1 0 -3.72364 1.524 1.524 0 0.3048 N I 21 N ""
DP 0 0 0 0 363 0.00254 21
Dl 5.16382 1.2573
Dl 5.14604 1.50622
Dl 5.07238 1.69418
Dl 4.92506 1.83642
Dl 4.67868 1.9431
Dl 4.30784 2.03454
Dl 3.79476 2.1209
Dl 3.76428 2.12598
Dl 3.25628 2.17424
Dl 2.77876 2.17424
Dl 2.36982 2.12852
Dl 2.06502 2.03962
Dl 1.97866 1.98882
Dl 1.92786 1.93802
Dl 1.95326 1.90246
Dl 2.07518 1.88214
Dl 2.31648 1.86944
Dl 2.69748 1.86436
Dl 2.83718 1.86182
Dl 3.53314 1.83642
Dl 4.06908 1.76784
Dl 4.445 1.65862
Dl 4.65836 1.50368
Dl 4.71424 1.30556
Dl 4.61518 1.06172
Dl 4.53136 0.94742
Dl 4.31038 0.68834
Dl 3.99542 0.9017
Dl 3.83032 1.00584
Dl 3.67284 1.0668
Dl 3.47472 1.09474
Dl 3.19024 1.0922
Dl 2.94132 1.08204
Dl 2.48666 1.04648
Dl 2.19456 0.98552
Dl 2.05486 0.89662
Dl 2.06502 0.77724
Dl 2.06756 0.7747
Dl 2.18694 0.73914
Dl 2.44348 0.8001
Dl 2.46888 0.81026
Dl 2.91338 0.91694
Dl 3.33502 0.9271
Dl 3.68554 0.84074
Dl 3.85318 0.73914
Dl 4.07924 0.5461
Dl 3.45694 0.15748
Dl 3.05816 -0.0889
Dl 2.77622 -0.25654
Dl 2.58826 -0.35306
Dl 2.46888 -0.39116
Dl 2.39268 -0.381
Dl 2.34442 -0.34544
Dl 2.286 -0.2159
Dl 2.286 -1.1938
Dl 2.23266 -1.24206
Dl 2.20218 -1.22682
Dl 2.11836 -1.11506
Dl 2.11582 -1.08966
Dl 2.16916 -1.04394
Dl 2.20218 -1.05664
Dl 2.28346 -1.17094
Dl 2.286 -1.1938
Dl 2.286 -0.2159
Dl 2.28092 -0.2032
Dl 2.25298 0.02032
Dl 2.25298 0.04064
Dl 2.22758 0.24638
Dl 2.16916 0.36322
Dl 2.159 0.37084
Dl 2.07518 0.46736
Dl 2.01168 0.59944
Dl 2.01168 -0.51054
Dl 1.99644 -0.6604
Dl 1.91008 -0.6604
Dl 1.75006 -0.51308
Dl 1.60782 -0.32512
Dl 1.60782 -0.78232
Dl 1.5367 -0.85344
Dl 1.36398 -0.9271
Dl 1.16332 -0.98044
Dl 1.0033 -0.99314
Dl 0.97536 -0.98552
Dl 0.89916 -0.90932
Dl 0.85852 -0.73152
Dl 0.84582 -0.4191
Dl 0.84582 -0.38354
Dl 0.84074 -0.08382
Dl 0.81788 0.08128
Dl 0.76454 0.15494
Dl 0.67818 0.17018
Dl 0.5842 0.1524
Dl 0.5334 0.0762
Dl 0.51308 -0.09906
Dl 0.508 -0.37592
Dl 0.49022 -0.80264
Dl 0.4318 -1.09728
Dl 0.31496 -1.28778
Dl 0.12446 -1.40716
Dl 0.04318 -1.43764
Dl -0.22606 -1.49606
Dl -0.45466 -1.4605
Dl -0.51562 -1.4351
Dl -0.74168 -1.30048
Dl -0.87376 -1.1049
Dl -0.9271 -0.80264
Dl -0.93218 -0.61976
Dl -0.9525 -0.21844
Dl -1.01092 0.03302
Dl -1.11506 0.1524
Dl -1.19634 0.17018
Dl -1.26238 0.15748
Dl -1.3081 0.1016
Dl -1.33604 -0.02286
Dl -1.34874 -0.24892
Dl -1.35382 -0.59944
Dl -1.35382 -0.8509
Dl -1.36144 -1.3208
Dl -1.38176 -1.6383
Dl -1.41224 -1.80086
Dl -1.44018 -1.81864
Dl -1.47574 -1.71704
Dl -1.50368 -1.47574
Dl -1.51892 -1.1303
Dl -1.524 -0.8001
Dl -1.524 0.17018
Dl -1.7145 0.17018
Dl -1.7145 -1.8923
Dl -1.778 -1.94056
Dl -1.95326 -2.00152
Dl -2.25298 -2.06248
Dl -2.62382 -2.1209
Dl -3.02514 -2.16662
Dl -3.40614 -2.19456
Dl -3.61696 -2.19964
Dl -4.04368 -2.16154
Dl -4.4069 -2.05486
Dl -4.6863 -1.89738
Dl -4.85902 -1.70434
Dl -4.9022 -1.49098
Dl -4.81076 -1.29286
Dl -4.68376 -1.17602
Dl -4.47548 -1.02108
Dl -4.23926 -0.8636
Dl -4.02844 -0.73914
Dl -3.89128 -0.67818
Dl -3.87858 -0.67564
Dl -3.84556 -0.75438
Dl -3.82016 -0.95758
Dl -3.81 -1.24714
Dl -3.81 -1.27508
Dl -3.80746 -1.5875
Dl -3.78968 -1.76276
Dl -3.7465 -1.83896
Dl -3.66522 -1.85166
Dl -3.6195 -1.84658
Dl -3.52298 -1.81864
Dl -3.46202 -1.74498
Dl -3.42392 -1.59004
Dl -3.39852 -1.31572
Dl -3.38582 -1.1557
Dl -3.35788 -0.80518
Dl -3.3147 -0.58166
Dl -3.24866 -0.43688
Dl -3.14452 -0.3302
Dl -2.86258 -0.19812
Dl -2.54 -0.18288
Dl -2.2479 -0.28702
Dl -2.20218 -0.32004
Dl -2.05232 -0.53086
Dl -1.94056 -0.87376
Dl -1.87706 -1.3081
Dl -1.8669 -1.54432
Dl -1.83896 -1.76784
Dl -1.7653 -1.86436
Dl -1.75768 -1.86436
Dl -1.7145 -1.8923
Dl -1.7145 0.17018
Dl -1.85928 0.17018
Dl -2.0828 0.1905
Dl -2.22758 0.23876
Dl -2.24536 0.25654
Dl -2.20218 0.3302
Dl -2.03708 0.43942
Dl -1.7907 0.56642
Dl -1.49606 0.69342
Dl -1.19888 0.80264
Dl -0.93218 0.8763
Dl -0.8128 0.89408
Dl -0.59182 0.9271
Dl -0.45466 0.96266
Dl -0.43942 0.97282
Dl -0.3556 1.01092
Dl -0.20828 0.98806
Dl 0.04318 0.89408
Dl 0.06604 0.88392
Dl 0.34544 0.73406
Dl 0.60452 0.54102
Dl 0.6223 0.52578
Dl 0.762 0.37338
Dl 0.94742 0.14986
Dl 1.15316 -0.1143
Dl 1.34874 -0.37592
Dl 1.50622 -0.59944
Dl 1.59512 -0.7493
Dl 1.60782 -0.78232
Dl 1.60782 -0.32512
Dl 1.52654 -0.2159
Dl 1.52146 -0.20574
Dl 1.26238 0.17018
Dl 1.55194 0.17018
Dl 1.72974 0.15748
Dl 1.83642 0.08636
Dl 1.91008 -0.08128
Dl 1.94818 -0.21336
Dl 2.01168 -0.51054
Dl 2.01168 0.59944
Dl 1.9812 0.66548
Dl 1.95072 0.75438
Dl 1.83642 1.0033
Dl 1.7145 1.08712
Dl 1.69926 1.07696
Dl 1.69926 0.53848
Dl 1.69672 0.3937
Dl 1.63322 0.35306
Dl 1.48336 0.35814
Dl 1.46812 0.45974
Dl 1.52908 0.55626
Dl 1.62306 0.6477
Dl 1.67894 0.59182
Dl 1.69926 0.53848
Dl 1.69926 1.07696
Dl 1.57988 1.00076
Dl 1.4732 0.8255
Dl 1.32842 0.5588
Dl 1.21412 0.43434
Dl 1.08458 0.44196
Dl 0.89916 0.57658
Dl 0.78232 0.67818
Dl 0.56388 0.86106
Dl 0.38608 0.98806
Dl 0.3048 1.02616
Dl 0.30734 1.04902
Dl 0.44196 1.08712
Dl 0.4572 1.08966
Dl 0.7112 1.1938
Dl 0.81788 1.35128
Dl 0.76454 1.54686
Dl 0.6985 1.62814
Dl 0.56134 1.85674
Dl 0.56134 2.0066
Dl 0.53848 2.1844
Dl 0.38608 2.30124
Dl 0.14224 2.3368
Dl 0.08382 2.32918
Dl 0.08382 1.18618
Dl 0.03048 1.10744
Dl -0.12446 1.15824
Dl -0.17018 1.18618
Dl -0.23622 1.24714
Dl -0.1524 1.26746
Dl -0.10668 1.27
Dl 0.04318 1.23952
Dl 0.08382 1.18618
Dl 0.08382 2.32918
Dl 0.02286 2.32156
Dl -0.19304 2.30886
Dl -0.49022 2.3495
Dl -0.89916 2.44602
Dl -1.10744 2.50444
Dl -1.25222 2.47396
Dl -1.41986 2.3495
Dl -1.42494 2.34442
Dl -1.57734 2.15392
Dl -1.59004 2.0574
Dl -1.4605 2.05232
Dl -1.43256 2.05994
Dl -1.19888 2.07264
Dl -1.04902 1.99136
Dl -1.016 1.88976
Dl -0.9525 1.79832
Dl -0.78994 1.79324
Dl -0.6096 1.778
Dl -0.53086 1.7145
Dl -0.56134 1.62052
Dl -0.61468 1.61036
Dl -0.76708 1.5748
Dl -1.04902 1.47574
Dl -1.43002 1.32588
Dl -1.88214 1.1303
Dl -2.3241 0.93472
Dl -3.37566 0.37338
Dl -4.3688 -0.32258
Dl -4.60248 -0.51562
Dl -4.98856 -0.85852
Dl -5.23748 -1.14554
Dl -5.36194 -1.397
Dl -5.37718 -1.6383
Dl -5.2959 -1.8796
Dl -5.1181 -2.16154
Dl -4.88696 -2.34696
Dl -4.56438 -2.46126
Dl -4.1148 -2.51968
Dl -4.0513 -2.52222
Dl -3.29184 -2.52476
Dl -2.47904 -2.44348
Dl -1.59004 -2.27584
Dl -0.61214 -2.01676
Dl 0.47752 -1.66116
Dl 0.90932 -1.50622
Dl 1.86436 -1.15824
Dl 2.14376 -1.48336
Dl 2.3622 -1.69418
Dl 2.51206 -1.75006
Dl 2.59334 -1.65354
Dl 2.6035 -1.40208
Dl 2.58826 -1.26238
Dl 2.5654 -1.00838
Dl 2.5908 -0.86614
Dl 2.67462 -0.77978
Dl 2.70764 -0.762
Dl 2.9083 -0.70866
Dl 3.0226 -0.80264
Dl 3.048 -0.96266
Dl 3.12674 -1.22682
Dl 3.34772 -1.4605
Dl 3.68046 -1.6383
Dl 4.09956 -1.74498
Dl 4.13766 -1.75006
Dl 4.51866 -1.7526
Dl 4.77774 -1.6637
Dl 4.89966 -1.4859
Dl 4.90982 -1.40208
Dl 4.84886 -1.23444
Dl 4.70154 -1.03632
Dl 4.51866 -0.86106
Dl 4.35102 -0.76708
Dl 4.31546 -0.762
Dl 4.2037 -0.81026
Dl 4.21894 -0.93726
Dl 4.35356 -1.11506
Dl 4.41198 -1.1684
Dl 4.58724 -1.36906
Dl 4.61264 -1.51638
Dl 4.48818 -1.59766
Dl 4.36118 -1.60782
Dl 4.06146 -1.55956
Dl 3.76174 -1.4351
Dl 3.50774 -1.26492
Dl 3.3401 -1.07188
Dl 3.302 -0.9398
Dl 3.36042 -0.8382
Dl 3.52044 -0.64516
Dl 3.76428 -0.38354
Dl 4.064 -0.07874
Dl 4.23418 0.08636
Dl 4.59486 0.43688
Dl 4.8514 0.6985
Dl 5.01904 0.89154
Dl 5.11302 1.03886
Dl 5.1562 1.16332
Dl 5.16382 1.2573
Dl 5.16382 1.2573
$EndMODULE unAS
$EndLIBRARY
