PCBNEW-LibModule-V1  24/07/2013 01:44:35 p.m.
# encoding utf-8
$INDEX
USB_MINI_A
$EndINDEX
$MODULE USB_MINI_A
Po 0 0 0 15 51F02075 51F01F8C ~~
Li USB_MINI_A
Sc 51F01F8C
AR 
Op 0 0 0
T0 4450 -1800 500 500 900 100 N I 21 N "USB_MINI_A"
T1 2200 -4650 500 500 0 100 N V 21 N "VAL**"
DS 1500 0 2450 0 120 21
DS 3050 -900 3050 -600 120 21
DS 3050 -600 3050 -550 120 21
DS 3050 -3000 3050 -2650 120 21
DS 1500 -3600 2450 -3600 120 21
DS 250 0 300 0 120 21
DS 0 0 250 0 120 21
DS 0 0 0 -3600 120 21
DS 0 -3600 300 -3600 120 21
$PAD
Sh "GND" R 984 787 0 0 0
Dr 0 0 0
At SMD N 00888000
Ne 0 ""
Po 886 0
$EndPAD
$PAD
Sh "GND" R 984 787 0 0 0
Dr 0 0 0
At SMD N 00888000
Ne 0 ""
Po 886 -3504
$EndPAD
$PAD
Sh "GND" R 984 787 0 0 0
Dr 0 0 0
At SMD N 00888000
Ne 0 ""
Po 3051 -3504
$EndPAD
$PAD
Sh "GND" R 984 787 0 0 0
Dr 0 0 0
At SMD N 00888000
Ne 0 ""
Po 3051 0
$EndPAD
$PAD
Sh "3" R 906 197 0 0 0
Dr 0 0 0
At SMD N 00888000
Ne 0 ""
Po 3051 -1752
$EndPAD
$PAD
Sh "2" R 906 197 0 0 0
Dr 0 0 0
At SMD N 00888000
Ne 0 ""
Po 3051 -2067
$EndPAD
$PAD
Sh "4" R 906 197 0 0 0
Dr 0 0 0
At SMD N 00888000
Ne 0 ""
Po 3050 -1437
$EndPAD
$PAD
Sh "1" R 906 197 0 0 0
Dr 0 0 0
At SMD N 00888000
Ne 0 ""
Po 3051 -2382
$EndPAD
$PAD
Sh "5" R 906 197 0 0 0
Dr 0 0 0
At SMD N 00888000
Ne 0 ""
Po 3051 -1122
$EndPAD
$EndMODULE  USB_MINI_A
$EndLIBRARY
