PCBNEW-LibModule-V1  mar 19 mar 2013 21:25:23 COT
# encoding utf-8
$INDEX
C
C8mm
$EndINDEX
$MODULE C
Po 0 0 0 15 514272C6 514270F5 ~~
Li C
Sc 514270F5
AR
Op 0 0 0
T0 990 -2470 600 600 0 120 N V 21 N "C"
T1 -790 -2470 600 600 0 120 N V 21 N "VAL**"
DS -2760 0 -2760 740 150 21
DS -2760 740 -1560 1700 150 21
DS -2760 0 -2760 -740 150 21
DS -2760 -740 -1560 -1690 150 21
DS 2520 1710 -1560 1700 150 21
DS 2520 -1700 -1560 -1700 150 21
DS 2520 0 2520 1700 150 21
DS 2520 0 2520 -1700 150 21
$PAD
Sh "" R 1732 591 0 0 0
Dr 0 0 0
At SMD N 00888000
Ne 0 ""
Po -1457 0
.LocalClearance 6
$EndPAD
$PAD
Sh "" R 1732 591 0 0 0
Dr 0 0 0
At SMD N 00888000
Ne 0 ""
Po 1457 0
.LocalClearance 6
$EndPAD
$EndMODULE  C
$MODULE C8mm
Po 0 0 0 15 51491E10 00000000 ~~
Li C8mm
Sc 00000000
AR C
Op 0 0 0
T0 990 -2470 600 600 0 120 N V 21 N "C8mm"
T1 -2200 -2490 600 600 0 120 N V 21 N "VAL**"
DS -2760 0 -2760 740 150 21
DS -2760 740 -1560 1700 150 21
DS -2760 0 -2760 -740 150 21
DS -2760 -740 -1560 -1690 150 21
DS 2520 1710 -1560 1700 150 21
DS 2520 -1700 -1560 -1700 150 21
DS 2520 0 2520 1700 150 21
DS 2520 0 2520 -1700 150 21
$PAD
Sh "1" R 1732 591 0 0 0
Dr 0 0 0
At SMD N 00888000
Ne 0 ""
Po -1457 0
.LocalClearance 6
$EndPAD
$PAD
Sh "2" R 1732 591 0 0 0
Dr 0 0 0
At SMD N 00888000
Ne 0 ""
Po 1457 0
.LocalClearance 6
$EndPAD
$EndMODULE  C8mm
$EndLIBRARY
