PCBNEW-LibModule-V1  vie 01 nov 2013 15:03:20 COT
# encoding utf-8
Units mm
$INDEX
D1
$EndINDEX
$MODULE D1
Po 0 0 0 15 527408FD 00000000 ~~
Li D1
Sc 0
AR 
Op 0 0 0
T0 2.0828 2.1844 1 1 0 0.20066 N V 21 N "B340A"
T1 2.6924 -2.5908 1 1 0 0.20066 N V 21 N "VAL**"
DS 3.9116 0.9652 3.9116 1.3716 0.09906 21
DS 3.9624 0.9652 3.9624 1.3716 0.09906 21
DS 3.8608 0.9652 3.8608 1.3716 0.09906 21
DS 3.81 0.9652 3.81 1.3716 0.09906 21
DS 3.7592 0.9652 3.7592 1.4224 0.09906 21
DS 3.7084 0.9652 3.7084 1.4224 0.09906 21
DS 3.6576 0.9652 3.6576 1.3716 0.09906 21
DS 3.6068 0.9652 3.6068 1.3716 0.09906 21
DS 3.556 0.9144 3.556 1.3716 0.09906 21
DS 3.5052 0.9652 3.5052 1.3716 0.09906 21
DS 3.556 -1.4224 3.556 -0.9652 0.09906 21
DS 3.8608 -1.4224 3.8608 -0.9652 0.09906 21
DS 3.9624 -1.4224 3.9624 -0.9652 0.09906 21
DS 3.9116 -1.4224 3.9116 -0.9652 0.09906 21
DS 3.81 -1.4224 3.81 -0.9652 0.09906 21
DS 3.7592 -1.4224 3.7592 -0.9652 0.09906 21
DS 3.6576 -1.4224 3.6576 -0.9652 0.09906 21
DS 3.7084 -1.4224 3.7084 -0.9652 0.09906 21
DS 3.6068 -1.4224 3.6068 -0.9652 0.09906 21
DS 3.5052 -0.9144 4.0132 -0.9144 0.09906 21
DS 4.0132 0.9144 3.4544 0.9144 0.09906 21
DS 3.4544 0.9144 3.4544 1.4224 0.09906 21
DS 3.5052 -1.4224 3.5052 -0.9144 0.09906 21
DS 0 1.1176 0 0.9652 0.09906 21
DS 0 -0.9652 0 -0.9144 0.09906 21
DS 4.0132 1.4224 4.0132 0.9652 0.09906 21
DS 4.0132 -1.4224 4.0132 -0.9144 0.09906 21
DS 0 1.4224 0 1.1176 0.09906 21
DS 0 -1.4224 0 -0.9652 0.09906 21
DS 0 1.45 4 1.45 0.09906 21
DS 0 -1.45 4 -1.45 0.09906 21
$PAD
Sh "1" R 2.5 1.7 0 0 0
Dr 0 0 0
At SMD N 00888000
Ne 0 ""
Po 0 0
$EndPAD
$PAD
Sh "2" R 2.5 1.7 0 0 0
Dr 0 0 0
At SMD N 00888000
Ne 0 ""
Po 4 0
$EndPAD
$EndMODULE D1
$EndLIBRARY
