PCBNEW-LibModule-V1  mié 06 mar 2013 21:30:06 COT
# encoding utf-8
$INDEX
DA
$EndINDEX
$MODULE DA
Po 0 0 0 15 5137FB8E 00000000 ~~
Li DA
Sc 00000000
AR DA
Op 0 0 0
T0 -3400 -800 600 600 0 120 N V 21 N "DA"
T1 -1600 -800 600 600 0 120 N V 21 N "VAL**"
DS -340 -680 940 -680 59 21
DS 940 -680 940 -100 59 21
DS 940 -100 -340 -100 59 21
DS -340 -100 -340 -680 59 21
$PAD
Sh "1" R 394 236 0 0 0
Dr 0 0 0
At SMD N 00888000
Ne 0 ""
Po 0 0
.LocalClearance 39
$EndPAD
$PAD
Sh "2" R 236 236 0 0 0
Dr 0 0 0
At SMD N 00888000
Ne 0 ""
Po 669 0
.LocalClearance 39
$EndPAD
$PAD
Sh "3" R 236 236 0 0 0
Dr 0 0 0
At SMD N 00888000
Ne 0 ""
Po 669 -748
.LocalClearance 39
$EndPAD
$PAD
Sh "4" R 236 236 0 0 0
Dr 0 0 0
At SMD N 00888000
Ne 0 ""
Po -79 -748
.LocalClearance 39
$EndPAD
$EndMODULE  DA
$EndLIBRARY
