PCBNEW-LibModule-V1  sáb 01 feb 2014 08:37:21 COT
# encoding utf-8
Units mm
$INDEX
IR
$EndINDEX
$MODULE IR
Po 0 0 0 15 52ECF87A 00000000 ~~
Li IR
Sc 0
AR /5112ABF3/511B0810
Op 0 0 0
T0 -2.70002 -0.09652 0.52324 0.52324 0 0.13208 N V 21 N "U12"
T1 3.15468 -1.49606 0.52324 0.52324 0 0.13208 N I 21 N "TCRT1000"
DS -1.27 -1.27 -1.27 1.27 0.381 21
DS -1.27 1.27 6.35 1.27 0.381 21
DS 6.35 1.27 6.35 -1.27 0.381 21
DS 6.35 -1.27 -1.27 -1.27 0.381 21
$PAD
Sh "1" C 1.00076 1.00076 0 0 0
Dr 0.6 0 0
At STD N 00E0FFFF
Ne 3 "N-00000175"
Po 0 0
.LocalClearance 0.0508
$EndPAD
$PAD
Sh "2" C 1.00076 1.00076 0 0 0
Dr 0.6 0 0
At STD N 00E0FFFF
Ne 4 "N-00000177"
Po 1.27 0
.LocalClearance 0.0508
$EndPAD
$PAD
Sh "4" C 1.00076 1.00076 0 0 0
Dr 0.6 0 0
At STD N 00E0FFFF
Ne 1 "/SENSOR/S5O"
Po 5.08 0
.LocalClearance 0.0508
$EndPAD
$PAD
Sh "3" C 1.00076 1.00076 0 0 0
Dr 0.6 0 0
At STD N 00E0FFFF
Ne 2 "GND"
Po 3.81 0
.LocalClearance 0.0508
$EndPAD
$EndMODULE IR
$EndLIBRARY
