PCBNEW-LibModule-V1  vie 01 nov 2013 14:04:24 COT
# encoding utf-8
Units mm
$INDEX
L1
$EndINDEX
$MODULE L1
Po 0 0 0 15 5273FB28 00000000 ~~
Li L1
Sc 0
AR 
Op 0 0 0
T0 2.9972 -0.3048 1 1 0 0.20066 N V 21 N "L1"
T1 3.4544 -4.1656 0.7 0.7 0 0.175 N V 21 N "VAL**"
DS 6.5532 3.4036 6.5532 1.3716 0.09906 21
DS 6.5532 -3.4036 6.5532 -1.3716 0.09906 21
DS -0.6604 3.4036 -0.6604 1.3716 0.09906 21
DS -0.6604 -2.54 -0.6604 -1.4224 0.09906 21
DS -0.6604 3.4036 6.5532 3.4036 0.09906 21
DS -0.6604 -2.54 0.0508 -3.4036 0.09906 21
DS 0.0508 -3.4036 6.4008 -3.4036 0.09906 21
DS 6.4008 -3.4036 6.5532 -3.4036 0.09906 21
$PAD
Sh "1" R 2.6 2.2 0 0 0
Dr 0 0 0
At SMD N 00888000
Ne 0 ""
Po -0.3 0
$EndPAD
$PAD
Sh "2" R 2.6 2.2 0 0 0
Dr 0 0 0
At SMD N 00888000
Ne 0 ""
Po 6.2 0
$EndPAD
$EndMODULE L1
$EndLIBRARY
