PCBNEW-LibModule-V1  sáb 01 feb 2014 09:37:38 COT
# encoding utf-8
Units mm
$INDEX
LTC3533
$EndINDEX
$MODULE LTC3533
Po 0 0 0 15 52ED06A4 00000000 ~~
Li LTC3533
Sc 0
AR /5112AC2A/52758231
Op 0 0 0
T0 4.064 -1.524 0.5 0.5 900 0.125 N V 21 N "U1"
T1 -3.9116 0.1524 0.7 0.7 900 0.175 N I 21 N "LTC3533"
DS -1.7272 -1.9812 1.8288 -1.9812 0.14986 21
DS 1.8288 -1.9812 1.8796 -1.9812 0.14986 21
DS 1.8796 -1.9812 1.8796 2.032 0.14986 21
DS 1.8796 2.032 1.4732 2.032 0.14986 21
DS 1.4732 2.032 -1.778 2.032 0.14986 21
DS -1.778 2.032 -1.8288 2.032 0.14986 21
DS -1.8288 2.032 -1.9304 2.032 0.14986 21
DS -1.9304 2.032 -1.9304 0.3048 0.14986 21
DS -1.9304 0.3048 -1.9304 -1.6256 0.14986 21
DS -1.9304 -1.6256 -1.9304 -1.9812 0.14986 21
DS -1.9304 -1.9812 -1.7272 -1.9812 0.14986 21
DC -1.4732 0.762 -1.524 0.762 0.09906 21
$PAD
Sh "1" R 0.25 0.7 0 0 0
Dr 0 0 0
At SMD N 00888000
Ne 3 "/POWER/RT"
Po -1.5 1.45
.LocalClearance 0.08
$EndPAD
$PAD
Sh "2" R 0.25 0.7 0 0 0
Dr 0 0 0
At SMD N 00888000
Ne 1 "/POWER/BURST"
Po -1 1.45
.LocalClearance 0.08
$EndPAD
$PAD
Sh "3" R 0.25 0.7 0 0 0
Dr 0 0 0
At SMD N 00888000
Ne 9 "GND"
Po -0.5 1.45
.LocalClearance 0.08
$EndPAD
$PAD
Sh "4" R 0.25 0.7 0 0 0
Dr 0 0 0
At SMD N 00888000
Ne 5 "/POWER/SW1"
Po 0 1.45
.LocalClearance 0.08
$EndPAD
$PAD
Sh "5" R 0.25 0.7 0 0 0
Dr 0 0 0
At SMD N 00888000
Ne 9 "GND"
Po 0.5 1.45
.LocalClearance 0.08
$EndPAD
$PAD
Sh "6" R 0.25 0.7 0 0 0
Dr 0 0 0
At SMD N 00888000
Ne 9 "GND"
Po 1 1.45
.LocalClearance 0.08
$EndPAD
$PAD
Sh "7" R 0.25 0.7 0 0 0
Dr 0 0 0
At SMD N 00888000
Ne 6 "/POWER/SW2"
Po 1.5 1.45
.LocalClearance 0.08
$EndPAD
$PAD
Sh "8" R 0.25 0.7 0 0 0
Dr 0 0 0
At SMD N 00888000
Ne 10 "VMOTOR"
Po 1.5 -1.45
.LocalClearance 0.08
$EndPAD
$PAD
Sh "9" R 0.25 0.7 0 0 0
Dr 0 0 0
At SMD N 00888000
Ne 10 "VMOTOR"
Po 1 -1.45
.LocalClearance 0.08
$EndPAD
$PAD
Sh "10" R 0.25 0.7 0 0 0
Dr 0 0 0
At SMD N 00888000
Ne 8 "/POWER/VIN"
Po 0.5 -1.45
.LocalClearance 0.08
$EndPAD
$PAD
Sh "11" R 0.25 0.7 0 0 0
Dr 0 0 0
At SMD N 00888000
Ne 8 "/POWER/VIN"
Po 0 -1.45
.LocalClearance 0.08
$EndPAD
$PAD
Sh "12" R 0.25 0.7 0 0 0
Dr 0 0 0
At SMD N 00888000
Ne 4 "/POWER/RUN"
Po -0.5 -1.45
.LocalClearance 0.08
$EndPAD
$PAD
Sh "13" R 0.25 0.7 0 0 0
Dr 0 0 0
At SMD N 00888000
Ne 2 "/POWER/FB"
Po -1 -1.45
.LocalClearance 0.08
$EndPAD
$PAD
Sh "14" R 0.25 0.7 0 0 0
Dr 0 0 0
At SMD N 00888000
Ne 7 "/POWER/VC"
Po -1.5 -1.45
.LocalClearance 0.08
$EndPAD
$PAD
Sh "15" R 3.3 1.7 0 0 0
Dr 0 0 0
At SMD N 00888000
Ne 9 "GND"
Po 0 0
.LocalClearance 0.08
$EndPAD
$EndMODULE LTC3533
$EndLIBRARY
