PCBNEW-LibModule-V1  mar 19 mar 2013 02:53:53 COT
# encoding utf-8
$INDEX
Q-SOT23
$EndINDEX
$MODULE Q-SOT23
Po 0 0 0 15 5148197E 00000000 ~~
Li Q-SOT23
Sc 00000000
AR Q-SOT23
Op 0 0 0
T0 -1270 -1150 600 600 0 120 N V 21 N "Q-SOT23"
T1 -2310 40 600 600 0 120 N V 21 N "VAL**"
DS -630 -270 630 -270 59 21
DS 630 -270 630 990 59 21
DS 630 990 -630 990 59 21
DS -630 990 -630 -270 59 21
$PAD
Sh "3" R 316 383 0 0 0
Dr 0 0 0
At SMD N 00888000
Ne 0 ""
Po 0 0
.LocalClearance 4
$EndPAD
$PAD
Sh "2" R 316 383 0 0 0
Dr 0 0 0
At SMD N 00888000
Ne 0 ""
Po 374 697
.LocalClearance 4
$EndPAD
$PAD
Sh "1" R 316 383 0 0 0
Dr 0 0 0
At SMD N 00888000
Ne 0 ""
Po -374 697
.LocalClearance 4
$EndPAD
$EndMODULE  Q-SOT23
$EndLIBRARY
