PCBNEW-LibModule-V1  mar 19 mar 2013 02:56:02 COT
# encoding utf-8
$INDEX
RGB
$EndINDEX
$MODULE RGB
Po 0 0 0 15 51481A0E 00000000 ~~
Li RGB
Sc 00000000
AR RGB
Op 0 0 0
T0 -990 -1940 600 600 0 120 N V 21 N "RGB"
T1 1500 -1920 600 600 0 120 N V 21 N "VAL**"
DS -170 -1210 470 -1210 59 21
DS 470 -1210 470 180 59 21
DS 470 180 -170 180 59 21
DS -170 180 -170 -1210 59 21
$PAD
Sh "4" R 197 236 0 0 0
Dr 0 0 0
At SMD N 00888000
Ne 0 ""
Po 0 0
.LocalClearance 4
$EndPAD
$PAD
Sh "1" R 197 236 0 0 0
Dr 0 0 0
At SMD N 00888000
Ne 0 ""
Po 295 0
.LocalClearance 4
$EndPAD
$PAD
Sh "2" R 197 236 0 0 0
Dr 0 0 0
At SMD N 00888000
Ne 0 ""
Po 295 -1024
.LocalClearance 4
$EndPAD
$PAD
Sh "3" R 197 236 0 0 0
Dr 0 0 0
At SMD N 00888000
Ne 0 ""
Po 0 -1024
.LocalClearance 4
$EndPAD
$EndMODULE  RGB
$EndLIBRARY
