PCBNEW-LibModule-V1  mar 29 oct 2013 23:33:00 COT
# encoding utf-8
Units mm
$INDEX
SIL-20
SIL-26
$EndINDEX
$MODULE SIL-20
Po 0 0 0 15 52708BEC 00000000 ~~
Li SIL-20
Cd Connecteur 26 pins
Kw CONN DEV
Sc 0
AR /52707896
Op 0 0 0
T0 -13.97 -2.54 1.72974 1.08712 1800 0.3048 N V 21 N "P8"
T1 5.08 -2.54 1.524 1.016 1800 0.3048 N V 21 N "CONN_20"
DS -33.02 1.27 -33.02 -1.27 0.3048 21
DS -33.02 -1.27 18.5 -1.27 0.3048 21
DS 18.5 -1.27 18.5 1.27 0.3048 21
DS 18.5 1.27 -33.02 1.27 0.3048 21
DS -30.48 -1.27 -30.48 1.27 0.3048 21
$PAD
Sh "1" R 1.397 1.397 0 0 0
Dr 0.8128 0 0
At STD N 00E0FFFF
Ne 1 "+5V"
Po -31.75 0
$EndPAD
$PAD
Sh "2" C 1.397 1.397 0 0 0
Dr 0.8128 0 0
At STD N 00E0FFFF
Ne 2 "GND"
Po -29.21 0
$EndPAD
$PAD
Sh "3" C 1.397 1.397 0 0 0
Dr 0.8128 0 0
At STD N 00E0FFFF
Ne 4 "LCDB_SCK"
Po -26.67 0
$EndPAD
$PAD
Sh "4" C 1.397 1.397 0 0 0
Dr 0.8128 0 0
At STD N 00E0FFFF
Ne 3 "LCDB_CS"
Po -24.13 0
$EndPAD
$PAD
Sh "5" C 1.397 1.397 0 0 0
Dr 0.8128 0 0
At STD N 00E0FFFF
Ne 6 "LCDB_SDO"
Po -21.59 0
$EndPAD
$PAD
Sh "6" C 1.397 1.397 0 0 0
Dr 0.8128 0 0
At STD N 00E0FFFF
Ne 5 "LCDB_SDI"
Po -19.05 0
$EndPAD
$PAD
Sh "7" C 1.397 1.397 0 0 0
Dr 0.8128 0 0
At STD N 00E0FFFF
Ne 7 "N-0000049"
Po -16.51 0
$EndPAD
$PAD
Sh "8" C 1.397 1.397 0 0 0
Dr 0.8128 0 0
At STD N 00E0FFFF
Ne 8 "N-0000050"
Po -13.97 0
$EndPAD
$PAD
Sh "9" C 1.397 1.397 0 0 0
Dr 0.8128 0 0
At STD N 00E0FFFF
Ne 9 "N-0000055"
Po -11.43 0
$EndPAD
$PAD
Sh "10" C 1.397 1.397 0 0 0
Dr 0.8128 0 0
At STD N 00E0FFFF
Ne 11 "N-0000065"
Po -8.89 0
$EndPAD
$PAD
Sh "11" C 1.397 1.397 0 0 0
Dr 0.8128 0 0
At STD N 00E0FFFF
Ne 12 "N-0000066"
Po -6.35 0
$EndPAD
$PAD
Sh "12" C 1.397 1.397 0 0 0
Dr 0.8128 0 0
At STD N 00E0FFFF
Ne 13 "N-0000067"
Po -3.81 0
$EndPAD
$PAD
Sh "13" C 1.397 1.397 0 0 0
Dr 0.8128 0 0
At STD N 00E0FFFF
Ne 10 "N-0000062"
Po -1.27 0
$EndPAD
$PAD
Sh "14" C 1.397 1.397 0 0 0
Dr 0.8128 0 0
At STD N 00E0FFFF
Ne 14 "N-0000069"
Po 1.27 0
$EndPAD
$PAD
Sh "15" C 1.397 1.397 0 0 0
Dr 0.8128 0 0
At STD N 00E0FFFF
Ne 19 "RESET"
Po 3.81 0
$EndPAD
$PAD
Sh "16" C 1.397 1.397 0 0 0
Dr 0.8128 0 0
At STD N 00E0FFFF
Ne 15 "N-0000070"
Po 6.35 0
$EndPAD
$PAD
Sh "17" C 1.397 1.397 0 0 0
Dr 0.8128 0 0
At STD N 00E0FFFF
Ne 16 "N-0000071"
Po 8.89 0
$EndPAD
$PAD
Sh "18" C 1.397 1.397 0 0 0
Dr 0.8128 0 0
At STD N 00E0FFFF
Ne 17 "N-0000072"
Po 11.43 0
$EndPAD
$PAD
Sh "19" C 1.397 1.397 0 0 0
Dr 0.8128 0 0
At STD N 00E0FFFF
Ne 2 "GND"
Po 13.97 0
$EndPAD
$PAD
Sh "20" C 1.397 1.397 0 0 0
Dr 0.8128 0 0
At STD N 00E0FFFF
Ne 18 "N-0000073"
Po 16.51 0
$EndPAD
$EndMODULE SIL-20
$MODULE SIL-26
Po 0 0 0 15 00200000 00000000 ~~
Li SIL-26
Cd Connecteur 26 pins
Kw CONN DEV
Sc 0
AR /52707896
Op 0 0 0
T0 -13.97 -2.54 1.72974 1.08712 1800 0.3048 N V 21 N "P8"
T1 5.08 -2.54 1.524 1.016 1800 0.3048 N V 21 N "CONN_20"
DS -33.02 1.27 -33.02 -1.27 0.3048 21
DS -33.02 -1.27 33.02 -1.27 0.3048 21
DS 33.02 -1.27 33.02 1.27 0.3048 21
DS 33.02 1.27 -33.02 1.27 0.3048 21
DS -30.48 -1.27 -30.48 1.27 0.3048 21
$PAD
Sh "1" R 1.397 1.397 0 0 0
Dr 0.8128 0 0
At STD N 00E0FFFF
Ne 1 "+5V"
Po -31.75 0
$EndPAD
$PAD
Sh "2" C 1.397 1.397 0 0 0
Dr 0.8128 0 0
At STD N 00E0FFFF
Ne 2 "GND"
Po -29.21 0
$EndPAD
$PAD
Sh "3" C 1.397 1.397 0 0 0
Dr 0.8128 0 0
At STD N 00E0FFFF
Ne 4 "LCDB_SCK"
Po -26.67 0
$EndPAD
$PAD
Sh "4" C 1.397 1.397 0 0 0
Dr 0.8128 0 0
At STD N 00E0FFFF
Ne 3 "LCDB_CS"
Po -24.13 0
$EndPAD
$PAD
Sh "5" C 1.397 1.397 0 0 0
Dr 0.8128 0 0
At STD N 00E0FFFF
Ne 6 "LCDB_SDO"
Po -21.59 0
$EndPAD
$PAD
Sh "6" C 1.397 1.397 0 0 0
Dr 0.8128 0 0
At STD N 00E0FFFF
Ne 5 "LCDB_SDI"
Po -19.05 0
$EndPAD
$PAD
Sh "7" C 1.397 1.397 0 0 0
Dr 0.8128 0 0
At STD N 00E0FFFF
Ne 7 "N-0000049"
Po -16.51 0
$EndPAD
$PAD
Sh "8" C 1.397 1.397 0 0 0
Dr 0.8128 0 0
At STD N 00E0FFFF
Ne 8 "N-0000050"
Po -13.97 0
$EndPAD
$PAD
Sh "9" C 1.397 1.397 0 0 0
Dr 0.8128 0 0
At STD N 00E0FFFF
Ne 9 "N-0000055"
Po -11.43 0
$EndPAD
$PAD
Sh "10" C 1.397 1.397 0 0 0
Dr 0.8128 0 0
At STD N 00E0FFFF
Ne 11 "N-0000065"
Po -8.89 0
$EndPAD
$PAD
Sh "11" C 1.397 1.397 0 0 0
Dr 0.8128 0 0
At STD N 00E0FFFF
Ne 12 "N-0000066"
Po -6.35 0
$EndPAD
$PAD
Sh "12" C 1.397 1.397 0 0 0
Dr 0.8128 0 0
At STD N 00E0FFFF
Ne 13 "N-0000067"
Po -3.81 0
$EndPAD
$PAD
Sh "13" C 1.397 1.397 0 0 0
Dr 0.8128 0 0
At STD N 00E0FFFF
Ne 10 "N-0000062"
Po -1.27 0
$EndPAD
$PAD
Sh "14" C 1.397 1.397 0 0 0
Dr 0.8128 0 0
At STD N 00E0FFFF
Ne 14 "N-0000069"
Po 1.27 0
$EndPAD
$PAD
Sh "15" C 1.397 1.397 0 0 0
Dr 0.8128 0 0
At STD N 00E0FFFF
Ne 19 "RESET"
Po 3.81 0
$EndPAD
$PAD
Sh "16" C 1.397 1.397 0 0 0
Dr 0.8128 0 0
At STD N 00E0FFFF
Ne 15 "N-0000070"
Po 6.35 0
$EndPAD
$PAD
Sh "17" C 1.397 1.397 0 0 0
Dr 0.8128 0 0
At STD N 00E0FFFF
Ne 16 "N-0000071"
Po 8.89 0
$EndPAD
$PAD
Sh "18" C 1.397 1.397 0 0 0
Dr 0.8128 0 0
At STD N 00E0FFFF
Ne 17 "N-0000072"
Po 11.43 0
$EndPAD
$PAD
Sh "19" C 1.397 1.397 0 0 0
Dr 0.8128 0 0
At STD N 00E0FFFF
Ne 2 "GND"
Po 13.97 0
$EndPAD
$PAD
Sh "20" C 1.397 1.397 0 0 0
Dr 0.8128 0 0
At STD N 00E0FFFF
Ne 18 "N-0000073"
Po 16.51 0
$EndPAD
$PAD
Sh "21" C 1.397 1.397 0 0 0
Dr 0.8128 0 0
At STD N 00E0FFFF
Ne 0 ""
Po 19.05 0
$EndPAD
$PAD
Sh "22" C 1.397 1.397 0 0 0
Dr 0.8128 0 0
At STD N 00E0FFFF
Ne 0 ""
Po 21.59 0
$EndPAD
$PAD
Sh "23" C 1.397 1.397 0 0 0
Dr 0.8128 0 0
At STD N 00E0FFFF
Ne 0 ""
Po 24.13 0
$EndPAD
$PAD
Sh "24" C 1.397 1.397 0 0 0
Dr 0.8128 0 0
At STD N 00E0FFFF
Ne 0 ""
Po 26.67 0
$EndPAD
$PAD
Sh "25" C 1.397 1.397 0 0 0
Dr 0.8128 0 0
At STD N 00E0FFFF
Ne 0 ""
Po 29.21 0
$EndPAD
$PAD
Sh "26" C 1.397 1.397 0 0 0
Dr 0.8128 0 0
At STD N 00E0FFFF
Ne 0 ""
Po 31.75 0
$EndPAD
$EndMODULE SIL-26
$EndLIBRARY
