PCBNEW-LibModule-V1  mar 19 mar 2013 03:10:40 COT
# encoding utf-8
$INDEX
TSSOP16
$EndINDEX
$MODULE TSSOP16
Po 0 0 0 15 51481D77 00000000 ~~
Li TSSOP16
Sc 00000000
AR TSSOP16
Op 0 0 0
T0 -3110 -740 600 600 0 120 N V 21 N "TSSOP16"
T1 2540 -770 600 600 0 120 N V 21 N "VAL**"
DS -860 130 -650 -80 59 21
DS -870 -100 870 -100 39 21
DS 870 -100 870 1890 39 21
DS 870 1890 -880 1890 39 21
DS -880 1890 -870 -100 39 21
$PAD
Sh "1" R 496 142 0 0 0
Dr 0 0 0
At SMD N 00888000
Ne 0 ""
Po -1142 0
.LocalClearance 6
$EndPAD
$PAD
Sh "2" R 496 142 0 0 0
Dr 0 0 0
At SMD N 00888000
Ne 0 ""
Po -1142 256
.LocalClearance 6
$EndPAD
$PAD
Sh "3" R 496 142 0 0 0
Dr 0 0 0
At SMD N 00888000
Ne 0 ""
Po -1142 512
.LocalClearance 6
$EndPAD
$PAD
Sh "4" R 496 142 0 0 0
Dr 0 0 0
At SMD N 00888000
Ne 0 ""
Po -1142 768
.LocalClearance 6
$EndPAD
$PAD
Sh "5" R 496 142 0 0 0
Dr 0 0 0
At SMD N 00888000
Ne 0 ""
Po -1142 1024
.LocalClearance 6
$EndPAD
$PAD
Sh "6" R 496 142 0 0 0
Dr 0 0 0
At SMD N 00888000
Ne 0 ""
Po -1142 1280
.LocalClearance 6
$EndPAD
$PAD
Sh "7" R 496 142 0 0 0
Dr 0 0 0
At SMD N 00888000
Ne 0 ""
Po -1142 1535
.LocalClearance 6
$EndPAD
$PAD
Sh "8" R 496 142 0 0 0
Dr 0 0 0
At SMD N 00888000
Ne 0 ""
Po -1142 1791
.LocalClearance 6
$EndPAD
$PAD
Sh "9" R 496 142 0 0 0
Dr 0 0 0
At SMD N 00888000
Ne 0 ""
Po 1142 1791
.LocalClearance 6
$EndPAD
$PAD
Sh "10" R 496 142 0 0 0
Dr 0 0 0
At SMD N 00888000
Ne 0 ""
Po 1142 1535
.LocalClearance 6
$EndPAD
$PAD
Sh "11" R 496 142 0 0 0
Dr 0 0 0
At SMD N 00888000
Ne 0 ""
Po 1142 1280
.LocalClearance 6
$EndPAD
$PAD
Sh "12" R 496 142 0 0 0
Dr 0 0 0
At SMD N 00888000
Ne 0 ""
Po 1142 1024
.LocalClearance 6
$EndPAD
$PAD
Sh "13" R 496 142 0 0 0
Dr 0 0 0
At SMD N 00888000
Ne 0 ""
Po 1142 768
.LocalClearance 6
$EndPAD
$PAD
Sh "14" R 496 142 0 0 0
Dr 0 0 0
At SMD N 00888000
Ne 0 ""
Po 1142 512
.LocalClearance 6
$EndPAD
$PAD
Sh "15" R 496 142 0 0 0
Dr 0 0 0
At SMD N 00888000
Ne 0 ""
Po 1142 256
.LocalClearance 6
$EndPAD
$PAD
Sh "16" R 496 142 0 0 0
Dr 0 0 0
At SMD N 00888000
Ne 0 ""
Po 1142 0
.LocalClearance 6
$EndPAD
$EndMODULE  TSSOP16
$EndLIBRARY
