EESchema Schematic File Version 2
LIBS:power
LIBS:device
LIBS:transistors
LIBS:conn
LIBS:linear
LIBS:regul
LIBS:74xx
LIBS:cmos4000
LIBS:adc-dac
LIBS:memory
LIBS:xilinx
LIBS:special
LIBS:microcontrollers
LIBS:dsp
LIBS:microchip
LIBS:analog_switches
LIBS:motorola
LIBS:texas
LIBS:intel
LIBS:audio
LIBS:interface
LIBS:digital-audio
LIBS:philips
LIBS:display
LIBS:cypress
LIBS:siliconi
LIBS:opto
LIBS:atmel
LIBS:contrib
LIBS:valves
LIBS:bat_con
LIBS:baw101
LIBS:con-jack
LIBS:csd16323q3
LIBS:ipc-7351-transistor
LIBS:irf5803
LIBS:irf9333
LIBS:lf50cdt
LIBS:lm3478
LIBS:LM3485
LIBS:mbrb2515lt4g
LIBS:mc74hc595a
LIBS:mcp6l02
LIBS:mcp6l04
LIBS:mcp73831
LIBS:MCP73837
LIBS:ovsrrgbcc3
LIBS:transistor-arrays
LIBS:usb_a
LIBS:usba-plug
LIBS:usbconn
LIBS:usb-mini
LIBS:xc6216
LIBS:ltc3533
LIBS:PCB-cache
EELAYER 24 0
EELAYER END
$Descr A4 11693 8268
encoding utf-8
Sheet 1 4
Title ""
Date "10 jul 2013"
Rev ""
Comp ""
Comment1 ""
Comment2 ""
Comment3 ""
Comment4 ""
$EndDescr
Text GLabel 3975 4950 2    45   Input ~ 0
RESET_PB
Text GLabel 5710 6925 2    45   Input ~ 0
USB_P4
Text GLabel 5710 6825 2    45   Input ~ 0
USB_P3
Text GLabel 5710 6725 2    45   Input ~ 0
USB_P2
Text GLabel 4685 6725 0    45   Input ~ 0
USB_M2
Text GLabel 4685 6825 0    45   Input ~ 0
USB_M3
Text GLabel 4685 6925 0    45   Input ~ 0
USB_M4
Text GLabel 3975 5050 2    45   Input ~ 0
TX
Text GLabel 2875 5050 0    45   Input ~ 0
RX
Text GLabel 3975 5350 2    45   Input ~ 0
USB_P4
Text GLabel 3975 5250 2    45   Input ~ 0
USB_P3
Text GLabel 3975 5150 2    45   Input ~ 0
USB_P2
Text GLabel 2875 5150 0    45   Input ~ 0
USB_M2
Text GLabel 2875 5250 0    45   Input ~ 0
USB_M3
Text GLabel 2875 5350 0    45   Input ~ 0
USB_M4
$Comp
L +5V #PWR01
U 1 1 51719AEC
P 2775 5450
F 0 "#PWR01" H 2775 5540 20  0001 C CNN
F 1 "+5V" H 2775 5540 30  0000 C CNN
F 2 "" H 2775 5450 60  0001 C CNN
F 3 "" H 2775 5450 60  0001 C CNN
	1    2775 5450
	0    -1   -1   0   
$EndComp
$Comp
L GND #PWR02
U 1 1 51719A7C
P 4100 5550
F 0 "#PWR02" H 4100 5550 30  0001 C CNN
F 1 "GND" H 4100 5480 30  0001 C CNN
F 2 "" H 4100 5550 60  0001 C CNN
F 3 "" H 4100 5550 60  0001 C CNN
	1    4100 5550
	1    0    0    -1  
$EndComp
$Comp
L CONN_6X2 P10
U 1 1 517197E0
P 3425 5200
F 0 "P10" H 3425 5550 60  0000 C CNN
F 1 "CONN_6X2" V 3425 5200 60  0000 C CNN
F 2 "" H 3425 5200 60  0001 C CNN
F 3 "" H 3425 5200 60  0001 C CNN
	1    3425 5200
	1    0    0    -1  
$EndComp
Text GLabel 5875 5950 0    45   Input ~ 0
M11
$Comp
L CONN_2 P105
U 1 1 516C331C
P 5350 5875
F 0 "P105" V 5300 5875 40  0000 C CNN
F 1 "CONN_2" V 5400 5875 40  0000 C CNN
F 2 "" H 5350 5875 60  0001 C CNN
F 3 "" H 5350 5875 60  0001 C CNN
	1    5350 5875
	1    0    0    -1  
$EndComp
$Comp
L CONN_2 P106
U 1 1 516C331B
P 6400 5850
F 0 "P106" V 6350 5850 40  0000 C CNN
F 1 "CONN_2" V 6450 5850 40  0000 C CNN
F 2 "" H 6400 5850 60  0001 C CNN
F 3 "" H 6400 5850 60  0001 C CNN
	1    6400 5850
	1    0    0    -1  
$EndComp
$Comp
L CONN_2 P104
U 1 1 516C330C
P 6425 4975
F 0 "P104" V 6375 4975 40  0000 C CNN
F 1 "CONN_2" V 6475 4975 40  0000 C CNN
F 2 "" H 6425 4975 60  0001 C CNN
F 3 "" H 6425 4975 60  0001 C CNN
	1    6425 4975
	1    0    0    -1  
$EndComp
$Comp
L CONN_2 P103
U 1 1 516C32FA
P 5350 4975
F 0 "P103" V 5300 4975 40  0000 C CNN
F 1 "CONN_2" V 5400 4975 40  0000 C CNN
F 2 "" H 5350 4975 60  0001 C CNN
F 3 "" H 5350 4975 60  0001 C CNN
	1    5350 4975
	1    0    0    -1  
$EndComp
Text GLabel 5875 5750 0    45   Input ~ 0
M12
Text GLabel 4900 5975 0    45   Input ~ 0
M21
Text GLabel 4900 5775 0    45   Input ~ 0
M22
Text GLabel 5975 5075 0    45   Input ~ 0
M31
Text GLabel 5975 4875 0    45   Input ~ 0
M32
Text GLabel 4900 5075 0    45   Input ~ 0
M41
Text GLabel 4900 4875 0    45   Input ~ 0
M42
Text GLabel 8250 5475 2    45   Input ~ 0
FP33
Text GLabel 8250 5375 2    45   Input ~ 0
FP28
Text GLabel 8250 5275 2    45   Input ~ 0
FP7
Text GLabel 8250 5175 2    45   Input ~ 0
FP6
Text GLabel 7150 5475 0    45   Input ~ 0
FP17
Text GLabel 7150 5375 0    45   Input ~ 0
FP29
Text GLabel 7150 5275 0    45   Input ~ 0
DAC2
Text GLabel 7150 5175 0    45   Input ~ 0
DAC1
$Comp
L CONN_4X2 P102
U 1 1 516C30E1
P 7700 5325
F 0 "P102" H 7700 5575 50  0000 C CNN
F 1 "CONN_4X2" V 7700 5325 40  0000 C CNN
F 2 "" H 7700 5325 60  0001 C CNN
F 3 "" H 7700 5325 60  0001 C CNN
	1    7700 5325
	1    0    0    -1  
$EndComp
NoConn ~ 5625 3800
NoConn ~ 5625 3700
NoConn ~ 5625 3600
NoConn ~ 5675 3100
NoConn ~ 5675 3000
NoConn ~ 5675 2900
NoConn ~ 5675 2800
Text GLabel 4725 3800 0    45   Input ~ 0
M11
Text GLabel 4725 3700 0    45   Input ~ 0
M12
Text GLabel 4725 3600 0    45   Input ~ 0
M21
Text GLabel 4775 3100 0    45   Input ~ 0
M22
Text GLabel 4775 3000 0    45   Input ~ 0
M31
Text GLabel 4775 2900 0    45   Input ~ 0
M32
Text GLabel 4775 2800 0    45   Input ~ 0
M41
NoConn ~ 5675 2700
Text GLabel 4775 2700 0    45   Input ~ 0
M42
$Comp
L CONN_5X2 P5
U 1 1 515E0A89
P 5275 2900
F 0 "P5" H 5275 3200 60  0000 C CNN
F 1 "CONN_5X2" V 5275 2900 50  0000 C CNN
F 2 "" H 5275 2900 60  0001 C CNN
F 3 "" H 5275 2900 60  0001 C CNN
	1    5275 2900
	1    0    0    -1  
$EndComp
Text GLabel 3350 6850 2    45   Input ~ 0
FP29
Text GLabel 2250 7050 0    45   Input ~ 0
FP33
Text GLabel 2250 6950 0    45   Input ~ 0
FP17
Text GLabel 2250 6850 0    45   Input ~ 0
FP28
Text GLabel 3350 6550 2    45   Input ~ 0
FP7
Text GLabel 3350 6450 2    45   Input ~ 0
DAC2
Text GLabel 2250 6550 0    45   Input ~ 0
FP6
Text GLabel 2250 6450 0    45   Input ~ 0
DAC1
NoConn ~ 2400 7150
Text GLabel 5850 1800 2    45   Input ~ 0
FP31
Text GLabel 5850 1700 2    45   Input ~ 0
FP16
Text GLabel 4650 1800 0    45   Input ~ 0
FP30
Text GLabel 4650 1700 0    45   Input ~ 0
FP19
Text GLabel 5850 1500 2    45   Input ~ 0
FP18
Text GLabel 5850 1400 2    45   Input ~ 0
I2C1_SCL
Text GLabel 5850 1300 2    45   Input ~ 0
FP42
Text GLabel 4650 1500 0    45   Input ~ 0
I2C1_SDA
Text GLabel 4650 1400 0    45   Input ~ 0
FP35
Text GLabel 4650 1300 0    45   Input ~ 0
FP41
Text GLabel 6650 1950 0    45   Input ~ 0
FP30
Text GLabel 6650 1850 0    45   Input ~ 0
FP18
Text GLabel 7750 1950 2    45   Input ~ 0
FP31
Text GLabel 7750 1850 2    45   Input ~ 0
FP16
Text GLabel 6650 1750 0    45   Input ~ 0
FP19
Text GLabel 7750 1750 2    45   Input ~ 0
I2C1_SCL
Text GLabel 6650 1650 0    45   Input ~ 0
I2C1_SDA
NoConn ~ 7600 1650
NoConn ~ 6800 1550
Text GLabel 7750 1550 2    45   Input ~ 0
FP35
Text GLabel 7750 1450 2    45   Input ~ 0
FP42
Text GLabel 6650 1450 0    45   Input ~ 0
FP41
$Comp
L CONN_12X2 P7
U 1 1 515DE467
P 7200 1600
F 0 "P7" H 7200 2250 60  0000 C CNN
F 1 "CONN_12X2" V 7200 1600 50  0000 C CNN
F 2 "" H 7200 1600 60  0001 C CNN
F 3 "" H 7200 1600 60  0001 C CNN
	1    7200 1600
	-1   0    0    1   
$EndComp
Text GLabel 5850 1200 2    45   Input ~ 0
FP2
Text GLabel 5850 1100 2    45   Input ~ 0
FP3
Text GLabel 7750 1150 2    45   Input ~ 0
FP1
Text GLabel 7750 1050 2    45   Input ~ 0
FP3
Text GLabel 6650 1050 0    45   Input ~ 0
FP2
Text GLabel 4650 1100 0    45   Input ~ 0
FP1
Text GLabel 4650 1200 0    45   Input ~ 0
FP0
Text GLabel 6650 1150 0    50   Input ~ 0
FP0
$Comp
L CONN_4X2 P101
U 1 1 516C28B0
P 5250 1850
F 0 "P101" H 5250 2100 50  0000 C CNN
F 1 "CONN_4X2" V 5250 1850 40  0000 C CNN
F 2 "" H 5250 1850 60  0001 C CNN
F 3 "" H 5250 1850 60  0001 C CNN
	1    5250 1850
	1    0    0    -1  
$EndComp
$Comp
L CONN_5X2 P100
U 1 1 516C289B
P 5250 1300
F 0 "P100" H 5250 1600 60  0000 C CNN
F 1 "CONN_5X2" V 5250 1300 50  0000 C CNN
F 2 "" H 5250 1300 60  0001 C CNN
F 3 "" H 5250 1300 60  0001 C CNN
	1    5250 1300
	1    0    0    -1  
$EndComp
$Comp
L +5V #PWR03
U 1 1 515E0D9F
P 4635 7025
F 0 "#PWR03" H 4635 7115 20  0001 C CNN
F 1 "+5V" V 4635 7175 30  0000 C CNN
F 2 "" H 4635 7025 60  0001 C CNN
F 3 "" H 4635 7025 60  0001 C CNN
	1    4635 7025
	0    -1   -1   0   
$EndComp
$Comp
L GND #PWR04
U 1 1 515E0D7A
P 5685 7125
F 0 "#PWR04" H 5685 7125 30  0001 C CNN
F 1 "GND" H 5685 7055 30  0001 C CNN
F 2 "" H 5685 7125 60  0001 C CNN
F 3 "" H 5685 7125 60  0001 C CNN
	1    5685 7125
	1    0    0    -1  
$EndComp
$Comp
L CONN_4X2 P2
U 1 1 515DE49F
P 5185 6875
F 0 "P2" H 5185 7125 50  0000 C CNN
F 1 "CONN_4X2" V 5185 6875 40  0000 C CNN
F 2 "" H 5185 6875 60  0001 C CNN
F 3 "" H 5185 6875 60  0001 C CNN
	1    5185 6875
	1    0    0    -1  
$EndComp
$Comp
L CONN_5X2 P4
U 1 1 515E0A8E
P 5225 3800
F 0 "P4" H 5225 4100 60  0000 C CNN
F 1 "CONN_5X2" V 5225 3800 50  0000 C CNN
F 2 "" H 5225 3800 60  0001 C CNN
F 3 "" H 5225 3800 60  0001 C CNN
	1    5225 3800
	1    0    0    -1  
$EndComp
Text GLabel 7750 1350 2    45   Input ~ 0
AMP3
Text GLabel 7750 1250 2    45   Input ~ 0
AMP2
Text GLabel 6650 1350 0    45   Input ~ 0
AMP4
Text GLabel 6650 1250 0    45   Input ~ 0
AMP1
NoConn ~ 6800 2150
NoConn ~ 6800 2050
Text GLabel 2250 6750 0    45   Input ~ 0
ON PULSE
Text GLabel 2250 6650 0    45   Input ~ 0
AMP5
Text GLabel 3350 6650 2    45   Input ~ 0
AMP6
Text GLabel 3350 6750 2    45   Input ~ 0
LATCH_LEDS
Text GLabel 3350 6950 2    45   Input ~ 0
SHIFT_LED
Text GLabel 3350 7050 2    45   Input ~ 0
SERIAL_IN
NoConn ~ 3200 7150
$Comp
L GND #PWR05
U 1 1 515DE7DC
P 4725 4100
F 0 "#PWR05" H 4725 4100 30  0001 C CNN
F 1 "GND" H 4725 4030 30  0001 C CNN
F 2 "" H 4725 4100 60  0001 C CNN
F 3 "" H 4725 4100 60  0001 C CNN
	1    4725 4100
	1    0    0    -1  
$EndComp
$Comp
L GND #PWR06
U 1 1 515DE7D8
P 5725 4100
F 0 "#PWR06" H 5725 4100 30  0001 C CNN
F 1 "GND" H 5725 4030 30  0001 C CNN
F 2 "" H 5725 4100 60  0001 C CNN
F 3 "" H 5725 4100 60  0001 C CNN
	1    5725 4100
	1    0    0    -1  
$EndComp
Text GLabel 4625 3900 0    45   Input ~ 0
VMOTOR
Text GLabel 5775 3900 2    45   Input ~ 0
VMOTOR
$Comp
L CONN_8X2 P6
U 1 1 515DE48C
P 2800 6800
F 0 "P6" H 2800 7250 60  0000 C CNN
F 1 "CONN_8X2" V 2800 6800 50  0000 C CNN
F 2 "" H 2800 6800 60  0001 C CNN
F 3 "" H 2800 6800 60  0001 C CNN
	1    2800 6800
	1    0    0    -1  
$EndComp
$Comp
L CONN_12X2 P3
U 1 1 515DE460
P 10100 1550
F 0 "P3" H 10100 2200 60  0000 C CNN
F 1 "CONN_12X2" V 10100 1550 50  0000 C CNN
F 2 "" H 10100 1550 60  0001 C CNN
F 3 "" H 10100 1550 60  0001 C CNN
	1    10100 1550
	1    0    0    -1  
$EndComp
$Sheet
S 1050 1950 1250 700 
U 5112AC2A
F0 "POWER" 60
F1 "Source.sch" 60
$EndSheet
$Sheet
S 2650 900  1200 550 
U 5112ABF3
F0 "SENSOR" 60
F1 "Sensores.sch" 60
$EndSheet
$Sheet
S 1000 900  1300 600 
U 5112ABB8
F0 "LEDS" 60
F1 "leds.sch" 60
$EndSheet
Text Notes 6750 900  0    60   ~ 0
conector P8 en la sie\n
Text Notes 2300 6250 0    60   ~ 0
conector p9 en la sie\n
Text Notes 4735 6550 0    60   ~ 0
conector p4 en la sie\n
$Comp
L GND #PWR07
U 1 1 52708499
P 9375 2225
F 0 "#PWR07" H 9375 2225 30  0001 C CNN
F 1 "GND" H 9375 2155 30  0001 C CNN
F 2 "" H 9375 2225 60  0000 C CNN
F 3 "" H 9375 2225 60  0000 C CNN
	1    9375 2225
	1    0    0    -1  
$EndComp
Text GLabel 10650 1400 2    45   Input ~ 0
SSPI_SCK
Text GLabel 10650 1300 2    45   Input ~ 0
SSPI_DATA0
Text GLabel 9500 1300 0    45   Input ~ 0
SSPI_DATA3
Text GLabel 9500 1200 0    45   Input ~ 0
SSPI_CMD
Text Notes 9775 750  0    45   ~ 0
conector P1 en la sie
Text Notes 9750 2750 0    45   ~ 0
conector P2 en la sie\n
$Comp
L CONN_12X2 P11
U 1 1 5275AE6D
P 10090 5210
F 0 "P11" H 10090 5860 60  0000 C CNN
F 1 "CONN_12X2" V 10090 5210 50  0000 C CNN
F 2 "" H 10090 5210 60  0000 C CNN
F 3 "" H 10090 5210 60  0000 C CNN
	1    10090 5210
	1    0    0    -1  
$EndComp
Text GLabel 9530 4760 0    45   Input ~ 0
LCD_DOTCK
Text GLabel 9530 4860 0    45   Input ~ 0
LCD_HSYNC
Text GLabel 10670 4660 2    45   Input ~ 0
GPMI_D07
Text GLabel 10670 4760 2    45   Input ~ 0
GPMI_D05
Text GLabel 10670 4860 2    45   Input ~ 0
LCD_VSYNC
$Comp
L CONN_12X2 P1
U 1 1 5275B4D5
P 10160 3480
F 0 "P1" H 10160 4130 60  0000 C CNN
F 1 "CONN_12X2" V 10160 3480 50  0000 C CNN
F 2 "" H 10160 3480 60  0000 C CNN
F 3 "" H 10160 3480 60  0000 C CNN
	1    10160 3480
	1    0    0    -1  
$EndComp
$Comp
L GND #PWR08
U 1 1 5275B563
P 9320 4030
F 0 "#PWR08" H 9320 4030 30  0001 C CNN
F 1 "GND" H 9320 3960 30  0001 C CNN
F 2 "" H 9320 4030 60  0000 C CNN
F 3 "" H 9320 4030 60  0000 C CNN
	1    9320 4030
	1    0    0    -1  
$EndComp
Text GLabel 9620 4030 0    45   Input ~ 0
RX
Text GLabel 10650 4030 2    45   Input ~ 0
TX
Text GLabel 10650 3930 2    45   Input ~ 0
RESET_PB
$Comp
L +5V #PWR09
U 1 1 5275BB33
P 9580 2820
F 0 "#PWR09" H 9580 2910 20  0001 C CNN
F 1 "+5V" H 9580 2910 30  0000 C CNN
F 2 "" H 9580 2820 60  0000 C CNN
F 3 "" H 9580 2820 60  0000 C CNN
	1    9580 2820
	1    0    0    -1  
$EndComp
$Comp
L +5V #PWR010
U 1 1 5275BC40
P 9530 4550
F 0 "#PWR010" H 9530 4640 20  0001 C CNN
F 1 "+5V" H 9530 4640 30  0000 C CNN
F 2 "" H 9530 4550 60  0000 C CNN
F 3 "" H 9530 4550 60  0000 C CNN
	1    9530 4550
	1    0    0    -1  
$EndComp
Text GLabel 9600 3030 0    45   Input ~ 0
LCD_DOTCK
Text GLabel 9610 3130 0    45   Input ~ 0
LCD_HSYNC
Text GLabel 9610 3230 0    45   Input ~ 0
LCD_WR
Text GLabel 9610 3330 0    45   Input ~ 0
LCD_ENABLE
Text GLabel 9610 3430 0    45   Input ~ 0
LCD_D7
Text GLabel 9610 3530 0    45   Input ~ 0
LCD_D5
Text GLabel 9610 3630 0    45   Input ~ 0
LCD_D3
Text GLabel 9610 3730 0    45   Input ~ 0
LCD_D1
$Comp
L +5V #PWR011
U 1 1 5275C299
P 9080 3720
F 0 "#PWR011" H 9080 3810 20  0001 C CNN
F 1 "+5V" H 9080 3810 30  0000 C CNN
F 2 "" H 9080 3720 60  0000 C CNN
F 3 "" H 9080 3720 60  0000 C CNN
	1    9080 3720
	1    0    0    -1  
$EndComp
Text GLabel 10670 2930 2    45   Input ~ 0
GPMI_D07
Text GLabel 10670 3030 2    45   Input ~ 0
GPMI_D05
Text GLabel 10670 3130 2    45   Input ~ 0
LCD_VSYNC
Text GLabel 10670 3230 2    45   Input ~ 0
LCD_RS
Text GLabel 10670 3330 2    45   Input ~ 0
LCD_RESET
Text GLabel 10670 3430 2    45   Input ~ 0
LCD_CS
Text GLabel 10670 3530 2    45   Input ~ 0
LCD_D6
Text GLabel 10670 3630 2    45   Input ~ 0
LCD_D4
Text GLabel 10670 3730 2    45   Input ~ 0
LCD_D2
Text GLabel 10670 3830 2    45   Input ~ 0
LCD_D0
Text GLabel 9520 4960 0    45   Input ~ 0
LCD_WR
Text GLabel 9520 5060 0    45   Input ~ 0
LCD_ENABLE
Text GLabel 9520 5160 0    45   Input ~ 0
LCD_D7
Text GLabel 9520 5260 0    45   Input ~ 0
LCD_D5
Text GLabel 9520 5360 0    45   Input ~ 0
LCD_D3
Text GLabel 9520 5460 0    45   Input ~ 0
LCD_D1
$Comp
L +5V #PWR012
U 1 1 5275CFE5
P 9020 5420
F 0 "#PWR012" H 9020 5510 20  0001 C CNN
F 1 "+5V" H 9020 5510 30  0000 C CNN
F 2 "" H 9020 5420 60  0000 C CNN
F 3 "" H 9020 5420 60  0000 C CNN
	1    9020 5420
	1    0    0    -1  
$EndComp
$Comp
L GND #PWR013
U 1 1 5275D1C7
P 8980 5760
F 0 "#PWR013" H 8980 5760 30  0001 C CNN
F 1 "GND" H 8980 5690 30  0001 C CNN
F 2 "" H 8980 5760 60  0000 C CNN
F 3 "" H 8980 5760 60  0000 C CNN
	1    8980 5760
	1    0    0    -1  
$EndComp
Text GLabel 9520 5760 0    45   Input ~ 0
RX
Text GLabel 10670 4960 2    45   Input ~ 0
LCD_RS
Text GLabel 10670 5060 2    45   Input ~ 0
LCD_RESET
Text GLabel 10670 5160 2    45   Input ~ 0
LCD_CS
Text GLabel 10670 5260 2    45   Input ~ 0
LCD_D6
Text GLabel 10680 5360 2    45   Input ~ 0
LCD_D4
Text GLabel 10680 5460 2    45   Input ~ 0
LCD_D2
Text GLabel 10680 5560 2    45   Input ~ 0
LCD_D0
Text GLabel 10680 5660 2    45   Input ~ 0
RESET_PB
Text GLabel 10680 5760 2    45   Input ~ 0
TX
$Comp
L GND #PWR014
U 1 1 5275E032
P 8960 2230
F 0 "#PWR014" H 8960 2230 30  0001 C CNN
F 1 "GND" H 8960 2160 30  0001 C CNN
F 2 "" H 8960 2230 60  0000 C CNN
F 3 "" H 8960 2230 60  0000 C CNN
	1    8960 2230
	1    0    0    -1  
$EndComp
NoConn ~ 9700 1500
Text GLabel 9500 1600 0    45   Input ~ 0
LRADC1
Text GLabel 9500 1800 0    45   Input ~ 0
HPR
Text GLabel 9500 1900 0    45   Input ~ 0
LINE1_INR
Text GLabel 9500 2000 0    45   Input ~ 0
MIC
Text GLabel 10650 1500 2    45   Input ~ 0
VDAC1
Text GLabel 10650 1600 2    45   Input ~ 0
LRADC0
Text GLabel 10650 1800 2    45   Input ~ 0
HP_VGND
Text GLabel 10650 1900 2    45   Input ~ 0
HPL
Text GLabel 10650 2000 2    45   Input ~ 0
LINE1_INL
Text GLabel 10650 2100 2    45   Input ~ 0
PSWITCH
$Comp
L GND #PWR015
U 1 1 5275EED4
P 11150 2160
F 0 "#PWR015" H 11150 2160 30  0001 C CNN
F 1 "GND" H 11150 2090 30  0001 C CNN
F 2 "" H 11150 2160 60  0000 C CNN
F 3 "" H 11150 2160 60  0000 C CNN
	1    11150 2160
	1    0    0    -1  
$EndComp
$Comp
L CONN_12X2 P12
U 1 1 52765728
P 7600 3500
F 0 "P12" H 7600 4150 60  0000 C CNN
F 1 "CONN_12X2" V 7600 3500 50  0000 C CNN
F 2 "" H 7600 3500 60  0001 C CNN
F 3 "" H 7600 3500 60  0001 C CNN
	1    7600 3500
	1    0    0    -1  
$EndComp
$Comp
L GND #PWR016
U 1 1 5276572E
P 6875 4175
F 0 "#PWR016" H 6875 4175 30  0001 C CNN
F 1 "GND" H 6875 4105 30  0001 C CNN
F 2 "" H 6875 4175 60  0000 C CNN
F 3 "" H 6875 4175 60  0000 C CNN
	1    6875 4175
	1    0    0    -1  
$EndComp
Text GLabel 8150 3350 2    45   Input ~ 0
SSPI_SCK
Text GLabel 8150 3250 2    45   Input ~ 0
SSPI_DATA0
Text GLabel 7000 3250 0    45   Input ~ 0
SSPI_DATA3
Text GLabel 7000 3150 0    45   Input ~ 0
SSPI_CMD
$Comp
L GND #PWR017
U 1 1 5276575F
P 6460 4180
F 0 "#PWR017" H 6460 4180 30  0001 C CNN
F 1 "GND" H 6460 4110 30  0001 C CNN
F 2 "" H 6460 4180 60  0000 C CNN
F 3 "" H 6460 4180 60  0000 C CNN
	1    6460 4180
	1    0    0    -1  
$EndComp
NoConn ~ 7200 3450
Text GLabel 7000 3550 0    45   Input ~ 0
LRADC1
Text GLabel 7000 3750 0    45   Input ~ 0
HPR
Text GLabel 7000 3850 0    45   Input ~ 0
LINE1_INR
Text GLabel 7000 3950 0    45   Input ~ 0
MIC
Text GLabel 8150 3450 2    45   Input ~ 0
VDAC1
Text GLabel 8150 3550 2    45   Input ~ 0
LRADC0
Text GLabel 8150 3750 2    45   Input ~ 0
HP_VGND
Text GLabel 8150 3850 2    45   Input ~ 0
HPL
Text GLabel 8150 3950 2    45   Input ~ 0
LINE1_INL
Text GLabel 8150 4050 2    45   Input ~ 0
PSWITCH
$Comp
L GND #PWR018
U 1 1 5276577F
P 8650 4110
F 0 "#PWR018" H 8650 4110 30  0001 C CNN
F 1 "GND" H 8650 4040 30  0001 C CNN
F 2 "" H 8650 4110 60  0000 C CNN
F 3 "" H 8650 4110 60  0000 C CNN
	1    8650 4110
	1    0    0    -1  
$EndComp
$Comp
L GND #PWR019
U 1 1 52765958
P 4500 2100
F 0 "#PWR019" H 4500 2100 30  0001 C CNN
F 1 "GND" H 4500 2030 30  0001 C CNN
F 2 "" H 4500 2100 60  0000 C CNN
F 3 "" H 4500 2100 60  0000 C CNN
	1    4500 2100
	1    0    0    -1  
$EndComp
$Comp
L GND #PWR020
U 1 1 52765C0D
P 8400 2050
F 0 "#PWR020" H 8400 2050 30  0001 C CNN
F 1 "GND" H 8400 1980 30  0001 C CNN
F 2 "" H 8400 2050 60  0000 C CNN
F 3 "" H 8400 2050 60  0000 C CNN
	1    8400 2050
	1    0    0    -1  
$EndComp
$Comp
L GND #PWR021
U 1 1 52765E01
P 2350 5050
F 0 "#PWR021" H 2350 5050 30  0001 C CNN
F 1 "GND" H 2350 4980 30  0001 C CNN
F 2 "" H 2350 5050 60  0000 C CNN
F 3 "" H 2350 5050 60  0000 C CNN
	1    2350 5050
	1    0    0    -1  
$EndComp
Wire Wire Line
	5585 6925 5710 6925
Wire Wire Line
	5710 6725 5585 6725
Wire Wire Line
	4685 6825 4785 6825
Wire Wire Line
	2775 5450 3025 5450
Wire Wire Line
	2875 5350 3025 5350
Wire Wire Line
	3025 5150 2875 5150
Wire Wire Line
	3975 5050 3825 5050
Wire Wire Line
	3825 5250 3975 5250
Wire Wire Line
	6050 5750 5875 5750
Wire Wire Line
	5975 5075 6075 5075
Wire Wire Line
	6075 4875 5975 4875
Wire Wire Line
	8100 5475 8250 5475
Wire Wire Line
	8100 5275 8250 5275
Wire Wire Line
	7300 5475 7150 5475
Wire Wire Line
	7300 5275 7150 5275
Wire Wire Line
	4825 3800 4725 3800
Wire Wire Line
	4725 3600 4825 3600
Wire Wire Line
	4875 3100 4775 3100
Wire Wire Line
	4875 2900 4775 2900
Wire Wire Line
	4875 2700 4775 2700
Wire Wire Line
	2250 6950 2400 6950
Wire Wire Line
	3200 6850 3350 6850
Wire Wire Line
	3200 6450 3350 6450
Wire Wire Line
	2400 6450 2250 6450
Wire Wire Line
	6650 1850 6800 1850
Wire Wire Line
	7600 2050 8150 2050
Wire Wire Line
	7600 1850 7750 1850
Wire Wire Line
	7600 1550 7750 1550
Wire Wire Line
	6800 1650 6650 1650
Wire Wire Line
	7600 1450 7750 1450
Wire Wire Line
	4850 1200 4650 1200
Wire Wire Line
	4850 1400 4650 1400
Wire Wire Line
	4850 1700 4650 1700
Wire Wire Line
	4500 1900 4850 1900
Wire Wire Line
	5650 2000 6200 2000
Wire Wire Line
	5650 1800 5850 1800
Wire Wire Line
	5650 1500 5850 1500
Wire Wire Line
	5650 1300 5850 1300
Wire Wire Line
	5650 1100 5850 1100
Wire Wire Line
	7750 1150 7600 1150
Wire Wire Line
	7600 1050 7750 1050
Wire Wire Line
	6800 1150 6650 1150
Wire Wire Line
	5685 7125 5685 7025
Wire Wire Line
	5685 7025 5585 7025
Wire Wire Line
	6800 1250 6650 1250
Wire Wire Line
	7600 1250 7750 1250
Wire Wire Line
	2400 6750 2250 6750
Wire Wire Line
	3200 6750 3350 6750
Wire Wire Line
	3200 7050 3350 7050
Wire Wire Line
	5725 4100 5725 4000
Wire Wire Line
	5725 4000 5625 4000
Wire Wire Line
	5775 3900 5625 3900
Wire Wire Line
	4625 3900 4825 3900
Wire Wire Line
	4825 4000 4725 4000
Wire Wire Line
	4725 4000 4725 4100
Wire Wire Line
	3200 6950 3350 6950
Wire Wire Line
	3200 6650 3350 6650
Wire Wire Line
	2400 6650 2250 6650
Wire Wire Line
	7600 1350 7750 1350
Wire Wire Line
	6800 1350 6650 1350
Wire Wire Line
	4785 7025 4635 7025
Wire Wire Line
	6800 1050 6650 1050
Wire Wire Line
	5650 1200 5850 1200
Wire Wire Line
	5650 1400 5850 1400
Wire Wire Line
	5650 1700 5850 1700
Wire Wire Line
	5650 1900 6200 1900
Wire Wire Line
	4500 2000 4850 2000
Wire Wire Line
	4850 1800 4650 1800
Wire Wire Line
	4850 1500 4650 1500
Wire Wire Line
	4850 1300 4650 1300
Wire Wire Line
	4850 1100 4650 1100
Wire Wire Line
	6800 1450 6650 1450
Wire Wire Line
	6800 1750 6650 1750
Wire Wire Line
	7600 1750 7750 1750
Wire Wire Line
	7750 1950 7600 1950
Wire Wire Line
	7750 2150 7600 2150
Wire Wire Line
	6800 1950 6650 1950
Wire Wire Line
	2400 6550 2250 6550
Wire Wire Line
	3200 6550 3350 6550
Wire Wire Line
	2400 6850 2250 6850
Wire Wire Line
	2250 7050 2400 7050
Wire Wire Line
	4875 2800 4775 2800
Wire Wire Line
	4875 3000 4775 3000
Wire Wire Line
	4725 3700 4825 3700
Wire Wire Line
	7300 5175 7150 5175
Wire Wire Line
	7300 5375 7150 5375
Wire Wire Line
	8100 5175 8250 5175
Wire Wire Line
	8100 5375 8250 5375
Wire Wire Line
	5000 4875 4900 4875
Wire Wire Line
	5000 5775 4900 5775
Wire Wire Line
	5000 5075 4900 5075
Wire Wire Line
	4900 5975 5000 5975
Wire Wire Line
	6050 5950 5875 5950
Wire Wire Line
	3825 5350 3975 5350
Wire Wire Line
	3825 5150 3975 5150
Wire Wire Line
	3825 4950 3975 4950
Wire Wire Line
	3025 5050 2875 5050
Wire Wire Line
	3025 5250 2875 5250
Wire Wire Line
	3825 5450 4100 5450
Wire Wire Line
	4100 5450 4100 5550
Wire Wire Line
	4685 6725 4785 6725
Wire Wire Line
	4785 6925 4685 6925
Wire Wire Line
	5710 6825 5585 6825
Wire Wire Line
	9700 2100 9375 2100
Wire Wire Line
	9375 2100 9375 2225
Wire Wire Line
	10500 1400 10650 1400
Wire Wire Line
	10500 1300 10650 1300
Wire Wire Line
	9700 1300 9500 1300
Wire Wire Line
	9500 1200 9700 1200
Wire Wire Line
	9530 4760 9690 4760
Wire Wire Line
	9530 4860 9690 4860
Wire Wire Line
	10490 4660 10670 4660
Wire Wire Line
	10490 4760 10670 4760
Wire Wire Line
	10490 4860 10670 4860
Wire Wire Line
	9760 3930 9320 3930
Wire Wire Line
	9320 3930 9320 4030
Wire Wire Line
	9760 4030 9620 4030
Wire Wire Line
	10560 4030 10650 4030
Wire Wire Line
	10650 3930 10560 3930
Wire Wire Line
	9760 3030 9600 3030
Wire Wire Line
	9760 3130 9610 3130
Wire Wire Line
	10670 2930 10560 2930
Wire Wire Line
	10560 3030 10670 3030
Wire Wire Line
	10670 3130 10560 3130
Wire Wire Line
	9580 2820 9580 2930
Wire Wire Line
	9580 2930 9760 2930
Wire Wire Line
	9530 4550 9530 4660
Wire Wire Line
	9530 4660 9690 4660
Wire Wire Line
	9610 3230 9760 3230
Wire Wire Line
	9760 3330 9610 3330
Wire Wire Line
	9760 3430 9610 3430
Wire Wire Line
	9760 3530 9610 3530
Wire Wire Line
	9760 3630 9610 3630
Wire Wire Line
	9760 3730 9610 3730
Wire Wire Line
	9080 3830 9760 3830
Wire Wire Line
	9080 3720 9080 3830
Wire Wire Line
	10560 3230 10670 3230
Wire Wire Line
	10560 3330 10670 3330
Wire Wire Line
	10560 3430 10670 3430
Wire Wire Line
	10560 3530 10670 3530
Wire Wire Line
	10560 3630 10670 3630
Wire Wire Line
	10560 3730 10670 3730
Wire Wire Line
	10560 3830 10670 3830
Wire Wire Line
	9690 4960 9520 4960
Wire Wire Line
	9690 5060 9520 5060
Wire Wire Line
	9690 5160 9520 5160
Wire Wire Line
	9690 5260 9520 5260
Wire Wire Line
	9520 5360 9690 5360
Wire Wire Line
	9690 5460 9520 5460
Wire Wire Line
	9020 5560 9690 5560
Wire Wire Line
	8980 5660 9690 5660
Wire Wire Line
	9020 5420 9020 5560
Wire Wire Line
	8980 5660 8980 5760
Wire Wire Line
	9690 5760 9520 5760
Wire Wire Line
	10490 4960 10670 4960
Wire Wire Line
	10490 5060 10670 5060
Wire Wire Line
	10490 5160 10670 5160
Wire Wire Line
	10490 5260 10670 5260
Wire Wire Line
	10490 5360 10680 5360
Wire Wire Line
	10490 5460 10680 5460
Wire Wire Line
	10490 5560 10680 5560
Wire Wire Line
	10490 5660 10680 5660
Wire Wire Line
	10490 5760 10680 5760
Wire Wire Line
	9560 880  9560 1000
Wire Wire Line
	9560 1000 9700 1000
Wire Wire Line
	9370 890  9370 1100
Wire Wire Line
	9370 1100 9700 1100
Wire Wire Line
	10680 890  10680 1000
Wire Wire Line
	10680 1000 10500 1000
Wire Wire Line
	10500 1100 10840 1100
Wire Wire Line
	10840 1100 10840 890 
Wire Wire Line
	9700 1600 9500 1600
Wire Wire Line
	8960 1700 9700 1700
Wire Wire Line
	9700 1800 9500 1800
Wire Wire Line
	9700 1900 9500 1900
Wire Wire Line
	9700 2000 9500 2000
Wire Wire Line
	9700 1400 8960 1400
Wire Wire Line
	8960 1400 8960 2230
Connection ~ 8960 1700
Wire Wire Line
	10500 1500 10650 1500
Wire Wire Line
	10500 1600 10650 1600
Wire Wire Line
	10500 1700 11150 1700
Wire Wire Line
	10500 1800 10650 1800
Wire Wire Line
	10500 1900 10650 1900
Wire Wire Line
	10500 2000 10650 2000
Wire Wire Line
	10500 2100 10650 2100
Wire Wire Line
	10500 1200 11150 1200
Wire Wire Line
	11150 1200 11150 2160
Connection ~ 11150 1700
Wire Wire Line
	7200 4050 6875 4050
Wire Wire Line
	6875 4050 6875 4175
Wire Wire Line
	8000 3350 8150 3350
Wire Wire Line
	8000 3250 8150 3250
Wire Wire Line
	7200 3250 7000 3250
Wire Wire Line
	7000 3150 7200 3150
Wire Wire Line
	7060 2830 7060 2950
Wire Wire Line
	7060 2950 7200 2950
Wire Wire Line
	6870 2840 6870 3050
Wire Wire Line
	6870 3050 7200 3050
Wire Wire Line
	8180 2840 8180 2950
Wire Wire Line
	8180 2950 8000 2950
Wire Wire Line
	8000 3050 8340 3050
Wire Wire Line
	8340 3050 8340 2840
Wire Wire Line
	7200 3550 7000 3550
Wire Wire Line
	6460 3650 7200 3650
Wire Wire Line
	7200 3750 7000 3750
Wire Wire Line
	7200 3850 7000 3850
Wire Wire Line
	7200 3950 7000 3950
Wire Wire Line
	7200 3350 6460 3350
Wire Wire Line
	6460 3350 6460 4180
Connection ~ 6460 3650
Wire Wire Line
	8000 3450 8150 3450
Wire Wire Line
	8000 3550 8150 3550
Wire Wire Line
	8000 3650 8650 3650
Wire Wire Line
	8000 3750 8150 3750
Wire Wire Line
	8000 3850 8150 3850
Wire Wire Line
	8000 3950 8150 3950
Wire Wire Line
	8000 4050 8150 4050
Wire Wire Line
	8000 3150 8650 3150
Wire Wire Line
	8650 3150 8650 4110
Connection ~ 8650 3650
Wire Wire Line
	6200 2000 6200 1750
Connection ~ 6200 1900
Wire Wire Line
	4500 1900 4500 2100
Connection ~ 4500 2000
Wire Wire Line
	7750 2150 7750 2350
Wire Wire Line
	7750 2350 8200 2350
Wire Wire Line
	8200 2350 8200 2300
Wire Wire Line
	8150 2050 8150 1900
Wire Wire Line
	8150 1900 8400 1900
Wire Wire Line
	8400 1900 8400 2050
Wire Wire Line
	2350 4950 2350 5050
$Comp
L +3.3V #PWR022
U 1 1 5276664A
P 6200 1750
F 0 "#PWR022" H 6200 1710 30  0001 C CNN
F 1 "+3.3V" H 6200 1860 30  0000 C CNN
F 2 "" H 6200 1750 60  0000 C CNN
F 3 "" H 6200 1750 60  0000 C CNN
	1    6200 1750
	1    0    0    -1  
$EndComp
$Comp
L +3.3V #PWR023
U 1 1 52766668
P 8200 2300
F 0 "#PWR023" H 8200 2260 30  0001 C CNN
F 1 "+3.3V" H 8200 2410 30  0000 C CNN
F 2 "" H 8200 2300 60  0000 C CNN
F 3 "" H 8200 2300 60  0000 C CNN
	1    8200 2300
	1    0    0    -1  
$EndComp
$Comp
L +3.3V #PWR024
U 1 1 52766686
P 9560 880
F 0 "#PWR024" H 9560 840 30  0001 C CNN
F 1 "+3.3V" H 9560 990 30  0000 C CNN
F 2 "" H 9560 880 60  0000 C CNN
F 3 "" H 9560 880 60  0000 C CNN
	1    9560 880 
	1    0    0    -1  
$EndComp
$Comp
L +3.3V #PWR025
U 1 1 52766695
P 9370 890
F 0 "#PWR025" H 9370 850 30  0001 C CNN
F 1 "+3.3V" H 9370 1000 30  0000 C CNN
F 2 "" H 9370 890 60  0000 C CNN
F 3 "" H 9370 890 60  0000 C CNN
	1    9370 890 
	1    0    0    -1  
$EndComp
$Comp
L +3.3V #PWR026
U 1 1 527666A4
P 10680 890
F 0 "#PWR026" H 10680 850 30  0001 C CNN
F 1 "+3.3V" H 10680 1000 30  0000 C CNN
F 2 "" H 10680 890 60  0000 C CNN
F 3 "" H 10680 890 60  0000 C CNN
	1    10680 890 
	1    0    0    -1  
$EndComp
$Comp
L +3.3V #PWR027
U 1 1 527666B3
P 10840 890
F 0 "#PWR027" H 10840 850 30  0001 C CNN
F 1 "+3.3V" H 10840 1000 30  0000 C CNN
F 2 "" H 10840 890 60  0000 C CNN
F 3 "" H 10840 890 60  0000 C CNN
	1    10840 890 
	1    0    0    -1  
$EndComp
$Comp
L +3.3V #PWR028
U 1 1 527666C2
P 7060 2830
F 0 "#PWR028" H 7060 2790 30  0001 C CNN
F 1 "+3.3V" H 7060 2940 30  0000 C CNN
F 2 "" H 7060 2830 60  0000 C CNN
F 3 "" H 7060 2830 60  0000 C CNN
	1    7060 2830
	1    0    0    -1  
$EndComp
$Comp
L +3.3V #PWR029
U 1 1 527666D1
P 6870 2840
F 0 "#PWR029" H 6870 2800 30  0001 C CNN
F 1 "+3.3V" H 6870 2950 30  0000 C CNN
F 2 "" H 6870 2840 60  0000 C CNN
F 3 "" H 6870 2840 60  0000 C CNN
	1    6870 2840
	1    0    0    -1  
$EndComp
$Comp
L +3.3V #PWR030
U 1 1 527666E0
P 8180 2840
F 0 "#PWR030" H 8180 2800 30  0001 C CNN
F 1 "+3.3V" H 8180 2950 30  0000 C CNN
F 2 "" H 8180 2840 60  0000 C CNN
F 3 "" H 8180 2840 60  0000 C CNN
	1    8180 2840
	1    0    0    -1  
$EndComp
$Comp
L +3.3V #PWR031
U 1 1 527666EF
P 8340 2840
F 0 "#PWR031" H 8340 2800 30  0001 C CNN
F 1 "+3.3V" H 8340 2950 30  0000 C CNN
F 2 "" H 8340 2840 60  0000 C CNN
F 3 "" H 8340 2840 60  0000 C CNN
	1    8340 2840
	1    0    0    -1  
$EndComp
Wire Wire Line
	3025 4950 2350 4950
$EndSCHEMATC
