EESchema Schematic File Version 2
LIBS:power
LIBS:device
LIBS:transistors
LIBS:conn
LIBS:linear
LIBS:regul
LIBS:74xx
LIBS:cmos4000
LIBS:adc-dac
LIBS:memory
LIBS:xilinx
LIBS:special
LIBS:microcontrollers
LIBS:dsp
LIBS:microchip
LIBS:analog_switches
LIBS:motorola
LIBS:texas
LIBS:intel
LIBS:audio
LIBS:interface
LIBS:digital-audio
LIBS:philips
LIBS:display
LIBS:cypress
LIBS:siliconi
LIBS:opto
LIBS:atmel
LIBS:contrib
LIBS:valves
LIBS:bat_con
LIBS:baw101
LIBS:con-jack
LIBS:csd16323q3
LIBS:ipc-7351-transistor
LIBS:irf5803
LIBS:irf9333
LIBS:lf50cdt
LIBS:lm3478
LIBS:LM3485
LIBS:mbrb2515lt4g
LIBS:mc74hc595a
LIBS:mcp6l02
LIBS:mcp6l04
LIBS:mcp73831
LIBS:MCP73837
LIBS:ovsrrgbcc3
LIBS:transistor-arrays
LIBS:usb_a
LIBS:usba-plug
LIBS:usbconn
LIBS:usb-mini
LIBS:xc6216
LIBS:ltc3533
LIBS:PCB-cache
EELAYER 24 0
EELAYER END
$Descr A4 11693 8268
encoding utf-8
Sheet 2 4
Title "5V, 2A BUCK-BOOST POWER SUPPLY"
Date "03 nov 2013"
Rev "CAP"
Comp "Universidad Nacional de Colombia"
Comment1 ""
Comment2 ""
Comment3 ""
Comment4 ""
$EndDescr
$Comp
L GND #PWR032
U 1 1 511ABFB7
P 1850 5350
F 0 "#PWR032" H 1850 5350 30  0001 C CNN
F 1 "GND" H 1850 5280 30  0001 C CNN
F 2 "" H 1850 5350 60  0001 C CNN
F 3 "" H 1850 5350 60  0001 C CNN
	1    1850 5350
	1    0    0    -1  
$EndComp
$Comp
L JACK-PLUG0 J1
U 1 1 511ABF32
P 1350 3750
F 0 "J1" H 1050 3950 50  0000 L BNN
F 1 "JACK-PLUG0" H 1050 3550 50  0000 L BNN
F 2 "con-jack-SPC4077" H 1350 3900 50  0001 C CNN
F 3 "" H 1350 3750 60  0001 C CNN
	1    1350 3750
	1    0    0    -1  
$EndComp
Connection ~ 1650 3850
Wire Wire Line
	1550 3750 1650 3750
Wire Wire Line
	1650 3850 1550 3850
Wire Wire Line
	1650 3750 1650 5150
$Comp
L LTC3533 U1
U 1 1 52758231
P 4950 3950
F 0 "U1" H 4900 4200 60  0000 C CNN
F 1 "LTC3533" H 4900 3950 60  0000 C CNN
F 2 "" H 4950 3950 60  0000 C CNN
F 3 "" H 4950 3950 60  0000 C CNN
	1    4950 3950
	1    0    0    -1  
$EndComp
$Comp
L INDUCTOR_SMALL L1
U 1 1 52758240
P 4900 2450
F 0 "L1" H 4900 2550 50  0000 C CNN
F 1 "2.2uH" H 4900 2400 50  0000 C CNN
F 2 "" H 4900 2450 60  0000 C CNN
F 3 "" H 4900 2450 60  0000 C CNN
	1    4900 2450
	1    0    0    -1  
$EndComp
$Comp
L DIODESCH D1
U 1 1 5275827C
P 2300 3650
F 0 "D1" H 2300 3750 40  0000 C CNN
F 1 "B340A" H 2300 3550 40  0000 C CNN
F 2 "" H 2300 3650 60  0000 C CNN
F 3 "" H 2300 3650 60  0000 C CNN
F 4 "B340A-FDICT-ND" H 2300 3650 60  0001 C CNN "REF DIGIKEY"
F 5 "0.47" H 2300 3650 60  0001 C CNN "PRECIO"
F 6 "http://www.digikey.com/product-detail/en/B340A-13-F/B340A-FDICT-ND/725054" H 2300 3650 60  0001 C CNN "LINK COMPRA"
	1    2300 3650
	1    0    0    -1  
$EndComp
$Comp
L C C1
U 1 1 5275828B
P 2800 4600
F 0 "C1" H 2800 4700 40  0000 L CNN
F 1 "10uF" H 2806 4515 40  0000 L CNN
F 2 "SM0805" H 2838 4450 30  0001 C CNN
F 3 "" H 2800 4600 60  0000 C CNN
F 4 "478-5326-1-ND" H 2800 4600 60  0001 C CNN "REF DIGIKEY"
	1    2800 4600
	1    0    0    -1  
$EndComp
$Comp
L C C2
U 1 1 5275829A
P 3150 4600
F 0 "C2" H 3150 4700 40  0000 L CNN
F 1 "0.01uF" H 3156 4515 40  0000 L CNN
F 2 "SM0805" H 3188 4450 30  0001 C CNN
F 3 "" H 3150 4600 60  0000 C CNN
	1    3150 4600
	1    0    0    -1  
$EndComp
$Comp
L C C3
U 1 1 527582A9
P 3600 2800
F 0 "C3" H 3600 2900 40  0000 L CNN
F 1 "1nF" H 3606 2715 40  0000 L CNN
F 2 "SM0805" H 3638 2650 30  0001 C CNN
F 3 "" H 3600 2800 60  0000 C CNN
	1    3600 2800
	0    -1   -1   0   
$EndComp
$Comp
L C C4
U 1 1 527582B8
P 6450 4800
F 0 "C4" H 6450 4900 40  0000 L CNN
F 1 "0.1uF" H 6456 4715 40  0000 L CNN
F 2 "SM0805" H 6488 4650 30  0001 C CNN
F 3 "" H 6450 4800 60  0000 C CNN
	1    6450 4800
	1    0    0    -1  
$EndComp
$Comp
L C C5
U 1 1 527582C7
P 7600 4450
F 0 "C5" V 7650 4550 40  0000 L CNN
F 1 "39pF" V 7450 4400 40  0000 L CNN
F 2 "SM0805" H 7638 4300 30  0001 C CNN
F 3 "" H 7600 4450 60  0000 C CNN
	1    7600 4450
	0    -1   -1   0   
$EndComp
$Comp
L C C6
U 1 1 527582D6
P 7950 4150
F 0 "C6" V 8000 4250 40  0000 L CNN
F 1 "560pF" V 7800 4050 40  0000 L CNN
F 2 "SM0805" H 7988 4000 30  0001 C CNN
F 3 "" H 7950 4150 60  0000 C CNN
	1    7950 4150
	0    -1   -1   0   
$EndComp
$Comp
L C C7
U 1 1 527582E5
P 8850 3800
F 0 "C7" H 8850 3900 40  0000 L CNN
F 1 "56pF" H 8856 3715 40  0000 L CNN
F 2 "SM0805" H 8888 3650 30  0001 C CNN
F 3 "" H 8850 3800 60  0000 C CNN
	1    8850 3800
	1    0    0    -1  
$EndComp
$Comp
L C C8
U 1 1 527582F4
P 9250 3800
F 0 "C8" H 9250 3900 40  0000 L CNN
F 1 "220uF" H 9256 3715 40  0000 L CNN
F 2 "SM1210" H 9288 3650 30  0001 C CNN
F 3 "" H 9250 3800 60  0000 C CNN
	1    9250 3800
	1    0    0    -1  
$EndComp
$Comp
L R R1
U 1 1 52758303
P 3150 4000
F 0 "R1" V 3230 4000 40  0000 C CNN
F 1 "1M" V 3157 4001 40  0000 C CNN
F 2 "SM0805" V 3080 4000 30  0001 C CNN
F 3 "" H 3150 4000 30  0000 C CNN
	1    3150 4000
	1    0    0    -1  
$EndComp
$Comp
L R R2
U 1 1 52758312
P 3850 4700
F 0 "R2" V 3930 4700 40  0000 C CNN
F 1 "33.2K" V 3857 4701 40  0000 C CNN
F 2 "SM0805" V 3780 4700 30  0001 C CNN
F 3 "" H 3850 4700 30  0000 C CNN
	1    3850 4700
	1    0    0    -1  
$EndComp
$Comp
L R R3
U 1 1 52758321
P 4200 2800
F 0 "R3" V 4280 2800 40  0000 C CNN
F 1 "2.2" V 4207 2801 40  0000 C CNN
F 2 "SM0805" V 4130 2800 30  0001 C CNN
F 3 "" H 4200 2800 30  0000 C CNN
	1    4200 2800
	0    -1   -1   0   
$EndComp
$Comp
L R R4
U 1 1 52758330
P 6100 4750
F 0 "R4" V 6180 4750 40  0000 C CNN
F 1 "215K" V 6107 4751 40  0000 C CNN
F 2 "SM0805" V 6030 4750 30  0001 C CNN
F 3 "" H 6100 4750 30  0000 C CNN
	1    6100 4750
	1    0    0    -1  
$EndComp
$Comp
L R R5
U 1 1 5275833F
P 7150 4150
F 0 "R5" V 7230 4150 40  0000 C CNN
F 1 "33K" V 7157 4151 40  0000 C CNN
F 2 "SM0805" V 7080 4150 30  0001 C CNN
F 3 "" H 7150 4150 30  0000 C CNN
	1    7150 4150
	0    -1   -1   0   
$EndComp
$Comp
L R R6
U 1 1 5275834E
P 8450 3550
F 0 "R6" V 8530 3550 40  0000 C CNN
F 1 "680K" V 8457 3551 40  0000 C CNN
F 2 "SM0805" V 8380 3550 30  0001 C CNN
F 3 "" H 8450 3550 30  0000 C CNN
	1    8450 3550
	1    0    0    -1  
$EndComp
$Comp
L R R7
U 1 1 5275835D
P 8450 4750
F 0 "R7" V 8530 4750 40  0000 C CNN
F 1 "220K" V 8457 4751 40  0000 C CNN
F 2 "SM0805" V 8380 4750 30  0001 C CNN
F 3 "" H 8450 4750 30  0000 C CNN
	1    8450 4750
	1    0    0    -1  
$EndComp
$Comp
L R R8
U 1 1 5275836C
P 8850 3200
F 0 "R8" V 8930 3200 40  0000 C CNN
F 1 "22K" V 8857 3201 40  0000 C CNN
F 2 "SM0805" V 8780 3200 30  0001 C CNN
F 3 "" H 8850 3200 30  0000 C CNN
	1    8850 3200
	1    0    0    -1  
$EndComp
Wire Wire Line
	1550 3650 2100 3650
Wire Wire Line
	2500 3650 4100 3650
Wire Wire Line
	4100 3800 3900 3800
Wire Wire Line
	3900 3800 3900 3650
Connection ~ 3900 3650
Wire Wire Line
	3150 3750 3150 3650
Connection ~ 3150 3650
Wire Wire Line
	3150 4250 3150 4400
Wire Wire Line
	2800 4400 2800 3650
Connection ~ 2800 3650
Wire Wire Line
	3850 4450 3850 4300
Wire Wire Line
	3850 4300 4100 4300
Wire Wire Line
	4100 4100 3500 4100
Wire Wire Line
	3500 4100 3500 4350
Wire Wire Line
	3500 4350 3150 4350
Connection ~ 3150 4350
Wire Wire Line
	1650 5150 10150 5150
Wire Wire Line
	5200 5150 5200 4950
Wire Wire Line
	1850 5350 1850 5150
Connection ~ 1850 5150
Wire Wire Line
	2800 4800 2800 5150
Connection ~ 2800 5150
Wire Wire Line
	3150 4800 3150 5150
Connection ~ 3150 5150
Wire Wire Line
	3850 4950 3850 5150
Connection ~ 3850 5150
Wire Wire Line
	4550 4950 4550 5150
Connection ~ 4550 5150
Wire Wire Line
	4750 4950 4750 5150
Connection ~ 4750 5150
Wire Wire Line
	5000 4950 5000 5150
Connection ~ 5000 5150
Wire Wire Line
	5700 4300 6450 4300
Wire Wire Line
	6450 4300 6450 4600
Wire Wire Line
	6100 5150 6100 5000
Connection ~ 5200 5150
Wire Wire Line
	6450 5150 6450 5000
Connection ~ 6100 5150
Wire Wire Line
	8450 5150 8450 5000
Connection ~ 6450 5150
Wire Wire Line
	5700 4150 6900 4150
Wire Wire Line
	7400 4150 7750 4150
Wire Wire Line
	7400 4450 6700 4450
Wire Wire Line
	6700 4450 6700 4150
Connection ~ 6700 4150
Wire Wire Line
	8450 3800 8450 4500
Wire Wire Line
	7800 4450 8450 4450
Connection ~ 8450 4450
Wire Wire Line
	8150 4150 8450 4150
Connection ~ 8450 4150
Wire Wire Line
	8850 4000 8850 4300
Wire Wire Line
	8850 4300 8450 4300
Connection ~ 8450 4300
Wire Wire Line
	5700 4000 8450 4000
Connection ~ 8450 4000
Wire Wire Line
	8850 2600 8850 2950
Wire Wire Line
	5700 3650 6200 3650
Wire Wire Line
	6200 2600 6200 3800
Connection ~ 6200 2600
Wire Wire Line
	6200 3800 5700 3800
Connection ~ 6200 3650
Wire Wire Line
	5150 2450 5250 2450
Wire Wire Line
	5250 2450 5250 3050
Wire Wire Line
	5250 2600 5500 2600
Connection ~ 5250 2600
Wire Wire Line
	5900 2600 10400 2600
Wire Wire Line
	4650 2450 4600 2450
Wire Wire Line
	4600 2450 4600 3050
Wire Wire Line
	4150 2600 4600 2600
Connection ~ 4600 2600
Wire Wire Line
	4450 2800 4600 2800
Connection ~ 4600 2800
Wire Wire Line
	3950 2800 3800 2800
Wire Wire Line
	3750 3100 3750 2950
Wire Wire Line
	3750 2950 4600 2950
Connection ~ 4600 2950
Wire Wire Line
	3750 3500 3750 3650
Connection ~ 3750 3650
$Comp
L GND #PWR033
U 1 1 52758D56
P 3200 3050
F 0 "#PWR033" H 3200 3050 30  0001 C CNN
F 1 "GND" H 3200 2980 30  0001 C CNN
F 2 "" H 3200 3050 60  0000 C CNN
F 3 "" H 3200 3050 60  0000 C CNN
	1    3200 3050
	1    0    0    -1  
$EndComp
Wire Wire Line
	3750 2600 3200 2600
Wire Wire Line
	3200 2600 3200 3050
Wire Wire Line
	3400 2800 3200 2800
Connection ~ 3200 2800
Wire Wire Line
	8450 3300 8450 2600
Connection ~ 8450 2600
Wire Wire Line
	8850 3450 8850 3600
Wire Wire Line
	9250 2600 9250 3600
Connection ~ 8850 2600
Wire Wire Line
	9250 5150 9250 4000
Connection ~ 8450 5150
$Comp
L +5V #PWR034
U 1 1 52759175
P 7450 2200
F 0 "#PWR034" H 7450 2290 20  0001 C CNN
F 1 "+5V" H 7450 2290 30  0000 C CNN
F 2 "" H 7450 2200 60  0000 C CNN
F 3 "" H 7450 2200 60  0000 C CNN
	1    7450 2200
	1    0    0    -1  
$EndComp
Wire Wire Line
	7450 2200 7450 2600
Connection ~ 7450 2600
$Comp
L DIODESCH D2
U 1 1 5275921E
P 3750 3300
F 0 "D2" H 3750 3400 40  0000 C CNN
F 1 "B340A" H 3750 3200 40  0000 C CNN
F 2 "" H 3750 3300 60  0000 C CNN
F 3 "" H 3750 3300 60  0000 C CNN
F 4 "B340A-FDICT-ND" H 3750 3300 60  0001 C CNN "REF DIGIKEY"
F 5 "0.47" H 3750 3300 60  0001 C CNN "PRECIO"
F 6 "http://www.digikey.com/product-detail/en/B340A-13-F/B340A-FDICT-ND/725054" H 3750 3300 60  0001 C CNN "LINK COMPRA"
	1    3750 3300
	0    1    1    0   
$EndComp
$Comp
L DIODESCH D3
U 1 1 5275924F
P 3950 2600
F 0 "D3" H 3950 2700 40  0000 C CNN
F 1 "B340A" H 3950 2500 40  0000 C CNN
F 2 "" H 3950 2600 60  0000 C CNN
F 3 "" H 3950 2600 60  0000 C CNN
F 4 "B340A-FDICT-ND" H 3950 2600 60  0001 C CNN "REF DIGIKEY"
F 5 "0.47" H 3950 2600 60  0001 C CNN "PRECIO"
F 6 "http://www.digikey.com/product-detail/en/B340A-13-F/B340A-FDICT-ND/725054" H 3950 2600 60  0001 C CNN "LINK COMPRA"
	1    3950 2600
	1    0    0    -1  
$EndComp
$Comp
L DIODESCH D4
U 1 1 52759258
P 5700 2600
F 0 "D4" H 5700 2700 40  0000 C CNN
F 1 "B340A" H 5700 2500 40  0000 C CNN
F 2 "" H 5700 2600 60  0000 C CNN
F 3 "" H 5700 2600 60  0000 C CNN
F 4 "B340A-FDICT-ND" H 5700 2600 60  0001 C CNN "REF DIGIKEY"
F 5 "0.47" H 5700 2600 60  0001 C CNN "PRECIO"
F 6 "http://www.digikey.com/product-detail/en/B340A-13-F/B340A-FDICT-ND/725054" H 5700 2600 60  0001 C CNN "LINK COMPRA"
	1    5700 2600
	1    0    0    -1  
$EndComp
$Comp
L CONN_2 P9
U 1 1 52759A6D
P 10500 3900
F 0 "P9" V 10450 3900 40  0000 C CNN
F 1 "CONN_2" V 10550 3900 40  0000 C CNN
F 2 "" H 10500 3900 60  0000 C CNN
F 3 "" H 10500 3900 60  0000 C CNN
	1    10500 3900
	1    0    0    -1  
$EndComp
Wire Wire Line
	10150 2600 10150 3800
Connection ~ 9250 2600
Wire Wire Line
	10150 5150 10150 4000
Connection ~ 9250 5150
$Comp
L CONN_4 P8
U 1 1 52759D62
P 4650 6500
F 0 "P8" V 4600 6500 50  0000 C CNN
F 1 "SELECTOR_MODE" V 4850 6500 50  0000 C CNN
F 2 "" H 4650 6500 60  0000 C CNN
F 3 "" H 4650 6500 60  0000 C CNN
	1    4650 6500
	1    0    0    -1  
$EndComp
$Comp
L +5V #PWR035
U 1 1 52759D71
P 4100 6100
F 0 "#PWR035" H 4100 6190 20  0001 C CNN
F 1 "+5V" H 4100 6190 30  0000 C CNN
F 2 "" H 4100 6100 60  0000 C CNN
F 3 "" H 4100 6100 60  0000 C CNN
	1    4100 6100
	1    0    0    -1  
$EndComp
$Comp
L GND #PWR036
U 1 1 52759F2E
P 4100 6800
F 0 "#PWR036" H 4100 6800 30  0001 C CNN
F 1 "GND" H 4100 6730 30  0001 C CNN
F 2 "" H 4100 6800 60  0000 C CNN
F 3 "" H 4100 6800 60  0000 C CNN
	1    4100 6800
	1    0    0    -1  
$EndComp
Wire Wire Line
	4100 6800 4100 6550
Wire Wire Line
	4100 6550 4300 6550
Wire Wire Line
	4300 6650 4100 6650
Connection ~ 4100 6650
Wire Wire Line
	4300 6350 4100 6350
Wire Wire Line
	4100 6350 4100 6100
Wire Wire Line
	4300 6450 3850 6450
$Comp
L +BATT #PWR037
U 1 1 5275A153
P 1850 3450
F 0 "#PWR037" H 1850 3400 20  0001 C CNN
F 1 "+BATT" H 1850 3550 30  0000 C CNN
F 2 "" H 1850 3450 60  0000 C CNN
F 3 "" H 1850 3450 60  0000 C CNN
	1    1850 3450
	1    0    0    -1  
$EndComp
Wire Wire Line
	1850 3450 1850 3650
Connection ~ 1850 3650
Text Label 3300 3650 0    60   ~ 0
VIN
Text Label 3550 4100 0    60   ~ 0
RUN
Text Label 3900 4300 0    60   ~ 0
RT
Wire Wire Line
	6100 4500 6100 4300
Connection ~ 6100 4300
Text Label 5800 4300 0    60   ~ 0
BURST
Text Label 5800 4150 0    60   ~ 0
VC
Text Label 5800 4000 0    60   ~ 0
FB
Text Label 5250 2900 1    60   ~ 0
SW2
Text Label 4350 2600 0    60   ~ 0
SW1
Text Label 3850 6450 0    60   ~ 0
BURST
Text Notes 5100 6400 0    60   ~ 0
SELECTOR MODE\n1-2 FIXED FREQUENCY\n2-3 BURST MODE\n3-4 AUTOMATIC
Text Notes 3400 1600 0    118  ~ 0
5V, 2A BUCK-BOOST POWER SUPPLY
Text Notes 4250 1850 0    118  ~ 0
1.8 - 6VIN  MAX\n
$Comp
L R R9
U 1 1 5275A768
P 9700 3300
F 0 "R9" V 9780 3300 40  0000 C CNN
F 1 "1k" V 9707 3301 40  0000 C CNN
F 2 "" V 9630 3300 30  0000 C CNN
F 3 "" H 9700 3300 30  0000 C CNN
	1    9700 3300
	1    0    0    -1  
$EndComp
$Comp
L LED D5
U 1 1 5275A777
P 9700 4050
F 0 "D5" H 9700 4150 50  0000 C CNN
F 1 "5V" H 9700 3950 50  0000 C CNN
F 2 "" H 9700 4050 60  0000 C CNN
F 3 "" H 9700 4050 60  0000 C CNN
	1    9700 4050
	0    1    1    0   
$EndComp
Wire Wire Line
	9700 2600 9700 3050
Connection ~ 9700 2600
Wire Wire Line
	9700 3550 9700 3850
Wire Wire Line
	9700 4250 9700 5150
Connection ~ 9700 5150
Text GLabel 10400 2600 2    60   Input ~ 0
VMOTOR
Connection ~ 10150 2600
$Comp
L CONN_2 P13
U 1 1 52769324
P 2850 6450
F 0 "P13" V 2800 6450 40  0000 C CNN
F 1 "BATT_CONN" V 3000 6450 40  0000 C CNN
F 2 "" H 2850 6450 60  0000 C CNN
F 3 "" H 2850 6450 60  0000 C CNN
	1    2850 6450
	1    0    0    -1  
$EndComp
Wire Wire Line
	2350 6150 2350 6350
Wire Wire Line
	2350 6350 2500 6350
$Comp
L +BATT #PWR038
U 1 1 527693A8
P 2350 6150
F 0 "#PWR038" H 2350 6100 20  0001 C CNN
F 1 "+BATT" H 2350 6250 30  0000 C CNN
F 2 "" H 2350 6150 60  0000 C CNN
F 3 "" H 2350 6150 60  0000 C CNN
	1    2350 6150
	1    0    0    -1  
$EndComp
$Comp
L GND #PWR039
U 1 1 527693B7
P 2350 6700
F 0 "#PWR039" H 2350 6700 30  0001 C CNN
F 1 "GND" H 2350 6630 30  0001 C CNN
F 2 "" H 2350 6700 60  0000 C CNN
F 3 "" H 2350 6700 60  0000 C CNN
	1    2350 6700
	1    0    0    -1  
$EndComp
Wire Wire Line
	2350 6700 2350 6550
Wire Wire Line
	2350 6550 2500 6550
$EndSCHEMATC
