PCBNEW-LibModule-V1  jue 04 abr 2013 12:07:20 COT
# encoding utf-8
$INDEX
0068772-F
DPAK
$EndINDEX
$MODULE 0068772-F
Po 0 0 0 15 515CF464 515CF410 ~~
Li 0068772-F
Sc 515CF410
AR
Op 0 0 0
T0 0 0 600 600 0 120 N V 21 N "0068772-F"
T1 0 0 600 600 0 120 N V 21 N "VAL**"
DS -1181 -20 1398 0 59 21
DS 1398 0 1398 1043 59 21
DS 1398 1043 -1280 1043 59 21
DS -1280 1043 -1280 -20 59 21
DS -1280 -20 -1201 -20 59 21
$PAD
Sh "5" C 197 197 0 0 0
Dr 0 0 0
At STD N 00E0FFFF
Ne 0 ""
Po 39 551
$EndPAD
$PAD
Sh "7" C 197 197 0 0 0
Dr 0 0 0
At STD N 00E0FFFF
Ne 0 ""
Po 965 551
$EndPAD
$PAD
Sh "8" C 197 197 0 0 0
Dr 0 0 0
At STD N 00E0FFFF
Ne 0 ""
Po -886 551
$EndPAD
$EndMODULE  0068772-F
$MODULE DPAK
Po 0 0 0 15 515DB345 00000000 ~~
Li DPAK
Sc 00000000
AR DPAK
Op 0 0 0
T0 0 0 600 600 0 120 N V 21 N "DPAK"
T1 0 0 600 600 0 120 N V 21 N "VAL**"
DS -1614 -1614 1614 -1614 59 21
DS 1614 -1614 1614 3425 59 21
DS 1614 3425 -1614 3425 59 21
DS -1614 3425 -1614 -1614 59 21
$PAD
Sh "2" R 2756 2756 0 0 0
Dr 0 0 0
At SMD N 00888000
Ne 0 ""
Po 0 0
$EndPAD
$PAD
Sh "3" R 591 984 0 0 0
Dr 0 0 0
At SMD N 00888000
Ne 0 ""
Po 906 2717
$EndPAD
$PAD
Sh "1" R 591 984 0 0 0
Dr 0 0 0
At SMD N 00888000
Ne 0 ""
Po -906 2717
$EndPAD
$EndMODULE  DPAK
$EndLIBRARY
