PCBNEW-LibModule-V1  mar 19 mar 2013 21:15:37 COT
# encoding utf-8
$INDEX
C
C10mm
$EndINDEX
$MODULE C
Po 0 0 0 15 51426D6A 51426D20 ~~
Li C
Sc 51426D20
AR
Op 0 0 0
T0 1100 -2800 600 600 0 120 N V 21 N "C"
T1 -730 -2840 600 600 0 120 N V 21 N "VAL**"
DS -2980 0 -2980 1040 150 21
DS -2980 1040 -1090 2010 150 21
DS -2980 0 -2980 -1040 150 21
DS -2980 -1040 -1090 -2000 150 21
DS 2960 2010 -1090 2010 150 21
DS 2960 2000 2960 -2000 150 21
DS 2960 -2000 -1090 -2000 150 21
$PAD
Sh "" R 1811 591 0 0 0
Dr 0 0 0
At SMD N 00888000
Ne 0 ""
Po -1811 0
.LocalClearance 6
$EndPAD
$PAD
Sh "" R 1811 591 0 0 0
Dr 0 0 0
At SMD N 00888000
Ne 0 ""
Po 1811 0
.LocalClearance 6
$EndPAD
$EndMODULE  C
$MODULE C10mm
Po 0 0 0 15 51491BC4 00000000 ~~
Li C10mm
Sc 00000000
AR C
Op 0 0 0
T0 1100 -2800 600 600 0 120 N V 21 N "C10mm"
T1 -2210 -2790 600 600 0 120 N V 21 N "VAL**"
DS -2980 0 -2980 1040 150 21
DS -2980 1040 -1090 2010 150 21
DS -2980 0 -2980 -1040 150 21
DS -2980 -1040 -1090 -2000 150 21
DS 2960 2010 -1090 2010 150 21
DS 2960 2000 2960 -2000 150 21
DS 2960 -2000 -1090 -2000 150 21
$PAD
Sh "1" R 1811 591 0 0 0
Dr 0 0 0
At SMD N 00888000
Ne 0 ""
Po -1811 0
.LocalClearance 6
$EndPAD
$PAD
Sh "2" R 1811 591 0 0 0
Dr 0 0 0
At SMD N 00888000
Ne 0 ""
Po 1811 0
.LocalClearance 6
$EndPAD
$EndMODULE  C10mm
$EndLIBRARY
