PCBNEW-LibModule-V1  lun 15 abr 2013 08:55:55 COT
# encoding utf-8
$INDEX
H
$EndINDEX
$MODULE H
Po 0 0 0 15 516C06A6 00000000 ~~
Li H
Sc 00000000
AR 
Op 0 0 0
T0 1320 -1170 600 600 0 120 N V 21 N "H"
T1 -530 -1360 600 600 0 120 N V 21 N "VAL**"
$PAD
Sh "1" C 1772 1772 0 0 0
Dr 1260 0 0
At STD N 00E0FFFF
Ne 0 ""
Po 0 0
$EndPAD
$EndMODULE  H
$EndLIBRARY
