PCBNEW-LibModule-V1  mar 19 mar 2013 02:45:20 COT
# encoding utf-8
$INDEX
IR
$EndINDEX
$MODULE IR
Po 0 0 0 15 5148178A 00000000 ~~
Li IR
Sc 00000000
AR IR
Op 0 0 0
T0 -2000 -1000 600 600 0 120 N V 21 N "IR"
T1 0 -1000 600 600 0 120 N V 21 N "VAL**"
DS -500 -500 -500 500 150 21
DS -500 500 2500 500 150 21
DS 2500 500 2500 -500 150 21
DS 2500 -500 -500 -500 150 21
$PAD
Sh "1" C 394 394 0 0 0
Dr 197 0 0
At STD N 00E0FFFF
Ne 0 ""
Po 0 0
.LocalClearance 20
$EndPAD
$PAD
Sh "2" C 394 394 0 0 0
Dr 197 0 0
At STD N 00E0FFFF
Ne 0 ""
Po 500 0
.LocalClearance 20
$EndPAD
$PAD
Sh "4" C 394 394 0 0 0
Dr 197 0 0
At STD N 00E0FFFF
Ne 0 ""
Po 2000 0
.LocalClearance 20
$EndPAD
$PAD
Sh "3" C 394 394 0 0 0
Dr 197 0 0
At STD N 00E0FFFF
Ne 0 ""
Po 1500 0
.LocalClearance 20
$EndPAD
$EndMODULE  IR
$EndLIBRARY
