PCBNEW-LibModule-V1  mar 19 mar 2013 21:22:39 COT
# encoding utf-8
$INDEX
L
$EndINDEX
$MODULE L
Po 0 0 0 15 51491D6B 00000000 ~~
Li L
Sc 00000000
AR L
Op 0 0 0
T0 -1040 2960 600 600 0 120 N V 21 N "L"
T1 780 2960 600 600 0 120 N V 21 N "VAL**"
DS -1410 1590 1410 1590 150 21
DS 1410 1590 1410 -1590 150 21
DS 1410 -1590 -1410 -1590 150 21
DS -1410 -1590 -1410 1590 150 21
$PAD
Sh "1" R 642 2807 0 0 0
Dr 0 0 0
At SMD N 00888000
Ne 0 ""
Po -900 0
.LocalClearance 6
$EndPAD
$PAD
Sh "2" R 642 2807 0 0 0
Dr 0 0 0
At SMD N 00888000
Ne 0 ""
Po 900 0
.LocalClearance 6
$EndPAD
$EndMODULE  L
$EndLIBRARY
