PCBNEW-LibModule-V1  mar 19 mar 2013 21:40:49 COT
# encoding utf-8
$INDEX
smd220
$EndINDEX
$MODULE smd220
Po 0 0 0 15 514921AC 00000000 ~~
Li smd220
Sc 00000000
AR smd220
Op 0 0 0
T0 -2290 -3150 600 600 0 120 N V 21 N "smd220"
T1 1560 -3110 600 600 0 120 N V 21 N "VAL**"
DS -2440 5430 -2390 5430 59 21
DS -2440 4460 -2440 5430 59 21
DS -2440 2180 -2440 4460 59 21
DS -2440 290 -2440 2180 59 21
DS -2440 -2210 -2440 280 59 21
DS -2440 -2210 2470 -2210 59 21
DS 2470 -2210 2470 5430 59 21
DS 2470 5430 -2380 5430 59 21
$PAD
Sh "2" R 4331 3799 0 0 0
Dr 0 0 0
At SMD N 00888000
Ne 0 ""
Po 0 0
$EndPAD
$PAD
Sh "1" R 913 1500 0 0 0
Dr 0 0 0
At SMD N 00888000
Ne 0 ""
Po -1039 4398
$EndPAD
$PAD
Sh "3" R 913 1500 0 0 0
Dr 0 0 0
At SMD N 00888000
Ne 0 ""
Po 1039 4398
$EndPAD
$EndMODULE  smd220
$EndLIBRARY
