PCBNEW-LibModule-V1  mar 19 mar 2013 03:09:49 COT
# encoding utf-8
$INDEX
TSSOP14
$EndINDEX
$MODULE TSSOP14
Po 0 0 0 15 51481D47 00000000 ~~
Li TSSOP14
Sc 00000000
AR TSSOP16
Op 0 0 0
T0 -3110 -740 600 600 0 120 N V 21 N "TSSOP14"
T1 2540 -770 600 600 0 120 N V 21 N "VAL**"
DS -870 130 -650 -90 59 21
DS 870 -100 860 1680 59 21
DS -870 -100 -880 1680 59 21
DS -880 1680 870 1680 59 21
DS -870 -100 870 -100 59 21
$PAD
Sh "1" R 496 142 0 0 0
Dr 0 0 0
At SMD N 00888000
Ne 0 ""
Po -1142 0
.LocalClearance 6
$EndPAD
$PAD
Sh "2" R 496 142 0 0 0
Dr 0 0 0
At SMD N 00888000
Ne 0 ""
Po -1142 256
.LocalClearance 6
$EndPAD
$PAD
Sh "3" R 496 142 0 0 0
Dr 0 0 0
At SMD N 00888000
Ne 0 ""
Po -1142 512
.LocalClearance 6
$EndPAD
$PAD
Sh "4" R 496 142 0 0 0
Dr 0 0 0
At SMD N 00888000
Ne 0 ""
Po -1142 768
.LocalClearance 6
$EndPAD
$PAD
Sh "5" R 496 142 0 0 0
Dr 0 0 0
At SMD N 00888000
Ne 0 ""
Po -1142 1024
.LocalClearance 6
$EndPAD
$PAD
Sh "6" R 496 142 0 0 0
Dr 0 0 0
At SMD N 00888000
Ne 0 ""
Po -1142 1280
.LocalClearance 6
$EndPAD
$PAD
Sh "7" R 496 142 0 0 0
Dr 0 0 0
At SMD N 00888000
Ne 0 ""
Po -1142 1535
.LocalClearance 6
$EndPAD
$PAD
Sh "8" R 496 142 0 0 0
Dr 0 0 0
At SMD N 00888000
Ne 0 ""
Po 1142 1535
.LocalClearance 6
$EndPAD
$PAD
Sh "9" R 496 142 0 0 0
Dr 0 0 0
At SMD N 00888000
Ne 0 ""
Po 1142 1280
.LocalClearance 6
$EndPAD
$PAD
Sh "10" R 496 142 0 0 0
Dr 0 0 0
At SMD N 00888000
Ne 0 ""
Po 1142 1024
.LocalClearance 6
$EndPAD
$PAD
Sh "11" R 496 142 0 0 0
Dr 0 0 0
At SMD N 00888000
Ne 0 ""
Po 1142 768
.LocalClearance 6
$EndPAD
$PAD
Sh "12" R 496 142 0 0 0
Dr 0 0 0
At SMD N 00888000
Ne 0 ""
Po 1142 512
.LocalClearance 6
$EndPAD
$PAD
Sh "13" R 496 142 0 0 0
Dr 0 0 0
At SMD N 00888000
Ne 0 ""
Po 1142 256
.LocalClearance 6
$EndPAD
$PAD
Sh "14" R 496 142 0 0 0
Dr 0 0 0
At SMD N 00888000
Ne 0 ""
Po 1142 0
.LocalClearance 6
$EndPAD
$EndMODULE  TSSOP14
$EndLIBRARY
