EESchema Schematic File Version 2  date Fri 19 Apr 2013 17:10:57 COT
LIBS:power
LIBS:device
LIBS:transistors
LIBS:conn
LIBS:linear
LIBS:regul
LIBS:74xx
LIBS:cmos4000
LIBS:adc-dac
LIBS:memory
LIBS:xilinx
LIBS:special
LIBS:microcontrollers
LIBS:dsp
LIBS:microchip
LIBS:analog_switches
LIBS:motorola
LIBS:texas
LIBS:intel
LIBS:audio
LIBS:interface
LIBS:digital-audio
LIBS:philips
LIBS:display
LIBS:cypress
LIBS:siliconi
LIBS:opto
LIBS:atmel
LIBS:contrib
LIBS:valves
LIBS:ipc-7351-transistor
LIBS:LM3485
LIBS:transistor-arrays
LIBS:mc74hc595a
LIBS:PCB-cache
LIBS:irf9333
LIBS:mcp73831
LIBS:usb_a
LIBS:usba-plug
LIBS:usbconn
LIBS:usb-mini
LIBS:con-jack
LIBS:csd16323q3
LIBS:MCP73837
LIBS:baw101
LIBS:ovsrrgbcc3
LIBS:mcp6l04
LIBS:irf5803
LIBS:mcp6l02
LIBS:xc6216
LIBS:bat_con
LIBS:mbrb2515lt4g
LIBS:lf50cdt
LIBS:lm3478
LIBS:PCB-cache
EELAYER 25  0
EELAYER END
$Descr A3 16535 11700
encoding utf-8
Sheet 4 4
Title ""
Date "19 apr 2013"
Rev ""
Comp ""
Comment1 ""
Comment2 ""
Comment3 ""
Comment4 ""
$EndDescr
Wire Wire Line
	8800 2950 8800 3150
Wire Wire Line
	9000 7500 9000 7700
Wire Wire Line
	2900 7500 2900 7700
Wire Wire Line
	5900 2800 5900 3000
Wire Wire Line
	12100 2250 12100 1600
Wire Wire Line
	12100 1600 11150 1600
Wire Wire Line
	11300 2250 11300 1800
Wire Wire Line
	11300 1800 11150 1800
Wire Wire Line
	11700 3000 11700 3950
Connection ~ 12250 4050
Wire Wire Line
	12100 4050 12650 4050
Wire Wire Line
	12100 4050 12100 3550
Connection ~ 11300 5050
Wire Wire Line
	11400 4350 10850 4350
Wire Wire Line
	10850 4350 10850 4450
Wire Wire Line
	11050 4000 11050 4150
Wire Wire Line
	11300 2950 11300 2750
Wire Wire Line
	10750 3500 10750 3350
Wire Wire Line
	10750 3350 11000 3350
Wire Wire Line
	11300 3550 11300 4000
Wire Wire Line
	11300 4000 10750 4000
Connection ~ 11050 4000
Wire Wire Line
	11700 4550 11700 5050
Wire Wire Line
	11700 5050 10850 5050
Wire Wire Line
	10850 5050 10850 4950
Wire Wire Line
	12250 4150 12250 4050
Wire Wire Line
	12650 4050 12650 4000
Wire Wire Line
	12650 3500 12650 3350
Wire Wire Line
	12650 3350 12400 3350
Wire Wire Line
	11300 5200 11300 5050
Wire Wire Line
	11150 1700 11700 1700
Wire Wire Line
	11700 1700 11700 2500
Wire Wire Line
	10000 1650 10000 1700
Wire Wire Line
	10000 1700 10100 1700
Wire Wire Line
	11700 7000 11700 6300
Wire Wire Line
	11700 6300 10700 6300
Wire Wire Line
	10900 7000 10900 6500
Wire Wire Line
	10900 6500 10700 6500
Wire Wire Line
	11300 7750 11300 8700
Connection ~ 11850 8800
Wire Wire Line
	11700 8800 12250 8800
Wire Wire Line
	11700 8800 11700 8300
Connection ~ 10900 9800
Wire Wire Line
	11000 9100 10450 9100
Wire Wire Line
	10450 9100 10450 9200
Wire Wire Line
	10650 8750 10650 8900
Wire Wire Line
	10900 7700 10900 7500
Wire Wire Line
	10350 8250 10350 8100
Wire Wire Line
	10350 8100 10600 8100
Wire Wire Line
	10900 8300 10900 8750
Wire Wire Line
	10900 8750 10350 8750
Connection ~ 10650 8750
Wire Wire Line
	11300 9300 11300 9800
Wire Wire Line
	11300 9800 10450 9800
Wire Wire Line
	10450 9800 10450 9700
Wire Wire Line
	11850 8900 11850 8800
Wire Wire Line
	12250 8800 12250 8750
Wire Wire Line
	12250 8250 12250 8100
Wire Wire Line
	12250 8100 12000 8100
Wire Wire Line
	10900 9950 10900 9800
Wire Wire Line
	10700 6400 11300 6400
Wire Wire Line
	11300 6400 11300 7250
Wire Wire Line
	9550 6250 9550 6400
Wire Wire Line
	9550 6400 9650 6400
Wire Wire Line
	14800 6350 14200 6350
Wire Wire Line
	13350 7400 13750 7400
Wire Wire Line
	13750 7600 13450 7600
Wire Wire Line
	13750 8550 13450 8550
Wire Wire Line
	13750 9650 13450 9650
Wire Wire Line
	15200 9850 15500 9850
Wire Wire Line
	15200 9650 15500 9650
Wire Wire Line
	15200 9450 15500 9450
Wire Wire Line
	15200 9250 15500 9250
Wire Wire Line
	15200 8850 15500 8850
Wire Wire Line
	15200 8650 15500 8650
Wire Wire Line
	15200 8450 15500 8450
Wire Wire Line
	15200 8250 15500 8250
Wire Wire Line
	15200 7800 15500 7800
Wire Wire Line
	15200 7600 15500 7600
Wire Wire Line
	15200 7400 15500 7400
Wire Wire Line
	15200 7200 15500 7200
Wire Wire Line
	3850 1700 3800 1700
Wire Wire Line
	3800 1700 3800 1550
Wire Wire Line
	900  6450 800  6450
Wire Wire Line
	800  6450 800  6400
Wire Wire Line
	6950 6400 6850 6400
Wire Wire Line
	6850 6400 6850 6250
Wire Wire Line
	8600 7250 8600 6400
Wire Wire Line
	8600 6400 8000 6400
Wire Wire Line
	5950 7050 5950 6350
Wire Wire Line
	5950 6350 5000 6350
Wire Wire Line
	5150 7050 5150 6550
Wire Wire Line
	5150 6550 5000 6550
Wire Wire Line
	2500 7250 2500 6450
Wire Wire Line
	2500 6450 1950 6450
Wire Wire Line
	8800 2450 8800 1600
Wire Wire Line
	8800 1600 7800 1600
Wire Wire Line
	8000 2450 8000 1800
Wire Wire Line
	8000 1800 7800 1800
Wire Wire Line
	5500 2550 5500 1700
Wire Wire Line
	5500 1700 4900 1700
Wire Wire Line
	1950 1850 2050 1850
Wire Wire Line
	2050 1850 2050 2350
Wire Wire Line
	2850 2350 2850 1650
Wire Wire Line
	2850 1650 1950 1650
Wire Wire Line
	14300 6100 14800 6100
Wire Wire Line
	13750 9450 13200 9450
Wire Wire Line
	13200 9450 13200 8950
Wire Wire Line
	13750 8450 13200 8450
Wire Wire Line
	13200 8450 13200 7900
Wire Wire Line
	13200 7900 13750 7900
Wire Wire Line
	8200 9950 8200 9800
Wire Wire Line
	9300 8100 9550 8100
Wire Wire Line
	9550 8100 9550 8250
Wire Wire Line
	9550 8750 9550 8800
Wire Wire Line
	9150 8900 9150 8800
Wire Wire Line
	7750 9700 7750 9800
Wire Wire Line
	7750 9800 8600 9800
Wire Wire Line
	8600 9800 8600 9300
Connection ~ 7950 8750
Wire Wire Line
	7650 8750 8200 8750
Wire Wire Line
	8200 8750 8200 8300
Wire Wire Line
	7900 8100 7650 8100
Wire Wire Line
	7650 8100 7650 8250
Wire Wire Line
	8200 7700 8200 7500
Wire Wire Line
	7950 8750 7950 8900
Wire Wire Line
	7750 9200 7750 9100
Wire Wire Line
	7750 9100 8300 9100
Connection ~ 8200 9800
Wire Wire Line
	9000 8300 9000 8800
Wire Wire Line
	9000 8800 9550 8800
Connection ~ 9150 8800
Wire Wire Line
	8600 7750 8600 8700
Wire Wire Line
	5550 7800 5550 8750
Connection ~ 6100 8850
Wire Wire Line
	5950 8850 6500 8850
Wire Wire Line
	5950 8850 5950 8350
Connection ~ 5150 9850
Wire Wire Line
	5250 9150 4700 9150
Wire Wire Line
	4700 9150 4700 9250
Wire Wire Line
	4900 8950 4900 8800
Wire Wire Line
	5150 7750 5150 7550
Wire Wire Line
	4600 8300 4600 8150
Wire Wire Line
	4600 8150 4850 8150
Wire Wire Line
	5150 8350 5150 8800
Wire Wire Line
	5150 8800 4600 8800
Connection ~ 4900 8800
Wire Wire Line
	5550 9350 5550 9850
Wire Wire Line
	5550 9850 4700 9850
Wire Wire Line
	4700 9850 4700 9750
Wire Wire Line
	6100 8850 6100 8950
Wire Wire Line
	6500 8850 6500 8800
Wire Wire Line
	6500 8300 6500 8150
Wire Wire Line
	6500 8150 6250 8150
Wire Wire Line
	5150 9850 5150 10000
Wire Wire Line
	8400 3150 8400 4100
Wire Wire Line
	5500 3050 5500 4000
Wire Wire Line
	13750 7800 13650 7800
Wire Wire Line
	13750 7300 13450 7300
Wire Wire Line
	13750 7200 13600 7200
Wire Wire Line
	13600 7200 13600 7100
Wire Wire Line
	13750 7700 13450 7700
Wire Wire Line
	2100 9950 2100 9800
Wire Wire Line
	13750 9750 13450 9750
Wire Wire Line
	13600 9150 13600 9250
Wire Wire Line
	13600 9250 13750 9250
Wire Wire Line
	13750 9350 13450 9350
Wire Wire Line
	13750 9850 13650 9850
Wire Wire Line
	13750 8850 13650 8850
Wire Wire Line
	13750 8350 13450 8350
Connection ~ 4550 3400
Wire Wire Line
	4800 3400 4400 3400
Connection ~ 4650 4400
Wire Wire Line
	5200 4400 4450 4400
Connection ~ 3400 3450
Wire Wire Line
	3150 3450 3550 3450
Wire Wire Line
	3200 8100 3450 8100
Wire Wire Line
	3450 8100 3450 8250
Wire Wire Line
	3450 8750 3450 8800
Wire Wire Line
	3050 8900 3050 8800
Wire Wire Line
	1650 9700 1650 9800
Wire Wire Line
	1650 9800 2500 9800
Wire Wire Line
	2500 9800 2500 9300
Connection ~ 1850 8750
Wire Wire Line
	1550 8750 2100 8750
Wire Wire Line
	2100 8750 2100 8300
Wire Wire Line
	1800 8100 1550 8100
Wire Wire Line
	1550 8100 1550 8250
Wire Wire Line
	2100 7700 2100 7500
Wire Wire Line
	1850 8750 1850 8900
Wire Wire Line
	1650 9200 1650 9100
Wire Wire Line
	1650 9100 2200 9100
Connection ~ 2100 9800
Wire Wire Line
	2900 8300 2900 8800
Wire Wire Line
	2900 8800 3450 8800
Connection ~ 3050 8800
Connection ~ 3000 4150
Wire Wire Line
	2850 4150 3400 4150
Wire Wire Line
	2850 4150 2850 3650
Connection ~ 2050 5200
Wire Wire Line
	2050 5350 2050 5200
Wire Wire Line
	1600 4600 1600 4500
Wire Wire Line
	1800 4250 1800 4100
Wire Wire Line
	2050 3050 2050 2850
Wire Wire Line
	1500 3600 1500 3450
Wire Wire Line
	2050 3650 2050 4100
Wire Wire Line
	2050 4100 1500 4100
Connection ~ 1800 4100
Wire Wire Line
	2450 4700 2450 5200
Wire Wire Line
	2450 5200 1600 5200
Wire Wire Line
	1600 5200 1600 5100
Wire Wire Line
	3000 4150 3000 4250
Wire Wire Line
	3400 4150 3400 4100
Wire Wire Line
	3400 3450 3400 3600
Wire Wire Line
	6450 3550 6450 3400
Wire Wire Line
	6450 4050 6450 4100
Wire Wire Line
	6050 4200 6050 4100
Wire Wire Line
	4650 5000 4650 5100
Wire Wire Line
	4650 5100 5500 5100
Wire Wire Line
	5500 5100 5500 4600
Connection ~ 4850 4050
Wire Wire Line
	4550 4050 5100 4050
Wire Wire Line
	5100 4050 5100 3600
Wire Wire Line
	4550 3400 4550 3550
Wire Wire Line
	5100 3000 5100 2800
Wire Wire Line
	4850 4050 4850 4200
Wire Wire Line
	4650 4400 4650 4500
Wire Wire Line
	5100 5250 5100 5100
Connection ~ 5100 5100
Wire Wire Line
	5900 3600 5900 4100
Wire Wire Line
	5900 4100 6450 4100
Connection ~ 6050 4100
Connection ~ 8950 4250
Wire Wire Line
	8800 4250 9350 4250
Wire Wire Line
	8800 4250 8800 3750
Connection ~ 8000 5200
Wire Wire Line
	8000 5350 8000 5200
Wire Wire Line
	8100 4500 7550 4500
Wire Wire Line
	7550 4500 7550 4600
Wire Wire Line
	7750 4350 7750 4200
Wire Wire Line
	8000 3150 8000 2950
Wire Wire Line
	7450 3700 7450 3550
Wire Wire Line
	7450 3550 7700 3550
Wire Wire Line
	8000 3750 8000 4200
Wire Wire Line
	8000 4200 7450 4200
Connection ~ 7750 4200
Wire Wire Line
	8400 4700 8400 5200
Wire Wire Line
	8400 5200 7550 5200
Wire Wire Line
	7550 5200 7550 5100
Wire Wire Line
	8950 4250 8950 4350
Wire Wire Line
	9350 4250 9350 4200
Wire Wire Line
	9350 3700 9350 3550
Wire Wire Line
	9350 3550 9100 3550
Wire Wire Line
	1750 3450 1400 3450
Connection ~ 1500 3450
Wire Wire Line
	2150 4500 1400 4500
Connection ~ 1600 4500
Wire Wire Line
	6200 3400 6600 3400
Connection ~ 6450 3400
Wire Wire Line
	13750 8250 13600 8250
Wire Wire Line
	13600 8250 13600 8150
Wire Wire Line
	13750 8750 13450 8750
Wire Wire Line
	2450 4100 2450 3150
Wire Wire Line
	2500 7750 2500 8700
Wire Wire Line
	13200 8950 13750 8950
Wire Wire Line
	2450 2650 2450 1750
Wire Wire Line
	2450 1750 1950 1750
Wire Wire Line
	4900 1800 5100 1800
Wire Wire Line
	5100 1800 5100 2300
Wire Wire Line
	4900 1600 5900 1600
Wire Wire Line
	5900 1600 5900 2300
Wire Wire Line
	7800 1700 8400 1700
Wire Wire Line
	8400 1700 8400 2650
Wire Wire Line
	1950 6550 2100 6550
Wire Wire Line
	2100 6550 2100 7000
Wire Wire Line
	1950 6350 2900 6350
Wire Wire Line
	2900 6350 2900 7000
Wire Wire Line
	5000 6450 5550 6450
Wire Wire Line
	5550 6450 5550 7300
Wire Wire Line
	8000 6500 8200 6500
Wire Wire Line
	8200 6500 8200 7000
Wire Wire Line
	8000 6300 9000 6300
Wire Wire Line
	9000 6300 9000 7000
Wire Wire Line
	3900 6350 3900 6450
Wire Wire Line
	3900 6450 3950 6450
Wire Wire Line
	850  1550 850  1750
Wire Wire Line
	850  1750 900  1750
Wire Wire Line
	6650 1550 6650 1700
Wire Wire Line
	6650 1700 6750 1700
Wire Wire Line
	15200 7300 15500 7300
Wire Wire Line
	15200 7500 15500 7500
Wire Wire Line
	15200 7700 15500 7700
Wire Wire Line
	15200 7900 15500 7900
Wire Wire Line
	15200 8350 15500 8350
Wire Wire Line
	15200 8550 15500 8550
Wire Wire Line
	15200 8750 15500 8750
Wire Wire Line
	15200 8950 15500 8950
Wire Wire Line
	15200 9350 15500 9350
Wire Wire Line
	15200 9550 15500 9550
Wire Wire Line
	15200 9750 15500 9750
Wire Wire Line
	15200 9950 15500 9950
Wire Wire Line
	13450 9550 13750 9550
Wire Wire Line
	13750 8650 13450 8650
Wire Wire Line
	13750 7500 13450 7500
Wire Wire Line
	14800 5850 14200 5850
Wire Wire Line
	2850 2850 2850 3050
Wire Wire Line
	12100 2750 12100 2950
Wire Wire Line
	5950 7550 5950 7750
Wire Wire Line
	11700 7500 11700 7700
NoConn ~ 13750 9950
Text Label 15500 9950 0    60   ~ 0
L8B
Text Label 15500 9850 0    60   ~ 0
L8G
Text Label 15500 9750 0    60   ~ 0
L8R
Text Label 15500 9650 0    60   ~ 0
L7B
Text Label 15500 9550 0    60   ~ 0
L7G
Text Label 15500 9450 0    60   ~ 0
L7R
$Comp
L R R82
U 1 1 512D5298
P 10850 4700
F 0 "R82" V 10930 4700 50  0000 C CNN
F 1 "100k" V 10850 4700 50  0000 C CNN
	1    10850 4700
	1    0    0    -1  
$EndComp
$Comp
L GND #PWR045
U 1 1 512D5297
P 11300 5200
F 0 "#PWR045" H 11300 5200 30  0001 C CNN
F 1 "GND" H 11300 5130 30  0001 C CNN
	1    11300 5200
	1    0    0    -1  
$EndComp
$Comp
L GND #PWR046
U 1 1 512D5296
P 12250 4150
F 0 "#PWR046" H 12250 4150 30  0001 C CNN
F 1 "GND" H 12250 4080 30  0001 C CNN
	1    12250 4150
	1    0    0    -1  
$EndComp
$Comp
L GND #PWR047
U 1 1 512D5295
P 11050 4150
F 0 "#PWR047" H 11050 4150 30  0001 C CNN
F 1 "GND" H 11050 4080 30  0001 C CNN
	1    11050 4150
	1    0    0    -1  
$EndComp
$Comp
L R R86
U 1 1 512D5294
P 11700 2750
F 0 "R86" V 11780 2750 50  0000 C CNN
F 1 "68" V 11700 2750 50  0000 C CNN
	1    11700 2750
	1    0    0    -1  
$EndComp
$Comp
L R R88
U 1 1 512D5293
P 12100 2500
F 0 "R88" V 12180 2500 50  0000 C CNN
F 1 "68" V 12100 2500 50  0000 C CNN
	1    12100 2500
	1    0    0    -1  
$EndComp
$Comp
L R R84
U 1 1 512D5292
P 11300 2500
F 0 "R84" V 11380 2500 50  0000 C CNN
F 1 "68" V 11300 2500 50  0000 C CNN
	1    11300 2500
	1    0    0    -1  
$EndComp
$Comp
L R R90
U 1 1 512D5291
P 12650 3750
F 0 "R90" V 12730 3750 50  0000 C CNN
F 1 "100k" V 12650 3750 50  0000 C CNN
	1    12650 3750
	1    0    0    -1  
$EndComp
$Comp
L R R81
U 1 1 512D5290
P 10750 3750
F 0 "R81" V 10830 3750 50  0000 C CNN
F 1 "100k" V 10750 3750 50  0000 C CNN
	1    10750 3750
	1    0    0    -1  
$EndComp
$Comp
L MOSFET-NCH_SOT-23 Q?
U 1 1 512D528F
P 11500 4250
AR Path="/5112ABB8/5112B364" Ref="Q?"  Part="1" 
AR Path="/5112ABB8/5112B782" Ref="Q?"  Part="1" 
AR Path="/5112ABB8/512D528F" Ref="Q28"  Part="1" 
F 0 "Q28" H 11150 4350 50  0000 L BNN
F 1 "IRLML2803PbF" H 11150 4250 50  0000 L BNN
F 2 "ipc-7351-transistor-SOT95P280X135-3N" H 11500 4400 50  0001 C CNN
	1    11500 4250
	1    0    0    -1  
$EndComp
$Comp
L MOSFET-NCH_SOT-23 Q?
U 1 1 512D528E
P 12300 3250
AR Path="/5112ABB8/5112B323" Ref="Q?"  Part="1" 
AR Path="/5112ABB8/5112B783" Ref="Q?"  Part="1" 
AR Path="/5112ABB8/512D528E" Ref="Q30"  Part="1" 
F 0 "Q30" H 11950 3350 50  0000 L BNN
F 1 "IRLML2803PbF" H 11950 3250 50  0000 L BNN
F 2 "ipc-7351-transistor-SOT95P280X135-3N" H 12300 3400 50  0001 C CNN
	1    12300 3250
	-1   0    0    -1  
$EndComp
$Comp
L MOSFET-NCH_SOT-23 Q?
U 1 1 512D528D
P 11100 3250
AR Path="/5112ABB8/5112B302" Ref="Q?"  Part="1" 
AR Path="/5112ABB8/5112B784" Ref="Q?"  Part="1" 
AR Path="/5112ABB8/512D528D" Ref="Q26"  Part="1" 
F 0 "Q26" H 10750 3350 50  0000 L BNN
F 1 "IRLML2803PbF" H 10750 3250 50  0000 L BNN
F 2 "ipc-7351-transistor-SOT95P280X135-3N" H 11100 3400 50  0001 C CNN
	1    11100 3250
	1    0    0    -1  
$EndComp
Text Label 10750 3350 0    60   ~ 0
L4R
Text Label 10850 4350 0    60   ~ 0
L4G
Text Label 12650 3350 0    60   ~ 0
L4B
$Comp
L OVSRRGBCC3 LRGB8
U 1 1 512D528C
P 10600 1950
F 0 "LRGB8" H 10600 1950 60  0000 C CNN
F 1 "OVSRRGBCC3" H 10600 2000 60  0000 C CNN
	1    10600 1950
	1    0    0    1   
$EndComp
$Comp
L +5V #PWR048
U 1 1 512D528B
P 10000 1650
F 0 "#PWR048" H 10000 1740 20  0001 C CNN
F 1 "+5V" H 10000 1740 30  0000 C CNN
	1    10000 1650
	1    0    0    -1  
$EndComp
$Comp
L R R80
U 1 1 512D5286
P 10450 9450
F 0 "R80" V 10530 9450 50  0000 C CNN
F 1 "100k" V 10450 9450 50  0000 C CNN
	1    10450 9450
	1    0    0    -1  
$EndComp
$Comp
L GND #PWR049
U 1 1 512D5285
P 10900 9950
F 0 "#PWR049" H 10900 9950 30  0001 C CNN
F 1 "GND" H 10900 9880 30  0001 C CNN
	1    10900 9950
	1    0    0    -1  
$EndComp
$Comp
L GND #PWR050
U 1 1 512D5284
P 11850 8900
F 0 "#PWR050" H 11850 8900 30  0001 C CNN
F 1 "GND" H 11850 8830 30  0001 C CNN
	1    11850 8900
	1    0    0    -1  
$EndComp
$Comp
L GND #PWR051
U 1 1 512D5283
P 10650 8900
F 0 "#PWR051" H 10650 8900 30  0001 C CNN
F 1 "GND" H 10650 8830 30  0001 C CNN
	1    10650 8900
	1    0    0    -1  
$EndComp
$Comp
L R R85
U 1 1 512D5282
P 11300 7500
F 0 "R85" V 11380 7500 50  0000 C CNN
F 1 "68" V 11300 7500 50  0000 C CNN
	1    11300 7500
	1    0    0    -1  
$EndComp
$Comp
L R R87
U 1 1 512D5281
P 11700 7250
F 0 "R87" V 11780 7250 50  0000 C CNN
F 1 "68" V 11700 7250 50  0000 C CNN
	1    11700 7250
	1    0    0    -1  
$EndComp
$Comp
L R R83
U 1 1 512D5280
P 10900 7250
F 0 "R83" V 10980 7250 50  0000 C CNN
F 1 "68" V 10900 7250 50  0000 C CNN
	1    10900 7250
	1    0    0    -1  
$EndComp
$Comp
L R R89
U 1 1 512D527F
P 12250 8500
F 0 "R89" V 12330 8500 50  0000 C CNN
F 1 "100k" V 12250 8500 50  0000 C CNN
	1    12250 8500
	1    0    0    -1  
$EndComp
$Comp
L R R79
U 1 1 512D527E
P 10350 8500
F 0 "R79" V 10430 8500 50  0000 C CNN
F 1 "100k" V 10350 8500 50  0000 C CNN
	1    10350 8500
	1    0    0    -1  
$EndComp
$Comp
L MOSFET-NCH_SOT-23 Q?
U 1 1 512D527D
P 11100 9000
AR Path="/5112ABB8/5112B364" Ref="Q?"  Part="1" 
AR Path="/5112ABB8/5112B782" Ref="Q?"  Part="1" 
AR Path="/5112ABB8/511B0D37" Ref="Q?"  Part="1" 
AR Path="/5112ABB8/512D527D" Ref="Q27"  Part="1" 
F 0 "Q27" H 10750 9100 50  0000 L BNN
F 1 "IRLML2803PbF" H 10750 9000 50  0000 L BNN
F 2 "ipc-7351-transistor-SOT95P280X135-3N" H 11100 9150 50  0001 C CNN
	1    11100 9000
	1    0    0    -1  
$EndComp
$Comp
L MOSFET-NCH_SOT-23 Q?
U 1 1 512D527C
P 11900 8000
AR Path="/5112ABB8/5112B323" Ref="Q?"  Part="1" 
AR Path="/5112ABB8/5112B783" Ref="Q?"  Part="1" 
AR Path="/5112ABB8/511B0D38" Ref="Q?"  Part="1" 
AR Path="/5112ABB8/512D527C" Ref="Q29"  Part="1" 
F 0 "Q29" H 11550 8100 50  0000 L BNN
F 1 "IRLML2803PbF" H 11550 8000 50  0000 L BNN
F 2 "ipc-7351-transistor-SOT95P280X135-3N" H 11900 8150 50  0001 C CNN
	1    11900 8000
	-1   0    0    -1  
$EndComp
$Comp
L MOSFET-NCH_SOT-23 Q?
U 1 1 512D527B
P 10700 8000
AR Path="/5112ABB8/5112B302" Ref="Q?"  Part="1" 
AR Path="/5112ABB8/5112B784" Ref="Q?"  Part="1" 
AR Path="/5112ABB8/511B0D39" Ref="Q?"  Part="1" 
AR Path="/5112ABB8/512D527B" Ref="Q25"  Part="1" 
F 0 "Q25" H 10350 8100 50  0000 L BNN
F 1 "IRLML2803PbF" H 10350 8000 50  0000 L BNN
F 2 "ipc-7351-transistor-SOT95P280X135-3N" H 10700 8150 50  0001 C CNN
	1    10700 8000
	1    0    0    -1  
$EndComp
Text Label 10350 8100 0    60   ~ 0
L8R
Text Label 10450 9100 0    60   ~ 0
L8G
Text Label 12250 8100 0    60   ~ 0
L8B
$Comp
L OVSRRGBCC3 LRGB7
U 1 1 512D527A
P 10150 6650
F 0 "LRGB7" H 10150 6650 60  0000 C CNN
F 1 "OVSRRGBCC3" H 10150 6700 60  0000 C CNN
	1    10150 6650
	1    0    0    1   
$EndComp
$Comp
L +5V #PWR052
U 1 1 512D5279
P 9550 6250
F 0 "#PWR052" H 9550 6340 20  0001 C CNN
F 1 "+5V" H 9550 6340 30  0000 C CNN
	1    9550 6250
	1    0    0    -1  
$EndComp
$Comp
L +5V #PWR053
U 1 1 51225B20
P 6850 6250
F 0 "#PWR053" H 6850 6340 20  0001 C CNN
F 1 "+5V" H 6850 6340 30  0000 C CNN
	1    6850 6250
	1    0    0    -1  
$EndComp
$Comp
L +5V #PWR054
U 1 1 51225B1B
P 3900 6350
F 0 "#PWR054" H 3900 6440 20  0001 C CNN
F 1 "+5V" H 3900 6440 30  0000 C CNN
	1    3900 6350
	1    0    0    -1  
$EndComp
$Comp
L +5V #PWR055
U 1 1 51225B16
P 800 6400
F 0 "#PWR055" H 800 6490 20  0001 C CNN
F 1 "+5V" H 800 6490 30  0000 C CNN
	1    800  6400
	1    0    0    -1  
$EndComp
$Comp
L +5V #PWR056
U 1 1 51225B0D
P 6650 1550
F 0 "#PWR056" H 6650 1640 20  0001 C CNN
F 1 "+5V" H 6650 1640 30  0000 C CNN
	1    6650 1550
	1    0    0    -1  
$EndComp
$Comp
L +5V #PWR057
U 1 1 51225B07
P 3800 1550
F 0 "#PWR057" H 3800 1640 20  0001 C CNN
F 1 "+5V" H 3800 1640 30  0000 C CNN
	1    3800 1550
	1    0    0    -1  
$EndComp
$Comp
L +5V #PWR058
U 1 1 51225B01
P 850 1550
F 0 "#PWR058" H 850 1640 20  0001 C CNN
F 1 "+5V" H 850 1640 30  0000 C CNN
	1    850  1550
	1    0    0    -1  
$EndComp
$Comp
L OVSRRGBCC3 LRGB1
U 1 1 512259ED
P 1400 2000
F 0 "LRGB1" H 1400 2000 60  0000 C CNN
F 1 "OVSRRGBCC3" H 1400 2050 60  0000 C CNN
	1    1400 2000
	1    0    0    1   
$EndComp
$Comp
L OVSRRGBCC3 LRGB3
U 1 1 512259EC
P 4350 1950
F 0 "LRGB3" H 4350 1950 60  0000 C CNN
F 1 "OVSRRGBCC3" H 4350 2000 60  0000 C CNN
	1    4350 1950
	1    0    0    1   
$EndComp
$Comp
L OVSRRGBCC3 LRGB5
U 1 1 512259EB
P 7250 1950
F 0 "LRGB5" H 7250 1950 60  0000 C CNN
F 1 "OVSRRGBCC3" H 7250 2000 60  0000 C CNN
	1    7250 1950
	1    0    0    1   
$EndComp
$Comp
L OVSRRGBCC3 LRGB6
U 1 1 512259C2
P 7450 6650
F 0 "LRGB6" H 7450 6650 60  0000 C CNN
F 1 "OVSRRGBCC3" H 7450 6700 60  0000 C CNN
	1    7450 6650
	1    0    0    1   
$EndComp
$Comp
L OVSRRGBCC3 LRGB4
U 1 1 5122597F
P 4450 6700
F 0 "LRGB4" H 4450 6700 60  0000 C CNN
F 1 "OVSRRGBCC3" H 4450 6750 60  0000 C CNN
	1    4450 6700
	1    0    0    1   
$EndComp
$Comp
L OVSRRGBCC3 LRGB2
U 1 1 51225976
P 1400 6700
F 0 "LRGB2" H 1400 6700 60  0000 C CNN
F 1 "OVSRRGBCC3" H 1400 6750 60  0000 C CNN
	1    1400 6700
	1    0    0    1   
$EndComp
Text Label 14800 6350 0    60   ~ 0
SHIFT_LED
Text Label 14800 6100 0    60   ~ 0
LATCH_LEDS
Text Label 14800 5850 0    60   ~ 0
SERIAL_IN
Text GLabel 14200 5850 0    60   Input ~ 0
SERIAL_IN
Text Label 13350 7400 2    60   ~ 0
SERIAL_IN
Text Label 15500 9350 0    60   ~ 0
L6B
Text Label 15500 9250 0    60   ~ 0
L6G
Text Label 15500 8950 0    60   ~ 0
L6R
Text Label 15500 8850 0    60   ~ 0
L5B
Text Label 15500 8750 0    60   ~ 0
L5G
Text Label 15500 8650 0    60   ~ 0
L5R
Text Label 15500 8550 0    60   ~ 0
L4B
Text Label 15500 8450 0    60   ~ 0
L4G
Text Label 15500 8350 0    60   ~ 0
L4R
Text Label 15500 8250 0    60   ~ 0
L3B
Text Label 15500 7900 0    60   ~ 0
L3G
Text Label 15500 7800 0    60   ~ 0
L3R
Text Label 15500 7700 0    60   ~ 0
L2B
Text Label 15500 7600 0    60   ~ 0
L2G
Text Label 15500 7500 0    60   ~ 0
L2R
Text Label 15500 7400 0    60   ~ 0
L1B
Text Label 15500 7300 0    60   ~ 0
L1G
Text Label 15500 7200 0    60   ~ 0
L1R
Text Label 13450 8650 2    60   ~ 0
LATCH_LEDS
$Comp
L +5V #PWR059
U 1 1 511D6AE9
P 13450 9750
F 0 "#PWR059" H 13450 9840 20  0001 C CNN
F 1 "+5V" H 13450 9840 30  0000 C CNN
	1    13450 9750
	0    -1   -1   0   
$EndComp
$Comp
L +5V #PWR060
U 1 1 511D6AE5
P 13600 9150
F 0 "#PWR060" H 13600 9240 20  0001 C CNN
F 1 "+5V" H 13600 9240 30  0000 C CNN
	1    13600 9150
	1    0    0    -1  
$EndComp
$Comp
L +5V #PWR061
U 1 1 511D6AC5
P 13450 8750
F 0 "#PWR061" H 13450 8840 20  0001 C CNN
F 1 "+5V" H 13450 8840 30  0000 C CNN
	1    13450 8750
	0    -1   -1   0   
$EndComp
$Comp
L +5V #PWR062
U 1 1 511D6ABC
P 13600 8150
F 0 "#PWR062" H 13600 8240 20  0001 C CNN
F 1 "+5V" H 13600 8240 30  0000 C CNN
	1    13600 8150
	1    0    0    -1  
$EndComp
$Comp
L +5V #PWR063
U 1 1 511D6AB5
P 13450 7700
F 0 "#PWR063" H 13450 7790 20  0001 C CNN
F 1 "+5V" H 13450 7790 30  0000 C CNN
	1    13450 7700
	0    -1   -1   0   
$EndComp
$Comp
L +5V #PWR064
U 1 1 511D6A9E
P 13600 7100
F 0 "#PWR064" H 13600 7190 20  0001 C CNN
F 1 "+5V" H 13600 7190 30  0000 C CNN
	1    13600 7100
	1    0    0    -1  
$EndComp
Text Label 9550 8100 0    60   ~ 0
L6B
Text Label 7750 9100 0    60   ~ 0
L6G
Text Label 7650 8100 0    60   ~ 0
L6R
Text Label 6500 8150 0    60   ~ 0
L5B
Text Label 4700 9150 0    60   ~ 0
L5G
Text Label 4600 8150 0    60   ~ 0
L5R
Text Label 3450 8100 0    60   ~ 0
L7B
Text Label 1650 9100 0    60   ~ 0
L7G
Text Label 1550 8100 0    60   ~ 0
L7R
Text Label 9350 3550 0    60   ~ 0
L3B
Text Label 7550 4500 0    60   ~ 0
L3G
Text Label 7450 3550 0    60   ~ 0
L3R
Text Label 6600 3400 0    60   ~ 0
L2B
Text Label 4450 4400 0    60   ~ 0
L2G
Text Label 4400 3400 0    60   ~ 0
L2R
Text Label 3550 3450 0    60   ~ 0
L1B
Text Label 1400 4500 0    60   ~ 0
L1G
Text Label 1400 3450 0    60   ~ 0
L1R
Text Label 13450 9550 2    60   ~ 0
SHIFT_LED
Text Label 13450 8550 2    60   ~ 0
SHIFT_LED
Text Label 13450 7500 2    60   ~ 0
SHIFT_LED
Text Label 13450 7600 2    60   ~ 0
LATCH_LEDS
Text Label 13450 9650 2    60   ~ 0
LATCH_LEDS
$Comp
L MOSFET-NCH_SOT-23 Q?
U 1 1 511B0D39
P 8000 8000
AR Path="/5112ABB8/5112B302" Ref="Q?"  Part="1" 
AR Path="/5112ABB8/5112B784" Ref="Q?"  Part="1" 
AR Path="/5112ABB8/511B0D39" Ref="Q20"  Part="1" 
F 0 "Q20" H 7650 8100 50  0000 L BNN
F 1 "IRLML2803PbF" H 7650 8000 50  0000 L BNN
F 2 "ipc-7351-transistor-SOT95P280X135-3N" H 8000 8150 50  0001 C CNN
	1    8000 8000
	1    0    0    -1  
$EndComp
$Comp
L MOSFET-NCH_SOT-23 Q?
U 1 1 511B0D38
P 9200 8000
AR Path="/5112ABB8/5112B323" Ref="Q?"  Part="1" 
AR Path="/5112ABB8/5112B783" Ref="Q?"  Part="1" 
AR Path="/5112ABB8/511B0D38" Ref="Q24"  Part="1" 
F 0 "Q24" H 8850 8100 50  0000 L BNN
F 1 "IRLML2803PbF" H 8850 8000 50  0000 L BNN
F 2 "ipc-7351-transistor-SOT95P280X135-3N" H 9200 8150 50  0001 C CNN
	1    9200 8000
	-1   0    0    -1  
$EndComp
$Comp
L MOSFET-NCH_SOT-23 Q?
U 1 1 511B0D37
P 8400 9000
AR Path="/5112ABB8/5112B364" Ref="Q?"  Part="1" 
AR Path="/5112ABB8/5112B782" Ref="Q?"  Part="1" 
AR Path="/5112ABB8/511B0D37" Ref="Q22"  Part="1" 
F 0 "Q22" H 8050 9100 50  0000 L BNN
F 1 "IRLML2803PbF" H 8050 9000 50  0000 L BNN
F 2 "ipc-7351-transistor-SOT95P280X135-3N" H 8400 9150 50  0001 C CNN
	1    8400 9000
	1    0    0    -1  
$EndComp
$Comp
L R R69
U 1 1 511B0D36
P 7650 8500
F 0 "R69" V 7730 8500 50  0000 C CNN
F 1 "100k" V 7650 8500 50  0000 C CNN
	1    7650 8500
	1    0    0    -1  
$EndComp
$Comp
L R R78
U 1 1 511B0D35
P 9550 8500
F 0 "R78" V 9630 8500 50  0000 C CNN
F 1 "100k" V 9550 8500 50  0000 C CNN
	1    9550 8500
	1    0    0    -1  
$EndComp
$Comp
L R R72
U 1 1 511B0D34
P 8200 7250
F 0 "R72" V 8280 7250 50  0000 C CNN
F 1 "68" V 8200 7250 50  0000 C CNN
	1    8200 7250
	1    0    0    -1  
$EndComp
$Comp
L R R76
U 1 1 511B0D33
P 9000 7250
F 0 "R76" V 9080 7250 50  0000 C CNN
F 1 "68" V 9000 7250 50  0000 C CNN
	1    9000 7250
	1    0    0    -1  
$EndComp
$Comp
L R R74
U 1 1 511B0D32
P 8600 7500
F 0 "R74" V 8680 7500 50  0000 C CNN
F 1 "68" V 8600 7500 50  0000 C CNN
	1    8600 7500
	1    0    0    -1  
$EndComp
$Comp
L GND #PWR065
U 1 1 511B0D31
P 7950 8900
F 0 "#PWR065" H 7950 8900 30  0001 C CNN
F 1 "GND" H 7950 8830 30  0001 C CNN
	1    7950 8900
	1    0    0    -1  
$EndComp
$Comp
L GND #PWR066
U 1 1 511B0D30
P 9150 8900
F 0 "#PWR066" H 9150 8900 30  0001 C CNN
F 1 "GND" H 9150 8830 30  0001 C CNN
	1    9150 8900
	1    0    0    -1  
$EndComp
$Comp
L GND #PWR067
U 1 1 511B0D2F
P 8200 9950
F 0 "#PWR067" H 8200 9950 30  0001 C CNN
F 1 "GND" H 8200 9880 30  0001 C CNN
	1    8200 9950
	1    0    0    -1  
$EndComp
$Comp
L R R70
U 1 1 511B0D2E
P 7750 9450
F 0 "R70" V 7830 9450 50  0000 C CNN
F 1 "100k" V 7750 9450 50  0000 C CNN
	1    7750 9450
	1    0    0    -1  
$EndComp
$Comp
L R R58
U 1 1 511B0D28
P 4700 9500
F 0 "R58" V 4780 9500 50  0000 C CNN
F 1 "100k" V 4700 9500 50  0000 C CNN
	1    4700 9500
	1    0    0    -1  
$EndComp
$Comp
L GND #PWR068
U 1 1 511B0D27
P 5150 10000
F 0 "#PWR068" H 5150 10000 30  0001 C CNN
F 1 "GND" H 5150 9930 30  0001 C CNN
	1    5150 10000
	1    0    0    -1  
$EndComp
$Comp
L GND #PWR069
U 1 1 511B0D26
P 6100 8950
F 0 "#PWR069" H 6100 8950 30  0001 C CNN
F 1 "GND" H 6100 8880 30  0001 C CNN
	1    6100 8950
	1    0    0    -1  
$EndComp
$Comp
L GND #PWR070
U 1 1 511B0D25
P 4900 8950
F 0 "#PWR070" H 4900 8950 30  0001 C CNN
F 1 "GND" H 4900 8880 30  0001 C CNN
	1    4900 8950
	1    0    0    -1  
$EndComp
$Comp
L R R62
U 1 1 511B0D24
P 5550 7550
F 0 "R62" V 5630 7550 50  0000 C CNN
F 1 "68" V 5550 7550 50  0000 C CNN
	1    5550 7550
	1    0    0    -1  
$EndComp
$Comp
L R R64
U 1 1 511B0D23
P 5950 7300
F 0 "R64" V 6030 7300 50  0000 C CNN
F 1 "68" V 5950 7300 50  0000 C CNN
	1    5950 7300
	1    0    0    -1  
$EndComp
$Comp
L R R60
U 1 1 511B0D22
P 5150 7300
F 0 "R60" V 5230 7300 50  0000 C CNN
F 1 "68" V 5150 7300 50  0000 C CNN
	1    5150 7300
	1    0    0    -1  
$EndComp
$Comp
L R R66
U 1 1 511B0D21
P 6500 8550
F 0 "R66" V 6580 8550 50  0000 C CNN
F 1 "100k" V 6500 8550 50  0000 C CNN
	1    6500 8550
	1    0    0    -1  
$EndComp
$Comp
L R R56
U 1 1 511B0D20
P 4600 8550
F 0 "R56" V 4680 8550 50  0000 C CNN
F 1 "100k" V 4600 8550 50  0000 C CNN
	1    4600 8550
	1    0    0    -1  
$EndComp
$Comp
L MOSFET-NCH_SOT-23 Q?
U 1 1 511B0D1F
P 5350 9050
AR Path="/5112ABB8/5112B364" Ref="Q?"  Part="1" 
AR Path="/5112ABB8/5112B782" Ref="Q?"  Part="1" 
AR Path="/5112ABB8/511B0D1F" Ref="Q16"  Part="1" 
F 0 "Q16" H 5000 9150 50  0000 L BNN
F 1 "IRLML2803PbF" H 5000 9050 50  0000 L BNN
F 2 "ipc-7351-transistor-SOT95P280X135-3N" H 5350 9200 50  0001 C CNN
	1    5350 9050
	1    0    0    -1  
$EndComp
$Comp
L MOSFET-NCH_SOT-23 Q?
U 1 1 511B0D1E
P 6150 8050
AR Path="/5112ABB8/5112B323" Ref="Q?"  Part="1" 
AR Path="/5112ABB8/5112B783" Ref="Q?"  Part="1" 
AR Path="/5112ABB8/511B0D1E" Ref="Q18"  Part="1" 
F 0 "Q18" H 5800 8150 50  0000 L BNN
F 1 "IRLML2803PbF" H 5800 8050 50  0000 L BNN
F 2 "ipc-7351-transistor-SOT95P280X135-3N" H 6150 8200 50  0001 C CNN
	1    6150 8050
	-1   0    0    -1  
$EndComp
$Comp
L MOSFET-NCH_SOT-23 Q?
U 1 1 511B0D1D
P 4950 8050
AR Path="/5112ABB8/5112B302" Ref="Q?"  Part="1" 
AR Path="/5112ABB8/5112B784" Ref="Q?"  Part="1" 
AR Path="/5112ABB8/511B0D1D" Ref="Q14"  Part="1" 
F 0 "Q14" H 4600 8150 50  0000 L BNN
F 1 "IRLML2803PbF" H 4600 8050 50  0000 L BNN
F 2 "ipc-7351-transistor-SOT95P280X135-3N" H 4950 8200 50  0001 C CNN
	1    4950 8050
	1    0    0    -1  
$EndComp
$Comp
L GND #PWR071
U 1 1 511B0B66
P 13650 7800
F 0 "#PWR071" H 13650 7800 30  0001 C CNN
F 1 "GND" H 13650 7730 30  0001 C CNN
	1    13650 7800
	0    1    1    0   
$EndComp
Text GLabel 14300 6100 0    60   Input ~ 0
LATCH_LEDS
Text GLabel 14200 6350 0    60   Input ~ 0
SHIFT_LED
$Comp
L GND #PWR072
U 1 1 511B0B63
P 13450 7300
F 0 "#PWR072" H 13450 7300 30  0001 C CNN
F 1 "GND" H 13450 7230 30  0001 C CNN
	1    13450 7300
	0    1    1    0   
$EndComp
$Comp
L MC74HC595A U15
U 1 1 511B0B62
P 14500 7550
F 0 "U15" H 14500 8050 60  0000 C CNN
F 1 "MC74HC595A" H 14500 7100 60  0000 C CNN
	1    14500 7550
	1    0    0    -1  
$EndComp
$Comp
L MC74HC595A U17
U 1 1 5113E131
P 14500 9600
F 0 "U17" H 14500 10100 60  0000 C CNN
F 1 "MC74HC595A" H 14500 9150 60  0000 C CNN
	1    14500 9600
	1    0    0    -1  
$EndComp
$Comp
L GND #PWR073
U 1 1 5113E130
P 13450 9350
F 0 "#PWR073" H 13450 9350 30  0001 C CNN
F 1 "GND" H 13450 9280 30  0001 C CNN
	1    13450 9350
	0    1    1    0   
$EndComp
$Comp
L GND #PWR074
U 1 1 5113E12D
P 13650 9850
F 0 "#PWR074" H 13650 9850 30  0001 C CNN
F 1 "GND" H 13650 9780 30  0001 C CNN
	1    13650 9850
	0    1    1    0   
$EndComp
$Comp
L GND #PWR075
U 1 1 5113E059
P 13650 8850
F 0 "#PWR075" H 13650 8850 30  0001 C CNN
F 1 "GND" H 13650 8780 30  0001 C CNN
	1    13650 8850
	0    1    1    0   
$EndComp
$Comp
L GND #PWR076
U 1 1 5113DFBD
P 13450 8350
F 0 "#PWR076" H 13450 8350 30  0001 C CNN
F 1 "GND" H 13450 8280 30  0001 C CNN
	1    13450 8350
	0    1    1    0   
$EndComp
$Comp
L MC74HC595A U16
U 1 1 5113D6E6
P 14500 8600
F 0 "U16" H 14500 9100 60  0000 C CNN
F 1 "MC74HC595A" H 14500 8150 60  0000 C CNN
	1    14500 8600
	1    0    0    -1  
$EndComp
$Comp
L MOSFET-NCH_SOT-23 Q?
U 1 1 5112B784
P 1900 8000
AR Path="/5112ABB8/5112B302" Ref="Q?"  Part="1" 
AR Path="/5112ABB8/5112B784" Ref="Q8"  Part="1" 
F 0 "Q8" H 1550 8100 50  0000 L BNN
F 1 "IRLML2803PbF" H 1550 8000 50  0000 L BNN
F 2 "ipc-7351-transistor-SOT95P280X135-3N" H 1900 8150 50  0001 C CNN
	1    1900 8000
	1    0    0    -1  
$EndComp
$Comp
L MOSFET-NCH_SOT-23 Q?
U 1 1 5112B783
P 3100 8000
AR Path="/5112ABB8/5112B323" Ref="Q?"  Part="1" 
AR Path="/5112ABB8/5112B783" Ref="Q12"  Part="1" 
F 0 "Q12" H 2750 8100 50  0000 L BNN
F 1 "IRLML2803PbF" H 2750 8000 50  0000 L BNN
F 2 "ipc-7351-transistor-SOT95P280X135-3N" H 3100 8150 50  0001 C CNN
	1    3100 8000
	-1   0    0    -1  
$EndComp
$Comp
L MOSFET-NCH_SOT-23 Q?
U 1 1 5112B782
P 2300 9000
AR Path="/5112ABB8/5112B364" Ref="Q?"  Part="1" 
AR Path="/5112ABB8/5112B782" Ref="Q10"  Part="1" 
F 0 "Q10" H 1950 9100 50  0000 L BNN
F 1 "IRLML2803PbF" H 1950 9000 50  0000 L BNN
F 2 "ipc-7351-transistor-SOT95P280X135-3N" H 2300 9150 50  0001 C CNN
	1    2300 9000
	1    0    0    -1  
$EndComp
$Comp
L R R44
U 1 1 5112B781
P 1550 8500
F 0 "R44" V 1630 8500 50  0000 C CNN
F 1 "100k" V 1550 8500 50  0000 C CNN
	1    1550 8500
	1    0    0    -1  
$EndComp
$Comp
L R R54
U 1 1 5112B780
P 3450 8500
F 0 "R54" V 3530 8500 50  0000 C CNN
F 1 "100k" V 3450 8500 50  0000 C CNN
	1    3450 8500
	1    0    0    -1  
$EndComp
$Comp
L R R48
U 1 1 5112B77F
P 2100 7250
F 0 "R48" V 2180 7250 50  0000 C CNN
F 1 "68" V 2100 7250 50  0000 C CNN
	1    2100 7250
	1    0    0    -1  
$EndComp
$Comp
L R R52
U 1 1 5112B77E
P 2900 7250
F 0 "R52" V 2980 7250 50  0000 C CNN
F 1 "68" V 2900 7250 50  0000 C CNN
	1    2900 7250
	1    0    0    -1  
$EndComp
$Comp
L R R50
U 1 1 5112B77D
P 2500 7500
F 0 "R50" V 2580 7500 50  0000 C CNN
F 1 "68" V 2500 7500 50  0000 C CNN
	1    2500 7500
	1    0    0    -1  
$EndComp
$Comp
L GND #PWR077
U 1 1 5112B77C
P 1850 8900
F 0 "#PWR077" H 1850 8900 30  0001 C CNN
F 1 "GND" H 1850 8830 30  0001 C CNN
	1    1850 8900
	1    0    0    -1  
$EndComp
$Comp
L GND #PWR078
U 1 1 5112B77B
P 3050 8900
F 0 "#PWR078" H 3050 8900 30  0001 C CNN
F 1 "GND" H 3050 8830 30  0001 C CNN
	1    3050 8900
	1    0    0    -1  
$EndComp
$Comp
L GND #PWR079
U 1 1 5112B77A
P 2100 9950
F 0 "#PWR079" H 2100 9950 30  0001 C CNN
F 1 "GND" H 2100 9880 30  0001 C CNN
	1    2100 9950
	1    0    0    -1  
$EndComp
$Comp
L R R46
U 1 1 5112B779
P 1650 9450
F 0 "R46" V 1730 9450 50  0000 C CNN
F 1 "100k" V 1650 9450 50  0000 C CNN
	1    1650 9450
	1    0    0    -1  
$EndComp
$Comp
L R R68
U 1 1 5112B5C5
P 7550 4850
F 0 "R68" V 7630 4850 50  0000 C CNN
F 1 "100k" V 7550 4850 50  0000 C CNN
	1    7550 4850
	1    0    0    -1  
$EndComp
$Comp
L GND #PWR080
U 1 1 5112B5C4
P 8000 5350
F 0 "#PWR080" H 8000 5350 30  0001 C CNN
F 1 "GND" H 8000 5280 30  0001 C CNN
	1    8000 5350
	1    0    0    -1  
$EndComp
$Comp
L GND #PWR081
U 1 1 5112B5C3
P 8950 4350
F 0 "#PWR081" H 8950 4350 30  0001 C CNN
F 1 "GND" H 8950 4280 30  0001 C CNN
	1    8950 4350
	1    0    0    -1  
$EndComp
$Comp
L GND #PWR082
U 1 1 5112B5C2
P 7750 4350
F 0 "#PWR082" H 7750 4350 30  0001 C CNN
F 1 "GND" H 7750 4280 30  0001 C CNN
	1    7750 4350
	1    0    0    -1  
$EndComp
$Comp
L R R73
U 1 1 5112B5C1
P 8400 2900
F 0 "R73" V 8480 2900 50  0000 C CNN
F 1 "68" V 8400 2900 50  0000 C CNN
	1    8400 2900
	1    0    0    -1  
$EndComp
$Comp
L R R75
U 1 1 5112B5C0
P 8800 2700
F 0 "R75" V 8880 2700 50  0000 C CNN
F 1 "68" V 8800 2700 50  0000 C CNN
	1    8800 2700
	1    0    0    -1  
$EndComp
$Comp
L R R71
U 1 1 5112B5BF
P 8000 2700
F 0 "R71" V 8080 2700 50  0000 C CNN
F 1 "68" V 8000 2700 50  0000 C CNN
	1    8000 2700
	1    0    0    -1  
$EndComp
$Comp
L R R77
U 1 1 5112B5BE
P 9350 3950
F 0 "R77" V 9430 3950 50  0000 C CNN
F 1 "100k" V 9350 3950 50  0000 C CNN
	1    9350 3950
	1    0    0    -1  
$EndComp
$Comp
L R R67
U 1 1 5112B5BD
P 7450 3950
F 0 "R67" V 7530 3950 50  0000 C CNN
F 1 "100k" V 7450 3950 50  0000 C CNN
	1    7450 3950
	1    0    0    -1  
$EndComp
$Comp
L MOSFET-NCH_SOT-23 Q?
U 1 1 5112B5BC
P 8200 4400
AR Path="/5112ABB8/5112B364" Ref="Q?"  Part="1" 
AR Path="/5112ABB8/5112B5BC" Ref="Q21"  Part="1" 
F 0 "Q21" H 7850 4500 50  0000 L BNN
F 1 "IRLML2803PbF" H 7850 4400 50  0000 L BNN
F 2 "ipc-7351-transistor-SOT95P280X135-3N" H 8200 4550 50  0001 C CNN
	1    8200 4400
	1    0    0    -1  
$EndComp
$Comp
L MOSFET-NCH_SOT-23 Q?
U 1 1 5112B5BB
P 9000 3450
AR Path="/5112ABB8/5112B323" Ref="Q?"  Part="1" 
AR Path="/5112ABB8/5112B5BB" Ref="Q23"  Part="1" 
F 0 "Q23" H 8650 3550 50  0000 L BNN
F 1 "IRLML2803PbF" H 8650 3450 50  0000 L BNN
F 2 "ipc-7351-transistor-SOT95P280X135-3N" H 9000 3600 50  0001 C CNN
	1    9000 3450
	-1   0    0    -1  
$EndComp
$Comp
L MOSFET-NCH_SOT-23 Q?
U 1 1 5112B5BA
P 7800 3450
AR Path="/5112ABB8/5112B302" Ref="Q?"  Part="1" 
AR Path="/5112ABB8/5112B5BA" Ref="Q19"  Part="1" 
F 0 "Q19" H 7450 3550 50  0000 L BNN
F 1 "IRLML2803PbF" H 7450 3450 50  0000 L BNN
F 2 "ipc-7351-transistor-SOT95P280X135-3N" H 7800 3600 50  0001 C CNN
	1    7800 3450
	1    0    0    -1  
$EndComp
$Comp
L MOSFET-NCH_SOT-23 Q?
U 1 1 5112B5AD
P 4900 3300
AR Path="/5112ABB8/5112B302" Ref="Q?"  Part="1" 
AR Path="/5112ABB8/5112B5AD" Ref="Q13"  Part="1" 
F 0 "Q13" H 4550 3400 50  0000 L BNN
F 1 "IRLML2803PbF" H 4550 3300 50  0000 L BNN
F 2 "ipc-7351-transistor-SOT95P280X135-3N" H 4900 3450 50  0001 C CNN
	1    4900 3300
	1    0    0    -1  
$EndComp
$Comp
L MOSFET-NCH_SOT-23 Q?
U 1 1 5112B5AC
P 6100 3300
AR Path="/5112ABB8/5112B323" Ref="Q?"  Part="1" 
AR Path="/5112ABB8/5112B5AC" Ref="Q17"  Part="1" 
F 0 "Q17" H 5750 3400 50  0000 L BNN
F 1 "IRLML2803PbF" H 5750 3300 50  0000 L BNN
F 2 "ipc-7351-transistor-SOT95P280X135-3N" H 6100 3450 50  0001 C CNN
	1    6100 3300
	-1   0    0    -1  
$EndComp
$Comp
L MOSFET-NCH_SOT-23 Q?
U 1 1 5112B5AB
P 5300 4300
AR Path="/5112ABB8/5112B364" Ref="Q?"  Part="1" 
AR Path="/5112ABB8/5112B5AB" Ref="Q15"  Part="1" 
F 0 "Q15" H 4950 4400 50  0000 L BNN
F 1 "IRLML2803PbF" H 4950 4300 50  0000 L BNN
F 2 "ipc-7351-transistor-SOT95P280X135-3N" H 5300 4450 50  0001 C CNN
	1    5300 4300
	1    0    0    -1  
$EndComp
$Comp
L R R55
U 1 1 5112B5AA
P 4550 3800
F 0 "R55" V 4630 3800 50  0000 C CNN
F 1 "100k" V 4550 3800 50  0000 C CNN
	1    4550 3800
	1    0    0    -1  
$EndComp
$Comp
L R R65
U 1 1 5112B5A9
P 6450 3800
F 0 "R65" V 6530 3800 50  0000 C CNN
F 1 "100k" V 6450 3800 50  0000 C CNN
	1    6450 3800
	1    0    0    -1  
$EndComp
$Comp
L R R59
U 1 1 5112B5A8
P 5100 2550
F 0 "R59" V 5180 2550 50  0000 C CNN
F 1 "68" V 5100 2550 50  0000 C CNN
	1    5100 2550
	1    0    0    -1  
$EndComp
$Comp
L R R63
U 1 1 5112B5A7
P 5900 2550
F 0 "R63" V 5980 2550 50  0000 C CNN
F 1 "68" V 5900 2550 50  0000 C CNN
	1    5900 2550
	1    0    0    -1  
$EndComp
$Comp
L R R61
U 1 1 5112B5A6
P 5500 2800
F 0 "R61" V 5580 2800 50  0000 C CNN
F 1 "68" V 5500 2800 50  0000 C CNN
	1    5500 2800
	1    0    0    -1  
$EndComp
$Comp
L GND #PWR083
U 1 1 5112B5A5
P 4850 4200
F 0 "#PWR083" H 4850 4200 30  0001 C CNN
F 1 "GND" H 4850 4130 30  0001 C CNN
	1    4850 4200
	1    0    0    -1  
$EndComp
$Comp
L GND #PWR084
U 1 1 5112B5A4
P 6050 4200
F 0 "#PWR084" H 6050 4200 30  0001 C CNN
F 1 "GND" H 6050 4130 30  0001 C CNN
	1    6050 4200
	1    0    0    -1  
$EndComp
$Comp
L GND #PWR085
U 1 1 5112B5A3
P 5100 5250
F 0 "#PWR085" H 5100 5250 30  0001 C CNN
F 1 "GND" H 5100 5180 30  0001 C CNN
	1    5100 5250
	1    0    0    -1  
$EndComp
$Comp
L R R57
U 1 1 5112B5A2
P 4650 4750
F 0 "R57" V 4730 4750 50  0000 C CNN
F 1 "100k" V 4650 4750 50  0000 C CNN
	1    4650 4750
	1    0    0    -1  
$EndComp
$Comp
L R R45
U 1 1 5112B4A9
P 1600 4850
F 0 "R45" V 1680 4850 50  0000 C CNN
F 1 "100k" V 1600 4850 50  0000 C CNN
	1    1600 4850
	1    0    0    -1  
$EndComp
$Comp
L GND #PWR086
U 1 1 5112B469
P 2050 5350
F 0 "#PWR086" H 2050 5350 30  0001 C CNN
F 1 "GND" H 2050 5280 30  0001 C CNN
	1    2050 5350
	1    0    0    -1  
$EndComp
$Comp
L GND #PWR087
U 1 1 5112B461
P 3000 4250
F 0 "#PWR087" H 3000 4250 30  0001 C CNN
F 1 "GND" H 3000 4180 30  0001 C CNN
	1    3000 4250
	1    0    0    -1  
$EndComp
$Comp
L GND #PWR088
U 1 1 5112B455
P 1800 4250
F 0 "#PWR088" H 1800 4250 30  0001 C CNN
F 1 "GND" H 1800 4180 30  0001 C CNN
	1    1800 4250
	1    0    0    -1  
$EndComp
$Comp
L R R49
U 1 1 5112B3FE
P 2450 2900
F 0 "R49" V 2530 2900 50  0000 C CNN
F 1 "68" V 2450 2900 50  0000 C CNN
	1    2450 2900
	1    0    0    -1  
$EndComp
$Comp
L R R51
U 1 1 5112B3ED
P 2850 2600
F 0 "R51" V 2930 2600 50  0000 C CNN
F 1 "68" V 2850 2600 50  0000 C CNN
	1    2850 2600
	1    0    0    -1  
$EndComp
$Comp
L R R47
U 1 1 5112B3E7
P 2050 2600
F 0 "R47" V 2130 2600 50  0000 C CNN
F 1 "68" V 2050 2600 50  0000 C CNN
	1    2050 2600
	1    0    0    -1  
$EndComp
$Comp
L R R53
U 1 1 5112B3DE
P 3400 3850
F 0 "R53" V 3480 3850 50  0000 C CNN
F 1 "100k" V 3400 3850 50  0000 C CNN
	1    3400 3850
	1    0    0    -1  
$EndComp
$Comp
L R R43
U 1 1 5112B3D6
P 1500 3850
F 0 "R43" V 1580 3850 50  0000 C CNN
F 1 "100K" V 1500 3850 50  0000 C CNN
	1    1500 3850
	1    0    0    -1  
$EndComp
$Comp
L MOSFET-NCH_SOT-23 Q9
U 1 1 5112B364
P 2250 4400
F 0 "Q9" H 1900 4500 50  0000 L BNN
F 1 "IRLML2803PbF" H 1900 4400 50  0000 L BNN
F 2 "ipc-7351-transistor-SOT95P280X135-3N" H 2250 4550 50  0001 C CNN
	1    2250 4400
	1    0    0    -1  
$EndComp
$Comp
L MOSFET-NCH_SOT-23 Q11
U 1 1 5112B323
P 3050 3350
F 0 "Q11" H 2700 3450 50  0000 L BNN
F 1 "IRLML2803PbF" H 2700 3350 50  0000 L BNN
F 2 "ipc-7351-transistor-SOT95P280X135-3N" H 3050 3500 50  0001 C CNN
	1    3050 3350
	-1   0    0    -1  
$EndComp
$Comp
L MOSFET-NCH_SOT-23 Q7
U 1 1 5112B302
P 1850 3350
F 0 "Q7" H 2150 3500 50  0000 L BNN
F 1 "IRLML2803PbF" H 1400 3500 50  0000 L BNN
F 2 "ipc-7351-transistor-SOT95P280X135-3N" H 1850 3500 50  0001 C CNN
	1    1850 3350
	1    0    0    -1  
$EndComp
$EndSCHEMATC
