# EESchema Netlist Version 1.1 created  Fri 19 Apr 2013 17:11:04 COT
(
 ( /517197E0 $noname  P10 CONN_6X2 {Lib=CONN_6X2}
  (    1 GND )
  (    2 NI )
  (    3 RX )
  (    4 TX )
  (    5 USB_M2 )
  (    6 USB_P2 )
  (    7 USB_M3 )
  (    8 USB_P3 )
  (    9 USB_M4 )
  (   10 USB_P4 )
  (   11 +5V )
  (   12 GND )
 )
 ( /516C331C $noname  P105 CONN_2 {Lib=CONN_2}
  (    1 M22 )
  (    2 M21 )
 )
 ( /516C331B $noname  P106 CONN_2 {Lib=CONN_2}
  (    1 M12 )
  (    2 M11 )
 )
 ( /516C330C $noname  P104 CONN_2 {Lib=CONN_2}
  (    1 M32 )
  (    2 M31 )
 )
 ( /516C32FA $noname  P103 CONN_2 {Lib=CONN_2}
  (    1 M42 )
  (    2 M41 )
 )
 ( /516C30E1 $noname  P102 CONN_4X2 {Lib=CONN_4X2}
  (    1 DAC1 )
  (    2 FP6 )
  (    3 DAC2 )
  (    4 FP7 )
  (    5 FP29 )
  (    6 FP28 )
  (    7 FP17 )
  (    8 FP33 )
 )
 ( /515E0A89 $noname  P5 CONN_5X2 {Lib=CONN_5X2}
  (    1 M42 )
  (    2 ? )
  (    3 M41 )
  (    4 ? )
  (    5 M32 )
  (    6 ? )
  (    7 M31 )
  (    8 ? )
  (    9 M22 )
  (   10 ? )
 )
 ( /515DE467 $noname  P7 CONN_12X2 {Lib=CONN_12X2}
  (    1 3.3V )
  (    2 ? )
  (    3 TIERRA )
  (    4 ? )
  (    5 FP31 )
  (    6 FP30 )
  (    7 FP16 )
  (    8 FP18 )
  (    9 I2C1_SCL )
  (   10 FP19 )
  (   11 ? )
  (   12 I2C1_SDA )
  (   13 FP35 )
  (   14 ? )
  (   15 FP42 )
  (   16 FP41 )
  (   17 AMP3 )
  (   18 AMP4 )
  (   19 AMP2 )
  (   20 AMP1 )
  (   21 FP1 )
  (   22 FP0 )
  (   23 FP3 )
  (   24 FP2 )
 )
 ( /516C28B0 $noname  P101 CONN_4X2 {Lib=CONN_4X2}
  (    1 FP19 )
  (    2 FP16 )
  (    3 FP30 )
  (    4 FP31 )
  (    5 TIERRA )
  (    6 3.3V )
  (    7 TIERRA )
  (    8 3.3V )
 )
 ( /516C289B $noname  P100 CONN_5X2 {Lib=CONN_5X2}
  (    1 FP1 )
  (    2 FP3 )
  (    3 FP0 )
  (    4 FP2 )
  (    5 FP41 )
  (    6 FP42 )
  (    7 FP35 )
  (    8 I2C1_SCL )
  (    9 I2C1_SDA )
  (   10 FP18 )
 )
 ( /515DE49F $noname  P2 CONN_4X2 {Lib=CONN_4X2}
  (    1 USB_M2 )
  (    2 USB_P2 )
  (    3 USB_M3 )
  (    4 USB_P3 )
  (    5 USB_M4 )
  (    6 USB_P4 )
  (    7 +5V )
  (    8 GND )
 )
 ( /515E0A8E $noname  P4 CONN_5X2 {Lib=CONN_5X2}
  (    1 M21 )
  (    2 ? )
  (    3 M12 )
  (    4 ? )
  (    5 M11 )
  (    6 ? )
  (    7 VMOTOR )
  (    8 VMOTOR )
  (    9 GND )
  (   10 GND )
 )
 ( /515DE48C $noname  P6 CONN_8X2 {Lib=CONN_8X2}
  (    1 DAC1 )
  (    2 DAC2 )
  (    3 FP6 )
  (    4 FP7 )
  (    5 AMP5 )
  (    6 AMP6 )
  (    7 ON_PULSE )
  (    8 LATCH_LEDS )
  (    9 FP28 )
  (   10 FP29 )
  (   11 FP17 )
  (   12 SHIFT_LED )
  (   13 FP33 )
  (   14 SERIAL_IN )
  (   15 ? )
  (   16 ? )
 )
 ( /515DE460 $noname  P3 CONN_12X2 {Lib=CONN_12X2}
  (    1 ? )
  (    2 ? )
  (    3 ? )
  (    4 ? )
  (    5 ? )
  (    6 ? )
  (    7 ? )
  (    8 ? )
  (    9 ? )
  (   10 ? )
  (   11 ? )
  (   12 ? )
  (   13 ? )
  (   14 ? )
  (   15 ? )
  (   16 ? )
  (   17 ? )
  (   18 ? )
  (   19 ? )
  (   20 ? )
  (   21 ? )
  (   22 ? )
  (   23 ? )
  (   24 ? )
 )
 ( /5158B543 $noname  P1 CONN_12X2 {Lib=CONN_12X2}
  (    1 ? )
  (    2 ? )
  (    3 ? )
  (    4 ? )
  (    5 ? )
  (    6 ? )
  (    7 ? )
  (    8 ? )
  (    9 ? )
  (   10 ? )
  (   11 ? )
  (   12 ? )
  (   13 ? )
  (   14 ? )
  (   15 ? )
  (   16 ? )
  (   17 ? )
  (   18 ? )
  (   19 ? )
  (   20 ? )
  (   21 GND )
  (   22 NI )
  (   23 RX )
  (   24 TX )
 )
 ( /5112AC2A/515C4C5F $noname  C11 10uF {Lib=CP1}
  (    1 +5V )
  (    2 GND )
 )
 ( /5112AC2A/515C40AE $noname  D5 DIODE {Lib=DIODE}
  (    1 N-000211 )
  (    2 /POWER/V_IN )
 )
 ( /5112AC2A/515B56C2 $noname  U5 LF50CDT {Lib=LF50CDT}
  (    1 VMOTOR )
  (    2 GND )
  (    3 +5V )
 )
 ( /5112AC2A/51492F30 $noname  D4 SCHDIODE {Lib=SCHDIODE}
  (    1 N-000226 )
  (    2 VMOTOR )
  (    3 N-000226 )
 )
 ( /5112AC2A/51492DE7 $noname  CON1 BAT_CON {Lib=BAT_CON}
  (    1 GND )
  (    2 N-000230 )
 )
 ( /5112AC2A/51423ED8 irf5803  U6 IRF5803 {Lib=IRF5803}
  (    1 /POWER/V_IN )
  (    2 /POWER/V_IN )
  (    3 /POWER/V6 )
  (    4 /POWER/V_IN )
  (    5 N-000230 )
  (    6 N-000230 )
  (    7 /POWER/V6 )
  (    8 /POWER/V6 )
 )
 ( /5112AC2A/5137E5E9 $noname  U1 LM3478 {Lib=LM3478}
  (    1 N-000210 )
  (    2 N-000224 )
  (    3 N-000221 )
  (    4 GND )
  (    5 GND )
  (    6 N-000222 )
  (    7 N-000209 )
  (    8 /POWER/V6 )
 )
 ( /5112AC2A/512254D6 $noname  R12 100k {Lib=R}
  (    1 /POWER/V_IN )
  (    2 GND )
 )
 ( /5112AC2A/511BA096 $noname  R10 1k {Lib=R}
  (    1 N-000215 )
  (    2 GND )
 )
 ( /5112AC2A/511BA07B $noname  R11 10k {Lib=R}
  (    1 N-000216 )
  (    2 GND )
 )
 ( /5112AC2A/511B9739 $noname  C10 4,7uF {Lib=C}
  (    1 N-000230 )
  (    2 GND )
 )
 ( /5112AC2A/511B1A1F $noname  D3 LED {Lib=LED}
  (    1 /POWER/V_IN )
  (    2 N-000218 )
 )
 ( /5112AC2A/511B1A1E $noname  R9 1k {Lib=R}
  (    1 N-000213 )
  (    2 N-000218 )
 )
 ( /5112AC2A/511B1A05 $noname  R8 1k {Lib=R}
  (    1 N-000225 )
  (    2 N-000214 )
 )
 ( /5112AC2A/511B1A04 $noname  D2 LED {Lib=LED}
  (    1 /POWER/V_IN )
  (    2 N-000214 )
 )
 ( /5112AC2A/511B185F $noname  U4 MCP73837 {Lib=MCP73837}
  (    1 N-000211 )
  (    2 ? )
  (    3 N-000212 )
  (    4 N-000225 )
  (    5 GND )
  (    6 N-000215 )
  (    7 ? )
  (    8 N-000213 )
  (    9 N-000216 )
  (   10 N-000230 )
 )
 ( /5112AC2A/511AFB6B $noname  C9 0,1uF {Lib=C}
  (    1 VMOTOR )
  (    2 GND )
 )
 ( /5112AC2A/511AF73B $noname  U3 CSD16323Q3 {Lib=CSD16323Q3}
  (    1 N-000227 )
  (    2 N-000227 )
  (    3 N-000227 )
  (    4 N-000222 )
  (    5 N-000226 )
  (    6 N-000226 )
  (    7 N-000226 )
  (    8 N-000226 )
 )
 ( /5112AC2A/511AF315 $noname  C8 330uF {Lib=CP1}
  (    1 VMOTOR )
  (    2 GND )
 )
 ( /5112AC2A/511ACE39 $noname  L1 INDUCTOR_5.6_uH {Lib=INDUCTOR}
  (    1 N-000226 )
  (    2 /POWER/V6 )
 )
 ( /5112AC2A/511ACE2E $noname  R3 1K {Lib=R}
  (    1 GND )
  (    2 N-000221 )
 )
 ( /5112AC2A/511ACE28 $noname  R4 3,74k {Lib=R}
  (    1 VMOTOR )
  (    2 N-000221 )
 )
 ( /5112AC2A/511ACCAB $noname  R6 8m {Lib=R}
  (    1 N-000227 )
  (    2 GND )
 )
 ( /5112AC2A/511ACC88 $noname  C7 10nF {Lib=C}
  (    1 N-000227 )
  (    2 GND )
 )
 ( /5112AC2A/511ACC80 $noname  R5 100 {Lib=R}
  (    1 N-000210 )
  (    2 N-000227 )
 )
 ( /5112AC2A/511ACC64 $noname  R2 127k {Lib=R}
  (    1 N-000209 )
  (    2 GND )
 )
 ( /5112AC2A/511ACBB1 $noname  R1 1.4k {Lib=R}
  (    1 N-000208 )
  (    2 GND )
 )
 ( /5112AC2A/511ACBAA $noname  C5 150nF {Lib=C}
  (    1 N-000224 )
  (    2 N-000208 )
 )
 ( /5112AC2A/511ACBA5 $noname  C3 6.8nF {Lib=C}
  (    1 N-000224 )
  (    2 GND )
 )
 ( /5112AC2A/511ACBA0 $noname  C2 100nF {Lib=C}
  (    1 /POWER/V6 )
  (    2 GND )
 )
 ( /5112AC2A/511ACB96 $noname  C1 470uF {Lib=CP1}
  (    1 /POWER/V6 )
  (    2 GND )
 )
 ( /5112AC2A/511ABF32 con-jack-SPC4077  J1 JACK-PLUG0 {Lib=JACK-PLUG0}
  (    1 GND )
  (    2 GND )
  (    3 N-000211 )
 )
 ( /5112AC2A/511AB3A3 $noname  D1 LED {Lib=LED}
  (    1 /POWER/V_IN )
  (    2 N-000220 )
 )
 ( /5112AC2A/511AB384 $noname  R7 1k {Lib=R}
  (    1 N-000212 )
  (    2 N-000220 )
 )
 ( /5112AC2A/511AB2B1 $noname  C4 4,7uF {Lib=C}
  (    1 N-000211 )
  (    2 GND )
 )
 ( /5112ABF3/5143A5EA $noname  R91 R {Lib=R}
  (    1 +3.3V )
  (    2 /SENSOR/VREF )
 )
 ( /5112ABF3/5143A5E2 $noname  R92 R {Lib=R}
  (    1 /SENSOR/VREF )
  (    2 GND )
 )
 ( /5112ABF3/5143A4FD $noname  U10 MCP6L02 {Lib=MCP6L02}
  (    1 AMP5 )
  (    2 /SENSOR/VREF )
  (    3 /SENSOR/S1O )
  (    4 GND )
  (    5 /SENSOR/S3O )
  (    6 /SENSOR/VREF )
  (    7 AMP6 )
  (    8 +3.3V )
 )
 ( /5112ABF3/512D2455 $noname  U7 MCP6L04 {Lib=MCP6L04}
  (    1 AMP1 )
  (    2 /SENSOR/VREF )
  (    3 /SENSOR/S6O )
  (    4 +3.3V )
  (    5 /SENSOR/S5O )
  (    6 /SENSOR/VREF )
  (    7 AMP2 )
  (    8 AMP3 )
  (    9 /SENSOR/VREF )
  (   10 /SENSOR/S4O )
  (   11 GND )
  (   12 /SENSOR/S2O )
  (   13 /SENSOR/VREF )
  (   14 AMP4 )
 )
 ( /5112ABF3/511B0845 ipc-7351-transistor-SOT95P280X135-3N  Q6 IRLML2803PbF {Lib=MOSFET-NCH_SOT-23}
  (    1 ON_PULSE )
  (    2 GND )
  (    3 N-000189 )
 )
 ( /5112ABF3/511B0844 $noname  R38 100k {Lib=R}
  (    1 ON_PULSE )
  (    2 GND )
 )
 ( /5112ABF3/511B0842 $noname  R40 18 {Lib=R}
  (    1 +3.3V )
  (    2 N-000186 )
 )
 ( /5112ABF3/511B0841 $noname  R42 10k {Lib=R}
  (    1 +3.3V )
  (    2 /SENSOR/S6O )
 )
 ( /5112ABF3/511B083E $noname  U14 TCRT1000 {Lib=OPTO-TRANSISTOR4}
  (    1 N-000186 )
  (    2 N-000189 )
  (    3 GND )
  (    4 /SENSOR/S6O )
 )
 ( /5112ABF3/511B0810 $noname  U12 TCRT1000 {Lib=OPTO-TRANSISTOR4}
  (    1 N-000188 )
  (    2 N-000190 )
  (    3 GND )
  (    4 /SENSOR/S5O )
 )
 ( /5112ABF3/511B080D $noname  R32 10k {Lib=R}
  (    1 +3.3V )
  (    2 /SENSOR/S5O )
 )
 ( /5112ABF3/511B080C $noname  R30 18 {Lib=R}
  (    1 +3.3V )
  (    2 N-000188 )
 )
 ( /5112ABF3/511B080A $noname  R28 100k {Lib=R}
  (    1 ON_PULSE )
  (    2 GND )
 )
 ( /5112ABF3/511B0809 ipc-7351-transistor-SOT95P280X135-3N  Q4 IRLML2803PbF {Lib=MOSFET-NCH_SOT-23}
  (    1 ON_PULSE )
  (    2 GND )
  (    3 N-000190 )
 )
 ( /5112ABF3/511B07EA ipc-7351-transistor-SOT95P280X135-3N  Q2 IRLML2803PbF {Lib=MOSFET-NCH_SOT-23}
  (    1 ON_PULSE )
  (    2 GND )
  (    3 N-000204 )
 )
 ( /5112ABF3/511B07E9 $noname  R14 100k {Lib=R}
  (    1 ON_PULSE )
  (    2 GND )
 )
 ( /5112ABF3/511B07E7 $noname  R16 18 {Lib=R}
  (    1 +3.3V )
  (    2 N-000205 )
 )
 ( /5112ABF3/511B07E6 $noname  R26 10k {Lib=R}
  (    1 +3.3V )
  (    2 /SENSOR/S4O )
 )
 ( /5112ABF3/511B07E3 $noname  U9 TCRT1000 {Lib=OPTO-TRANSISTOR4}
  (    1 N-000205 )
  (    2 N-000204 )
  (    3 GND )
  (    4 /SENSOR/S4O )
 )
 ( /5112ABF3/511B0784 $noname  U13 TCRT1000 {Lib=OPTO-TRANSISTOR4}
  (    1 N-000203 )
  (    2 N-000193 )
  (    3 GND )
  (    4 /SENSOR/S3O )
 )
 ( /5112ABF3/511B0781 $noname  R41 10k {Lib=R}
  (    1 +3.3V )
  (    2 /SENSOR/S3O )
 )
 ( /5112ABF3/511B0780 $noname  R39 18 {Lib=R}
  (    1 +3.3V )
  (    2 N-000203 )
 )
 ( /5112ABF3/511B077E $noname  R37 100k {Lib=R}
  (    1 ON_PULSE )
  (    2 GND )
 )
 ( /5112ABF3/511B077D ipc-7351-transistor-SOT95P280X135-3N  Q5 IRLML2803PbF {Lib=MOSFET-NCH_SOT-23}
  (    1 ON_PULSE )
  (    2 GND )
  (    3 N-000193 )
 )
 ( /5112ABF3/511B0775 ipc-7351-transistor-SOT95P280X135-3N  Q3 IRLML2803PbF {Lib=MOSFET-NCH_SOT-23}
  (    1 ON_PULSE )
  (    2 GND )
  (    3 N-000207 )
 )
 ( /5112ABF3/511B0774 $noname  R27 100k {Lib=R}
  (    1 ON_PULSE )
  (    2 GND )
 )
 ( /5112ABF3/511B0772 $noname  R29 18 {Lib=R}
  (    1 +3.3V )
  (    2 N-000206 )
 )
 ( /5112ABF3/511B0771 $noname  R31 10k {Lib=R}
  (    1 +3.3V )
  (    2 /SENSOR/S2O )
 )
 ( /5112ABF3/511B076E $noname  U11 TCRT1000 {Lib=OPTO-TRANSISTOR4}
  (    1 N-000206 )
  (    2 N-000207 )
  (    3 GND )
  (    4 /SENSOR/S2O )
 )
 ( /5112ABF3/511B050F $noname  U8 TCRT1000 {Lib=OPTO-TRANSISTOR4}
  (    1 N-000196 )
  (    2 N-000197 )
  (    3 GND )
  (    4 /SENSOR/S1O )
 )
 ( /5112ABF3/5112B853 $noname  R25 10k {Lib=R}
  (    1 +3.3V )
  (    2 /SENSOR/S1O )
 )
 ( /5112ABF3/5112B825 $noname  R15 18 {Lib=R}
  (    1 +3.3V )
  (    2 N-000196 )
 )
 ( /5112ABF3/5112B7B6 $noname  R13 100k {Lib=R}
  (    1 ON_PULSE )
  (    2 GND )
 )
 ( /5112ABF3/5112B7AF ipc-7351-transistor-SOT95P280X135-3N  Q1 IRLML2803PbF {Lib=MOSFET-NCH_SOT-23}
  (    1 ON_PULSE )
  (    2 GND )
  (    3 N-000197 )
 )
 ( /5112ABB8/512D5298 $noname  R82 100k {Lib=R}
  (    1 /LEDS/L4G )
  (    2 GND )
 )
 ( /5112ABB8/512D5294 $noname  R86 68 {Lib=R}
  (    1 N-000149 )
  (    2 N-000148 )
 )
 ( /5112ABB8/512D5293 $noname  R88 68 {Lib=R}
  (    1 N-000147 )
  (    2 N-000134 )
 )
 ( /5112ABB8/512D5292 $noname  R84 68 {Lib=R}
  (    1 N-000128 )
  (    2 N-000127 )
 )
 ( /5112ABB8/512D5291 $noname  R90 100k {Lib=R}
  (    1 /LEDS/L4B )
  (    2 GND )
 )
 ( /5112ABB8/512D5290 $noname  R81 100k {Lib=R}
  (    1 /LEDS/L4R )
  (    2 GND )
 )
 ( /5112ABB8/512D528F ipc-7351-transistor-SOT95P280X135-3N  Q28 IRLML2803PbF {Lib=MOSFET-NCH_SOT-23}
  (    1 /LEDS/L4G )
  (    2 GND )
  (    3 N-000148 )
 )
 ( /5112ABB8/512D528E ipc-7351-transistor-SOT95P280X135-3N  Q30 IRLML2803PbF {Lib=MOSFET-NCH_SOT-23}
  (    1 /LEDS/L4B )
  (    2 GND )
  (    3 N-000134 )
 )
 ( /5112ABB8/512D528D ipc-7351-transistor-SOT95P280X135-3N  Q26 IRLML2803PbF {Lib=MOSFET-NCH_SOT-23}
  (    1 /LEDS/L4R )
  (    2 GND )
  (    3 N-000127 )
 )
 ( /5112ABB8/512D528C $noname  LRGB8 OVSRRGBCC3 {Lib=OVSRRGBCC3}
  (    1 N-000128 )
  (    2 N-000149 )
  (    3 N-000147 )
  (    4 +5V )
 )
 ( /5112ABB8/512D5286 $noname  R80 100k {Lib=R}
  (    1 /LEDS/L8G )
  (    2 GND )
 )
 ( /5112ABB8/512D5282 $noname  R85 68 {Lib=R}
  (    1 N-000133 )
  (    2 N-000132 )
 )
 ( /5112ABB8/512D5281 $noname  R87 68 {Lib=R}
  (    1 N-000172 )
  (    2 N-000131 )
 )
 ( /5112ABB8/512D5280 $noname  R83 68 {Lib=R}
  (    1 N-000171 )
  (    2 N-000130 )
 )
 ( /5112ABB8/512D527F $noname  R89 100k {Lib=R}
  (    1 /LEDS/L8B )
  (    2 GND )
 )
 ( /5112ABB8/512D527E $noname  R79 100k {Lib=R}
  (    1 /LEDS/L8R )
  (    2 GND )
 )
 ( /5112ABB8/512D527D ipc-7351-transistor-SOT95P280X135-3N  Q27 IRLML2803PbF {Lib=MOSFET-NCH_SOT-23}
  (    1 /LEDS/L8G )
  (    2 GND )
  (    3 N-000132 )
 )
 ( /5112ABB8/512D527C ipc-7351-transistor-SOT95P280X135-3N  Q29 IRLML2803PbF {Lib=MOSFET-NCH_SOT-23}
  (    1 /LEDS/L8B )
  (    2 GND )
  (    3 N-000131 )
 )
 ( /5112ABB8/512D527B ipc-7351-transistor-SOT95P280X135-3N  Q25 IRLML2803PbF {Lib=MOSFET-NCH_SOT-23}
  (    1 /LEDS/L8R )
  (    2 GND )
  (    3 N-000130 )
 )
 ( /5112ABB8/512D527A $noname  LRGB7 OVSRRGBCC3 {Lib=OVSRRGBCC3}
  (    1 N-000171 )
  (    2 N-000133 )
  (    3 N-000172 )
  (    4 +5V )
 )
 ( /5112ABB8/512259ED $noname  LRGB1 OVSRRGBCC3 {Lib=OVSRRGBCC3}
  (    1 N-000168 )
  (    2 N-000121 )
  (    3 N-000167 )
  (    4 +5V )
 )
 ( /5112ABB8/512259EC $noname  LRGB3 OVSRRGBCC3 {Lib=OVSRRGBCC3}
  (    1 N-000120 )
  (    2 N-000169 )
  (    3 N-000119 )
  (    4 +5V )
 )
 ( /5112ABB8/512259EB $noname  LRGB5 OVSRRGBCC3 {Lib=OVSRRGBCC3}
  (    1 N-000170 )
  (    2 N-000118 )
  (    3 N-000159 )
  (    4 +5V )
 )
 ( /5112ABB8/512259C2 $noname  LRGB6 OVSRRGBCC3 {Lib=OVSRRGBCC3}
  (    1 N-000114 )
  (    2 N-000158 )
  (    3 N-000113 )
  (    4 +5V )
 )
 ( /5112ABB8/5122597F $noname  LRGB4 OVSRRGBCC3 {Lib=OVSRRGBCC3}
  (    1 N-000156 )
  (    2 N-000115 )
  (    3 N-000157 )
  (    4 +5V )
 )
 ( /5112ABB8/51225976 $noname  LRGB2 OVSRRGBCC3 {Lib=OVSRRGBCC3}
  (    1 N-000112 )
  (    2 N-000155 )
  (    3 N-000116 )
  (    4 +5V )
 )
 ( /5112ABB8/511B0D39 ipc-7351-transistor-SOT95P280X135-3N  Q20 IRLML2803PbF {Lib=MOSFET-NCH_SOT-23}
  (    1 /LEDS/L6R )
  (    2 GND )
  (    3 N-000178 )
 )
 ( /5112ABB8/511B0D38 ipc-7351-transistor-SOT95P280X135-3N  Q24 IRLML2803PbF {Lib=MOSFET-NCH_SOT-23}
  (    1 /LEDS/L6B )
  (    2 GND )
  (    3 N-000185 )
 )
 ( /5112ABB8/511B0D37 ipc-7351-transistor-SOT95P280X135-3N  Q22 IRLML2803PbF {Lib=MOSFET-NCH_SOT-23}
  (    1 /LEDS/L6G )
  (    2 GND )
  (    3 N-000177 )
 )
 ( /5112ABB8/511B0D36 $noname  R69 100k {Lib=R}
  (    1 /LEDS/L6R )
  (    2 GND )
 )
 ( /5112ABB8/511B0D35 $noname  R78 100k {Lib=R}
  (    1 /LEDS/L6B )
  (    2 GND )
 )
 ( /5112ABB8/511B0D34 $noname  R72 68 {Lib=R}
  (    1 N-000114 )
  (    2 N-000178 )
 )
 ( /5112ABB8/511B0D33 $noname  R76 68 {Lib=R}
  (    1 N-000113 )
  (    2 N-000185 )
 )
 ( /5112ABB8/511B0D32 $noname  R74 68 {Lib=R}
  (    1 N-000158 )
  (    2 N-000177 )
 )
 ( /5112ABB8/511B0D2E $noname  R70 100k {Lib=R}
  (    1 /LEDS/L6G )
  (    2 GND )
 )
 ( /5112ABB8/511B0D28 $noname  R58 100k {Lib=R}
  (    1 /LEDS/L5G )
  (    2 GND )
 )
 ( /5112ABB8/511B0D24 $noname  R62 68 {Lib=R}
  (    1 N-000115 )
  (    2 N-000176 )
 )
 ( /5112ABB8/511B0D23 $noname  R64 68 {Lib=R}
  (    1 N-000157 )
  (    2 N-000154 )
 )
 ( /5112ABB8/511B0D22 $noname  R60 68 {Lib=R}
  (    1 N-000156 )
  (    2 N-000181 )
 )
 ( /5112ABB8/511B0D21 $noname  R66 100k {Lib=R}
  (    1 /LEDS/L5B )
  (    2 GND )
 )
 ( /5112ABB8/511B0D20 $noname  R56 100k {Lib=R}
  (    1 /LEDS/L5R )
  (    2 GND )
 )
 ( /5112ABB8/511B0D1F ipc-7351-transistor-SOT95P280X135-3N  Q16 IRLML2803PbF {Lib=MOSFET-NCH_SOT-23}
  (    1 /LEDS/L5G )
  (    2 GND )
  (    3 N-000176 )
 )
 ( /5112ABB8/511B0D1E ipc-7351-transistor-SOT95P280X135-3N  Q18 IRLML2803PbF {Lib=MOSFET-NCH_SOT-23}
  (    1 /LEDS/L5B )
  (    2 GND )
  (    3 N-000154 )
 )
 ( /5112ABB8/511B0D1D ipc-7351-transistor-SOT95P280X135-3N  Q14 IRLML2803PbF {Lib=MOSFET-NCH_SOT-23}
  (    1 /LEDS/L5R )
  (    2 GND )
  (    3 N-000181 )
 )
 ( /5112ABB8/511B0B62 $noname  U15 MC74HC595A {Lib=MC74HC595A}
  (    1 /LEDS/L1G )
  (    2 /LEDS/L1B )
  (    3 /LEDS/L2R )
  (    4 /LEDS/L2G )
  (    5 /LEDS/L2B )
  (    6 /LEDS/L3R )
  (    7 /LEDS/L3G )
  (    8 GND )
  (    9 N-000166 )
  (   10 +5V )
  (   11 SHIFT_LED )
  (   12 LATCH_LEDS )
  (   13 GND )
  (   14 SERIAL_IN )
  (   15 /LEDS/L1R )
  (   16 +5V )
 )
 ( /5112ABB8/5113E131 $noname  U17 MC74HC595A {Lib=MC74HC595A}
  (    1 /LEDS/L6B )
  (    2 /LEDS/L7R )
  (    3 /LEDS/L7G )
  (    4 /LEDS/L7B )
  (    5 /LEDS/L8R )
  (    6 /LEDS/L8G )
  (    7 /LEDS/L8B )
  (    8 GND )
  (    9 ? )
  (   10 +5V )
  (   11 SHIFT_LED )
  (   12 LATCH_LEDS )
  (   13 GND )
  (   14 N-000117 )
  (   15 /LEDS/L6G )
  (   16 +5V )
 )
 ( /5112ABB8/5113D6E6 $noname  U16 MC74HC595A {Lib=MC74HC595A}
  (    1 /LEDS/L4R )
  (    2 /LEDS/L4G )
  (    3 /LEDS/L4B )
  (    4 /LEDS/L5R )
  (    5 /LEDS/L5G )
  (    6 /LEDS/L5B )
  (    7 /LEDS/L6R )
  (    8 GND )
  (    9 N-000117 )
  (   10 +5V )
  (   11 SHIFT_LED )
  (   12 LATCH_LEDS )
  (   13 GND )
  (   14 N-000166 )
  (   15 /LEDS/L3B )
  (   16 +5V )
 )
 ( /5112ABB8/5112B784 ipc-7351-transistor-SOT95P280X135-3N  Q8 IRLML2803PbF {Lib=MOSFET-NCH_SOT-23}
  (    1 /LEDS/L7R )
  (    2 GND )
  (    3 N-000175 )
 )
 ( /5112ABB8/5112B783 ipc-7351-transistor-SOT95P280X135-3N  Q12 IRLML2803PbF {Lib=MOSFET-NCH_SOT-23}
  (    1 /LEDS/L7B )
  (    2 GND )
  (    3 N-000182 )
 )
 ( /5112ABB8/5112B782 ipc-7351-transistor-SOT95P280X135-3N  Q10 IRLML2803PbF {Lib=MOSFET-NCH_SOT-23}
  (    1 /LEDS/L7G )
  (    2 GND )
  (    3 N-000110 )
 )
 ( /5112ABB8/5112B781 $noname  R44 100k {Lib=R}
  (    1 /LEDS/L7R )
  (    2 GND )
 )
 ( /5112ABB8/5112B780 $noname  R54 100k {Lib=R}
  (    1 /LEDS/L7B )
  (    2 GND )
 )
 ( /5112ABB8/5112B77F $noname  R48 68 {Lib=R}
  (    1 N-000112 )
  (    2 N-000175 )
 )
 ( /5112ABB8/5112B77E $noname  R52 68 {Lib=R}
  (    1 N-000116 )
  (    2 N-000182 )
 )
 ( /5112ABB8/5112B77D $noname  R50 68 {Lib=R}
  (    1 N-000155 )
  (    2 N-000110 )
 )
 ( /5112ABB8/5112B779 $noname  R46 100k {Lib=R}
  (    1 /LEDS/L7G )
  (    2 GND )
 )
 ( /5112ABB8/5112B5C5 $noname  R68 100k {Lib=R}
  (    1 /LEDS/L3G )
  (    2 GND )
 )
 ( /5112ABB8/5112B5C1 $noname  R73 68 {Lib=R}
  (    1 N-000118 )
  (    2 N-000180 )
 )
 ( /5112ABB8/5112B5C0 $noname  R75 68 {Lib=R}
  (    1 N-000159 )
  (    2 N-000184 )
 )
 ( /5112ABB8/5112B5BF $noname  R71 68 {Lib=R}
  (    1 N-000170 )
  (    2 N-000123 )
 )
 ( /5112ABB8/5112B5BE $noname  R77 100k {Lib=R}
  (    1 /LEDS/L3B )
  (    2 GND )
 )
 ( /5112ABB8/5112B5BD $noname  R67 100k {Lib=R}
  (    1 /LEDS/L3R )
  (    2 GND )
 )
 ( /5112ABB8/5112B5BC ipc-7351-transistor-SOT95P280X135-3N  Q21 IRLML2803PbF {Lib=MOSFET-NCH_SOT-23}
  (    1 /LEDS/L3G )
  (    2 GND )
  (    3 N-000180 )
 )
 ( /5112ABB8/5112B5BB ipc-7351-transistor-SOT95P280X135-3N  Q23 IRLML2803PbF {Lib=MOSFET-NCH_SOT-23}
  (    1 /LEDS/L3B )
  (    2 GND )
  (    3 N-000184 )
 )
 ( /5112ABB8/5112B5BA ipc-7351-transistor-SOT95P280X135-3N  Q19 IRLML2803PbF {Lib=MOSFET-NCH_SOT-23}
  (    1 /LEDS/L3R )
  (    2 GND )
  (    3 N-000123 )
 )
 ( /5112ABB8/5112B5AD ipc-7351-transistor-SOT95P280X135-3N  Q13 IRLML2803PbF {Lib=MOSFET-NCH_SOT-23}
  (    1 /LEDS/L2R )
  (    2 GND )
  (    3 N-000124 )
 )
 ( /5112ABB8/5112B5AC ipc-7351-transistor-SOT95P280X135-3N  Q17 IRLML2803PbF {Lib=MOSFET-NCH_SOT-23}
  (    1 /LEDS/L2B )
  (    2 GND )
  (    3 N-000183 )
 )
 ( /5112ABB8/5112B5AB ipc-7351-transistor-SOT95P280X135-3N  Q15 IRLML2803PbF {Lib=MOSFET-NCH_SOT-23}
  (    1 /LEDS/L2G )
  (    2 GND )
  (    3 N-000179 )
 )
 ( /5112ABB8/5112B5AA $noname  R55 100k {Lib=R}
  (    1 /LEDS/L2R )
  (    2 GND )
 )
 ( /5112ABB8/5112B5A9 $noname  R65 100k {Lib=R}
  (    1 /LEDS/L2B )
  (    2 GND )
 )
 ( /5112ABB8/5112B5A8 $noname  R59 68 {Lib=R}
  (    1 N-000120 )
  (    2 N-000124 )
 )
 ( /5112ABB8/5112B5A7 $noname  R63 68 {Lib=R}
  (    1 N-000119 )
  (    2 N-000183 )
 )
 ( /5112ABB8/5112B5A6 $noname  R61 68 {Lib=R}
  (    1 N-000169 )
  (    2 N-000179 )
 )
 ( /5112ABB8/5112B5A2 $noname  R57 100k {Lib=R}
  (    1 /LEDS/L2G )
  (    2 GND )
 )
 ( /5112ABB8/5112B4A9 $noname  R45 100k {Lib=R}
  (    1 /LEDS/L1G )
  (    2 GND )
 )
 ( /5112ABB8/5112B3FE $noname  R49 68 {Lib=R}
  (    1 N-000121 )
  (    2 N-000111 )
 )
 ( /5112ABB8/5112B3ED $noname  R51 68 {Lib=R}
  (    1 N-000167 )
  (    2 N-000136 )
 )
 ( /5112ABB8/5112B3E7 $noname  R47 68 {Lib=R}
  (    1 N-000168 )
  (    2 N-000122 )
 )
 ( /5112ABB8/5112B3DE $noname  R53 100k {Lib=R}
  (    1 /LEDS/L1B )
  (    2 GND )
 )
 ( /5112ABB8/5112B3D6 $noname  R43 100K {Lib=R}
  (    1 /LEDS/L1R )
  (    2 GND )
 )
 ( /5112ABB8/5112B364 ipc-7351-transistor-SOT95P280X135-3N  Q9 IRLML2803PbF {Lib=MOSFET-NCH_SOT-23}
  (    1 /LEDS/L1G )
  (    2 GND )
  (    3 N-000111 )
 )
 ( /5112ABB8/5112B323 ipc-7351-transistor-SOT95P280X135-3N  Q11 IRLML2803PbF {Lib=MOSFET-NCH_SOT-23}
  (    1 /LEDS/L1B )
  (    2 GND )
  (    3 N-000136 )
 )
 ( /5112ABB8/5112B302 ipc-7351-transistor-SOT95P280X135-3N  Q7 IRLML2803PbF {Lib=MOSFET-NCH_SOT-23}
  (    1 /LEDS/L1R )
  (    2 GND )
  (    3 N-000122 )
 )
)
*
{ Allowed footprints by component:
$component C11
 CP*
 SM*
$endlist
$component D5
 D?
 S*
$endlist
$component D4
 D?
 S*
$endlist
$component R12
 R?
 SM0603
 SM0805
 R?-*
$endlist
$component R10
 R?
 SM0603
 SM0805
 R?-*
$endlist
$component R11
 R?
 SM0603
 SM0805
 R?-*
$endlist
$component C10
 SM*
 C?
 C1-1
$endlist
$component D3
 LED-3MM
 LED-5MM
 LED-10MM
 LED-0603
 LED-0805
 LED-1206
 LEDV
$endlist
$component R9
 R?
 SM0603
 SM0805
 R?-*
$endlist
$component R8
 R?
 SM0603
 SM0805
 R?-*
$endlist
$component D2
 LED-3MM
 LED-5MM
 LED-10MM
 LED-0603
 LED-0805
 LED-1206
 LEDV
$endlist
$component C9
 SM*
 C?
 C1-1
$endlist
$component C8
 CP*
 SM*
$endlist
$component R3
 R?
 SM0603
 SM0805
 R?-*
$endlist
$component R4
 R?
 SM0603
 SM0805
 R?-*
$endlist
$component R6
 R?
 SM0603
 SM0805
 R?-*
$endlist
$component C7
 SM*
 C?
 C1-1
$endlist
$component R5
 R?
 SM0603
 SM0805
 R?-*
$endlist
$component R2
 R?
 SM0603
 SM0805
 R?-*
$endlist
$component R1
 R?
 SM0603
 SM0805
 R?-*
$endlist
$component C5
 SM*
 C?
 C1-1
$endlist
$component C3
 SM*
 C?
 C1-1
$endlist
$component C2
 SM*
 C?
 C1-1
$endlist
$component C1
 CP*
 SM*
$endlist
$component D1
 LED-3MM
 LED-5MM
 LED-10MM
 LED-0603
 LED-0805
 LED-1206
 LEDV
$endlist
$component R7
 R?
 SM0603
 SM0805
 R?-*
$endlist
$component C4
 SM*
 C?
 C1-1
$endlist
$component R91
 R?
 SM0603
 SM0805
 R?-*
$endlist
$component R92
 R?
 SM0603
 SM0805
 R?-*
$endlist
$component R38
 R?
 SM0603
 SM0805
 R?-*
$endlist
$component R40
 R?
 SM0603
 SM0805
 R?-*
$endlist
$component R42
 R?
 SM0603
 SM0805
 R?-*
$endlist
$component R32
 R?
 SM0603
 SM0805
 R?-*
$endlist
$component R30
 R?
 SM0603
 SM0805
 R?-*
$endlist
$component R28
 R?
 SM0603
 SM0805
 R?-*
$endlist
$component R14
 R?
 SM0603
 SM0805
 R?-*
$endlist
$component R16
 R?
 SM0603
 SM0805
 R?-*
$endlist
$component R26
 R?
 SM0603
 SM0805
 R?-*
$endlist
$component R41
 R?
 SM0603
 SM0805
 R?-*
$endlist
$component R39
 R?
 SM0603
 SM0805
 R?-*
$endlist
$component R37
 R?
 SM0603
 SM0805
 R?-*
$endlist
$component R27
 R?
 SM0603
 SM0805
 R?-*
$endlist
$component R29
 R?
 SM0603
 SM0805
 R?-*
$endlist
$component R31
 R?
 SM0603
 SM0805
 R?-*
$endlist
$component R25
 R?
 SM0603
 SM0805
 R?-*
$endlist
$component R15
 R?
 SM0603
 SM0805
 R?-*
$endlist
$component R13
 R?
 SM0603
 SM0805
 R?-*
$endlist
$component R82
 R?
 SM0603
 SM0805
 R?-*
$endlist
$component R86
 R?
 SM0603
 SM0805
 R?-*
$endlist
$component R88
 R?
 SM0603
 SM0805
 R?-*
$endlist
$component R84
 R?
 SM0603
 SM0805
 R?-*
$endlist
$component R90
 R?
 SM0603
 SM0805
 R?-*
$endlist
$component R81
 R?
 SM0603
 SM0805
 R?-*
$endlist
$component R80
 R?
 SM0603
 SM0805
 R?-*
$endlist
$component R85
 R?
 SM0603
 SM0805
 R?-*
$endlist
$component R87
 R?
 SM0603
 SM0805
 R?-*
$endlist
$component R83
 R?
 SM0603
 SM0805
 R?-*
$endlist
$component R89
 R?
 SM0603
 SM0805
 R?-*
$endlist
$component R79
 R?
 SM0603
 SM0805
 R?-*
$endlist
$component R69
 R?
 SM0603
 SM0805
 R?-*
$endlist
$component R78
 R?
 SM0603
 SM0805
 R?-*
$endlist
$component R72
 R?
 SM0603
 SM0805
 R?-*
$endlist
$component R76
 R?
 SM0603
 SM0805
 R?-*
$endlist
$component R74
 R?
 SM0603
 SM0805
 R?-*
$endlist
$component R70
 R?
 SM0603
 SM0805
 R?-*
$endlist
$component R58
 R?
 SM0603
 SM0805
 R?-*
$endlist
$component R62
 R?
 SM0603
 SM0805
 R?-*
$endlist
$component R64
 R?
 SM0603
 SM0805
 R?-*
$endlist
$component R60
 R?
 SM0603
 SM0805
 R?-*
$endlist
$component R66
 R?
 SM0603
 SM0805
 R?-*
$endlist
$component R56
 R?
 SM0603
 SM0805
 R?-*
$endlist
$component R44
 R?
 SM0603
 SM0805
 R?-*
$endlist
$component R54
 R?
 SM0603
 SM0805
 R?-*
$endlist
$component R48
 R?
 SM0603
 SM0805
 R?-*
$endlist
$component R52
 R?
 SM0603
 SM0805
 R?-*
$endlist
$component R50
 R?
 SM0603
 SM0805
 R?-*
$endlist
$component R46
 R?
 SM0603
 SM0805
 R?-*
$endlist
$component R68
 R?
 SM0603
 SM0805
 R?-*
$endlist
$component R73
 R?
 SM0603
 SM0805
 R?-*
$endlist
$component R75
 R?
 SM0603
 SM0805
 R?-*
$endlist
$component R71
 R?
 SM0603
 SM0805
 R?-*
$endlist
$component R77
 R?
 SM0603
 SM0805
 R?-*
$endlist
$component R67
 R?
 SM0603
 SM0805
 R?-*
$endlist
$component R55
 R?
 SM0603
 SM0805
 R?-*
$endlist
$component R65
 R?
 SM0603
 SM0805
 R?-*
$endlist
$component R59
 R?
 SM0603
 SM0805
 R?-*
$endlist
$component R63
 R?
 SM0603
 SM0805
 R?-*
$endlist
$component R61
 R?
 SM0603
 SM0805
 R?-*
$endlist
$component R57
 R?
 SM0603
 SM0805
 R?-*
$endlist
$component R45
 R?
 SM0603
 SM0805
 R?-*
$endlist
$component R49
 R?
 SM0603
 SM0805
 R?-*
$endlist
$component R51
 R?
 SM0603
 SM0805
 R?-*
$endlist
$component R47
 R?
 SM0603
 SM0805
 R?-*
$endlist
$component R53
 R?
 SM0603
 SM0805
 R?-*
$endlist
$component R43
 R?
 SM0603
 SM0805
 R?-*
$endlist
$endfootprintlist
}
{ Pin List by Nets
Net 1 "M21" "M21"
 P4 1
 P105 2
Net 2 "GND" "GND"
 U4 5
 J1 1
 C3 2
 J1 2
 C1 2
 C2 2
 C8 2
 R44 2
 Q10 2
 Q12 2
 U15 13
 U15 8
 U17 13
 C9 2
 U16 8
 Q8 2
 U16 13
 R54 2
 Q26 2
 Q30 2
 Q28 2
 R81 2
 R90 2
 R89 2
 P10 12
 R11 2
 R10 2
 R12 2
 R1 2
 R2 2
 U5 2
 R6 2
 R3 1
 C7 2
 C4 2
 R80 2
 R82 2
 CON1 1
 R27 2
 Q3 2
 Q5 2
 R37 2
 Q1 2
 R13 2
 U8 3
 R79 2
 U10 4
 U11 3
 R92 2
 R14 2
 Q2 2
 Q4 2
 R28 2
 U12 3
 Q24 2
 U13 3
 U9 3
 R55 2
 R77 2
 R67 2
 R68 2
 R46 2
 Q15 2
 Q17 2
 Q13 2
 Q19 2
 Q23 2
 R45 2
 R57 2
 Q21 2
 R65 2
 R53 2
 Q7 2
 Q11 2
 Q9 2
 R43 2
 C11 2
 R66 2
 Q14 2
 Q18 2
 Q16 2
 R56 2
 R78 2
 U7 11
 U14 3
 Q20 2
 R69 2
 Q22 2
 R38 2
 Q6 2
 Q27 2
 Q25 2
 Q29 2
 U17 8
 R58 2
 R70 2
 P10 1
 P1 21
 P4 9
 P4 10
 U1 4
 P2 8
 U1 5
 C10 2
Net 3 "+5V" "+5V"
 LRGB6 4
 LRGB4 4
 LRGB2 4
 U17 10
 C11 1
 U17 16
 U5 3
 LRGB7 4
 LRGB3 4
 LRGB1 4
 LRGB5 4
 LRGB8 4
 U15 16
 P10 11
 U16 10
 U16 16
 P2 7
 U15 10
Net 20 "M11" "M11"
 P106 2
 P4 5
Net 22 "M12" "M12"
 P4 3
 P106 1
Net 27 "I2C1_SCL" "I2C1_SCL"
 P100 8
 P7 9
Net 28 "FP16" "FP16"
 P101 2
 P7 7
Net 29 "FP31" "FP31"
 P101 4
 P7 5
Net 30 "FP18" "FP18"
 P7 8
 P100 10
Net 31 "FP30" "FP30"
 P101 3
 P7 6
Net 32 "TIERRA" "TIERRA"
 P7 3
 P101 5
 P101 7
Net 33 "3.3V" "3.3V"
 P101 8
 P101 6
 P7 1
Net 34 "AMP3" "AMP3"
 U7 8
 P7 17
Net 35 "FP1" "FP1"
 P7 21
 P100 1
Net 36 "AMP2" "AMP2"
 P7 19
 U7 7
Net 37 "AMP4" "AMP4"
 U7 14
 P7 18
Net 39 "FP41" "FP41"
 P7 16
 P100 5
Net 40 "FP42" "FP42"
 P7 15
 P100 6
Net 41 "FP2" "FP2"
 P7 24
 P100 4
Net 42 "FP3" "FP3"
 P7 23
 P100 2
Net 43 "FP35" "FP35"
 P100 7
 P7 13
Net 44 "FP0" "FP0"
 P100 3
 P7 22
Net 45 "I2C1_SDA" "I2C1_SDA"
 P7 12
 P100 9
Net 46 "FP19" "FP19"
 P101 1
 P7 10
Net 58 "FP33" "FP33"
 P102 8
 P6 13
Net 60 "NI" "NI"
 P1 22
 P10 2
Net 66 "TX" "TX"
 P1 24
 P10 4
Net 68 "RX" "RX"
 P10 3
 P1 23
Net 82 "VMOTOR" "VMOTOR"
 U5 1
 R4 1
 D4 2
 C8 1
 P4 8
 P4 7
 C9 1
Net 83 "SHIFT_LED" "SHIFT_LED"
 U15 11
 U16 11
 U17 11
 P6 12
Net 84 "FP28" "FP28"
 P6 9
 P102 6
Net 85 "LATCH_LEDS" "LATCH_LEDS"
 P6 8
 U17 12
 U15 12
 U16 12
Net 86 "AMP6" "AMP6"
 U10 7
 P6 6
Net 87 "AMP5" "AMP5"
 P6 5
 U10 1
Net 88 "FP7" "FP7"
 P6 4
 P102 4
Net 89 "FP6" "FP6"
 P6 3
 P102 2
Net 90 "USB_M3" "USB_M3"
 P10 7
 P2 3
Net 91 "USB_P2" "USB_P2"
 P2 2
 P10 6
Net 92 "USB_P4" "USB_P4"
 P2 6
 P10 10
Net 93 "FP29" "FP29"
 P102 5
 P6 10
Net 94 "DAC1" "DAC1"
 P102 1
 P6 1
Net 95 "M31" "M31"
 P104 2
 P5 7
Net 96 "M41" "M41"
 P103 2
 P5 3
Net 97 "M32" "M32"
 P104 1
 P5 5
Net 98 "M22" "M22"
 P5 9
 P105 1
Net 99 "DAC2" "DAC2"
 P6 2
 P102 3
Net 100 "FP17" "FP17"
 P6 11
 P102 7
Net 101 "USB_P3" "USB_P3"
 P2 4
 P10 8
Net 102 "M42" "M42"
 P5 1
 P103 1
Net 103 "USB_M2" "USB_M2"
 P10 5
 P2 1
Net 104 "USB_M4" "USB_M4"
 P10 9
 P2 5
Net 110 "" ""
 Q10 3
 R50 2
Net 111 "" ""
 Q9 3
 R49 2
Net 112 "" ""
 R48 1
 LRGB2 1
Net 113 "" ""
 LRGB6 3
 R76 1
Net 114 "" ""
 LRGB6 1
 R72 1
Net 115 "" ""
 LRGB4 2
 R62 1
Net 116 "" ""
 LRGB2 3
 R52 1
Net 117 "" ""
 U16 9
 U17 14
Net 118 "" ""
 R73 1
 LRGB5 2
Net 119 "" ""
 LRGB3 3
 R63 1
Net 120 "" ""
 LRGB3 1
 R59 1
Net 121 "" ""
 LRGB1 2
 R49 1
Net 122 "" ""
 R47 2
 Q7 3
Net 123 "" ""
 R71 2
 Q19 3
Net 124 "" ""
 R59 2
 Q13 3
Net 125 "/LEDS/L4R" "L4R"
 U16 1
 R81 1
 Q26 1
Net 126 "/LEDS/L4B" "L4B"
 U16 3
 R90 1
 Q30 1
Net 127 "" ""
 Q26 3
 R84 2
Net 128 "" ""
 R84 1
 LRGB8 1
Net 129 "/LEDS/L5B" "L5B"
 U16 6
 R66 1
 Q18 1
Net 130 "" ""
 R83 2
 Q25 3
Net 131 "" ""
 R87 2
 Q29 3
Net 132 "" ""
 R85 2
 Q27 3
Net 133 "" ""
 LRGB7 2
 R85 1
Net 134 "" ""
 R88 2
 Q30 3
Net 135 "/LEDS/L5G" "L5G"
 Q16 1
 R58 1
 U16 5
Net 136 "" ""
 Q11 3
 R51 2
Net 137 "/LEDS/L8B" "L8B"
 U17 7
 R89 1
 Q29 1
Net 138 "/LEDS/L8R" "L8R"
 U17 5
 Q25 1
 R79 1
Net 139 "/LEDS/L7G" "L7G"
 U17 3
 R46 1
 Q10 1
Net 140 "/LEDS/L6B" "L6B"
 R78 1
 Q24 1
 U17 1
Net 141 "/LEDS/L6R" "L6R"
 R69 1
 U16 7
 Q20 1
Net 142 "/LEDS/L3G" "L3G"
 Q21 1
 R68 1
 U15 7
Net 143 "/LEDS/L2B" "L2B"
 R65 1
 U15 5
 Q17 1
Net 144 "/LEDS/L2R" "L2R"
 U15 3
 R55 1
 Q13 1
Net 145 "/LEDS/L1G" "L1G"
 R45 1
 U15 1
 Q9 1
Net 146 "/LEDS/L4G" "L4G"
 U16 2
 R82 1
 Q28 1
Net 147 "" ""
 LRGB8 3
 R88 1
Net 148 "" ""
 Q28 3
 R86 2
Net 149 "" ""
 R86 1
 LRGB8 2
Net 150 "/LEDS/L7R" "L7R"
 U17 2
 Q8 1
 R44 1
Net 151 "/LEDS/L7B" "L7B"
 Q12 1
 U17 4
 R54 1
Net 152 "/LEDS/L8G" "L8G"
 Q27 1
 U17 6
 R80 1
Net 154 "" ""
 Q18 3
 R64 2
Net 155 "" ""
 R50 1
 LRGB2 2
Net 156 "" ""
 LRGB4 1
 R60 1
Net 157 "" ""
 R64 1
 LRGB4 3
Net 158 "" ""
 R74 1
 LRGB6 2
Net 159 "" ""
 R75 1
 LRGB5 3
Net 160 "/LEDS/L1R" "L1R"
 U15 15
 Q7 1
 R43 1
Net 161 "/LEDS/L1B" "L1B"
 R53 1
 U15 2
 Q11 1
Net 162 "/LEDS/L2G" "L2G"
 R57 1
 Q15 1
 U15 4
Net 163 "/LEDS/L3R" "L3R"
 U15 6
 Q19 1
 R67 1
Net 164 "/LEDS/L3B" "L3B"
 R77 1
 Q23 1
 U16 15
Net 165 "/LEDS/L5R" "L5R"
 Q14 1
 U16 4
 R56 1
Net 166 "" ""
 U16 14
 U15 9
Net 167 "" ""
 R51 1
 LRGB1 3
Net 168 "" ""
 R47 1
 LRGB1 1
Net 169 "" ""
 LRGB3 2
 R61 1
Net 170 "" ""
 LRGB5 1
 R71 1
Net 171 "" ""
 R83 1
 LRGB7 1
Net 172 "" ""
 LRGB7 3
 R87 1
Net 173 "/LEDS/L6G" "L6G"
 R70 1
 U17 15
 Q22 1
Net 174 "SERIAL_IN" "SERIAL_IN"
 U15 14
 P6 14
Net 175 "" ""
 R48 2
 Q8 3
Net 176 "" ""
 Q16 3
 R62 2
Net 177 "" ""
 R74 2
 Q22 3
Net 178 "" ""
 Q20 3
 R72 2
Net 179 "" ""
 Q15 3
 R61 2
Net 180 "" ""
 Q21 3
 R73 2
Net 181 "" ""
 R60 2
 Q14 3
Net 182 "" ""
 Q12 3
 R52 2
Net 183 "" ""
 Q17 3
 R63 2
Net 184 "" ""
 Q23 3
 R75 2
Net 185 "" ""
 R76 2
 Q24 3
Net 186 "" ""
 R40 2
 U14 1
Net 187 "+3.3V" "+3.3V"
 R29 1
 R31 1
 U7 4
 U10 8
 R40 1
 R42 1
 R39 1
 R30 1
 R91 1
 R16 1
 R26 1
 R15 1
 R32 1
 R25 1
 R41 1
Net 188 "" ""
 U12 1
 R30 2
Net 189 "" ""
 U14 2
 Q6 3
Net 190 "" ""
 Q4 3
 U12 2
Net 191 "/SENSOR/S1O" "S1O"
 R25 2
 U10 3
 U8 4
Net 192 "/SENSOR/S3O" "S3O"
 U13 4
 R41 2
 U10 5
Net 193 "" ""
 U13 2
 Q5 3
Net 194 "AMP1" "AMP1"
 P7 20
 U7 1
Net 195 "ON PULSE" "ON PULSE"
 Q1 1
 R13 1
 P6 7
 R37 1
 Q5 1
 Q3 1
 R27 1
 Q2 1
 Q6 1
 R38 1
 Q4 1
 R28 1
 R14 1
Net 196 "" ""
 U8 1
 R15 2
Net 197 "" ""
 Q1 3
 U8 2
Net 198 "/SENSOR/VREF" "VREF"
 R91 2
 R92 1
 U7 9
 U10 6
 U7 6
 U7 13
 U7 2
 U10 2
Net 199 "/SENSOR/S2O" "S2O"
 R31 2
 U7 12
 U11 4
Net 200 "/SENSOR/S6O" "S6O"
 U14 4
 R42 2
 U7 3
Net 201 "/SENSOR/S5O" "S5O"
 U7 5
 U12 4
 R32 2
Net 202 "/SENSOR/S4O" "S4O"
 U7 10
 R26 2
 U9 4
Net 203 "" ""
 U13 1
 R39 2
Net 204 "" ""
 U9 2
 Q2 3
Net 205 "" ""
 U9 1
 R16 2
Net 206 "" ""
 R29 2
 U11 1
Net 207 "" ""
 U11 2
 Q3 3
Net 208 "" ""
 R1 1
 C5 2
Net 209 "" ""
 U1 7
 R2 1
Net 210 "" ""
 U1 1
 R5 1
Net 211 "" ""
 U4 1
 C4 1
 J1 3
 D5 1
Net 212 "" ""
 R7 1
 U4 3
Net 213 "" ""
 R9 1
 U4 8
Net 214 "" ""
 D2 2
 R8 2
Net 215 "" ""
 R10 1
 U4 6
Net 216 "" ""
 R11 1
 U4 9
Net 217 "/POWER/V_IN" "V_IN"
 U6 4
 R12 1
 D2 1
 D1 1
 U6 2
 U6 1
 D5 2
 D3 1
Net 218 "" ""
 D3 2
 R9 2
Net 220 "" ""
 D1 2
 R7 2
Net 221 "" ""
 R4 2
 R3 2
 U1 3
Net 222 "" ""
 U3 4
 U1 6
Net 223 "/POWER/V6" "V6"
 U6 3
 U6 7
 U6 8
 U1 8
 C2 1
 L1 2
 C1 1
Net 224 "" ""
 C3 1
 U1 2
 C5 1
Net 225 "" ""
 U4 4
 R8 1
Net 226 "" ""
 U3 5
 L1 1
 U3 6
 U3 7
 U3 8
 D4 3
Net 227 "" ""
 R5 2
 C7 1
 R6 1
 U3 3
 U3 2
 U3 1
Net 230 "" ""
 CON1 2
 U4 10
 U6 6
 U6 5
 C10 1
}
#End
