EESchema Schematic File Version 2  date Fri 19 Apr 2013 17:10:57 COT
LIBS:power
LIBS:device
LIBS:transistors
LIBS:conn
LIBS:linear
LIBS:regul
LIBS:74xx
LIBS:cmos4000
LIBS:adc-dac
LIBS:memory
LIBS:xilinx
LIBS:special
LIBS:microcontrollers
LIBS:dsp
LIBS:microchip
LIBS:analog_switches
LIBS:motorola
LIBS:texas
LIBS:intel
LIBS:audio
LIBS:interface
LIBS:digital-audio
LIBS:philips
LIBS:display
LIBS:cypress
LIBS:siliconi
LIBS:opto
LIBS:atmel
LIBS:contrib
LIBS:valves
LIBS:ipc-7351-transistor
LIBS:LM3485
LIBS:transistor-arrays
LIBS:mc74hc595a
LIBS:PCB-cache
LIBS:irf9333
LIBS:mcp73831
LIBS:usb_a
LIBS:usba-plug
LIBS:usbconn
LIBS:usb-mini
LIBS:con-jack
LIBS:csd16323q3
LIBS:MCP73837
LIBS:baw101
LIBS:ovsrrgbcc3
LIBS:mcp6l04
LIBS:irf5803
LIBS:mcp6l02
LIBS:xc6216
LIBS:bat_con
LIBS:mbrb2515lt4g
LIBS:lf50cdt
LIBS:lm3478
LIBS:PCB-cache
EELAYER 25  0
EELAYER END
$Descr A3 16535 11700
encoding utf-8
Sheet 3 4
Title ""
Date "19 apr 2013"
Rev ""
Comp ""
Comment1 ""
Comment2 ""
Comment3 ""
Comment4 ""
$EndDescr
Text Label 3600 10250 0    60   ~ 0
S2O
Text Label 3600 8900 0    60   ~ 0
S6O
Text Label 3600 9350 0    60   ~ 0
S5O
Text Label 3600 9800 0    60   ~ 0
S4O
Wire Wire Line
	3350 10250 3600 10250
Wire Wire Line
	3350 9800 3600 9800
Wire Wire Line
	3350 9350 3600 9350
Wire Wire Line
	3350 8900 3600 8900
Wire Wire Line
	7350 9650 7600 9650
Wire Wire Line
	7350 9300 7600 9300
Connection ~ 11200 9300
Wire Wire Line
	11200 9300 10800 9300
Wire Wire Line
	11200 8600 11200 8700
Wire Wire Line
	5850 9150 5850 9250
Wire Wire Line
	5850 9250 6000 9250
Wire Wire Line
	5850 9500 5850 9350
Wire Wire Line
	5850 9350 6000 9350
Wire Wire Line
	13550 9550 14100 9550
Wire Wire Line
	13550 9150 14100 9150
Wire Wire Line
	13550 8750 14100 8750
Connection ~ 3100 3100
Wire Wire Line
	2800 3100 3300 3100
Connection ~ 6500 3100
Wire Wire Line
	6350 3100 6700 3100
Connection ~ 9800 3100
Wire Wire Line
	9550 3100 10000 3100
Connection ~ 3100 6150
Wire Wire Line
	3100 6150 2800 6150
Connection ~ 6500 6100
Wire Wire Line
	6150 6100 6700 6100
Connection ~ 11800 5100
Wire Wire Line
	12150 5100 11800 5100
Wire Wire Line
	9800 6150 9600 6150
Wire Wire Line
	5100 2800 5100 2550
Wire Wire Line
	5100 2550 5050 2550
Wire Wire Line
	3100 3100 3100 3200
Wire Wire Line
	5100 1950 5100 2250
Wire Wire Line
	5100 2250 5050 2250
Wire Wire Line
	5100 1450 5100 1300
Wire Wire Line
	3750 1450 3750 1300
Wire Wire Line
	3800 2250 3750 2250
Wire Wire Line
	3750 2250 3750 1950
Wire Wire Line
	3100 3800 3100 3700
Wire Wire Line
	3600 2700 3600 2550
Wire Wire Line
	3600 2550 3800 2550
Wire Wire Line
	3100 3750 3600 3750
Wire Wire Line
	3600 3750 3600 3300
Connection ~ 3100 3750
Connection ~ 6500 3750
Wire Wire Line
	7000 3300 7000 3750
Wire Wire Line
	7000 3750 6500 3750
Wire Wire Line
	7200 2550 7000 2550
Wire Wire Line
	7000 2550 7000 2700
Wire Wire Line
	6500 3800 6500 3700
Wire Wire Line
	7150 1950 7150 2250
Wire Wire Line
	7150 2250 7200 2250
Wire Wire Line
	7150 1300 7150 1450
Wire Wire Line
	8500 1300 8500 1450
Wire Wire Line
	8450 2250 8500 2250
Wire Wire Line
	8500 2250 8500 1950
Wire Wire Line
	6500 3100 6500 3200
Wire Wire Line
	8450 2550 8500 2550
Wire Wire Line
	8500 2550 8500 2800
Wire Wire Line
	11800 2800 11800 2550
Wire Wire Line
	11800 2550 11750 2550
Wire Wire Line
	9800 3100 9800 3200
Wire Wire Line
	11800 1950 11800 2250
Wire Wire Line
	11800 2250 11750 2250
Wire Wire Line
	11800 1450 11800 1300
Wire Wire Line
	10450 1450 10450 1300
Wire Wire Line
	10500 2250 10450 2250
Wire Wire Line
	10450 2250 10450 1950
Wire Wire Line
	9800 3800 9800 3700
Wire Wire Line
	10300 2700 10300 2550
Wire Wire Line
	10300 2550 10500 2550
Wire Wire Line
	9800 3750 10300 3750
Wire Wire Line
	10300 3750 10300 3300
Connection ~ 9800 3750
Connection ~ 3100 6750
Wire Wire Line
	3600 6300 3600 6750
Wire Wire Line
	3600 6750 3100 6750
Wire Wire Line
	3800 5550 3600 5550
Wire Wire Line
	3600 5550 3600 5700
Wire Wire Line
	3100 6700 3100 6800
Wire Wire Line
	3750 4950 3750 5250
Wire Wire Line
	3750 5250 3800 5250
Wire Wire Line
	3750 4300 3750 4450
Wire Wire Line
	5100 4300 5100 4450
Wire Wire Line
	5050 5250 5100 5250
Wire Wire Line
	5100 5250 5100 4950
Wire Wire Line
	3100 6200 3100 6100
Wire Wire Line
	3100 6100 3300 6100
Wire Wire Line
	5050 5550 5100 5550
Wire Wire Line
	5100 5550 5100 5800
Wire Wire Line
	8500 5800 8500 5550
Wire Wire Line
	8500 5550 8450 5550
Wire Wire Line
	6500 6100 6500 6200
Wire Wire Line
	8500 4950 8500 5250
Wire Wire Line
	8500 5250 8450 5250
Wire Wire Line
	8500 4450 8500 4300
Wire Wire Line
	7150 4450 7150 4300
Wire Wire Line
	7200 5250 7150 5250
Wire Wire Line
	7150 5250 7150 4950
Wire Wire Line
	6500 6800 6500 6700
Wire Wire Line
	7000 5700 7000 5550
Wire Wire Line
	7000 5550 7200 5550
Wire Wire Line
	6500 6750 7000 6750
Wire Wire Line
	7000 6750 7000 6300
Connection ~ 6500 6750
Connection ~ 9800 6750
Wire Wire Line
	10300 6300 10300 6750
Wire Wire Line
	10300 6750 9800 6750
Wire Wire Line
	10500 5550 10300 5550
Wire Wire Line
	10300 5550 10300 5700
Wire Wire Line
	9800 6700 9800 6800
Wire Wire Line
	10450 4950 10450 5250
Wire Wire Line
	10450 5250 10500 5250
Wire Wire Line
	10450 4300 10450 4450
Wire Wire Line
	11800 4300 11800 4450
Wire Wire Line
	11750 5250 11800 5250
Wire Wire Line
	11800 5250 11800 4950
Wire Wire Line
	10000 6100 9800 6100
Wire Wire Line
	11750 5550 11800 5550
Wire Wire Line
	11800 5550 11800 5800
Wire Wire Line
	9800 6100 9800 6200
Connection ~ 9800 6150
Wire Wire Line
	8750 5100 8500 5100
Connection ~ 8500 5100
Wire Wire Line
	5400 5050 5100 5050
Connection ~ 5100 5050
Wire Wire Line
	12100 2150 11800 2150
Connection ~ 11800 2150
Wire Wire Line
	8650 2100 8500 2100
Connection ~ 8500 2100
Wire Wire Line
	5300 2050 5100 2050
Connection ~ 5100 2050
Wire Wire Line
	13850 8550 14100 8550
Wire Wire Line
	13550 8950 14100 8950
Wire Wire Line
	13550 9350 14100 9350
Wire Wire Line
	13550 9750 14100 9750
Wire Wire Line
	3350 8800 3600 8800
Wire Wire Line
	1700 9550 1550 9550
Wire Wire Line
	1550 9550 1550 9700
Wire Wire Line
	1700 9450 1550 9450
Wire Wire Line
	1550 9450 1550 9350
Wire Wire Line
	3350 9250 3600 9250
Wire Wire Line
	3350 9700 3600 9700
Wire Wire Line
	3350 10150 3600 10150
Wire Wire Line
	7350 9200 7600 9200
Wire Wire Line
	7350 9550 7600 9550
Wire Wire Line
	11200 9200 11200 9350
Wire Wire Line
	11200 9850 11200 10000
Wire Wire Line
	7350 9100 7600 9100
Wire Wire Line
	7350 9450 7600 9450
Wire Wire Line
	3350 8700 3600 8700
Wire Wire Line
	3350 9150 3600 9150
Wire Wire Line
	3350 9600 3600 9600
Wire Wire Line
	3350 10050 3600 10050
Text Label 7600 9650 0    60   ~ 0
S3O
Text Label 7600 9300 0    60   ~ 0
S1O
$Comp
L +3.3V #PWR015
U 1 1 5157B4EC
P 10450 4300
F 0 "#PWR015" H 10450 4260 30  0001 C CNN
F 1 "+3.3V" H 10450 4410 30  0000 C CNN
	1    10450 4300
	1    0    0    -1  
$EndComp
$Comp
L +3.3V #PWR016
U 1 1 5157B4E6
P 7150 4300
F 0 "#PWR016" H 7150 4260 30  0001 C CNN
F 1 "+3.3V" H 7150 4410 30  0000 C CNN
	1    7150 4300
	1    0    0    -1  
$EndComp
$Comp
L +3.3V #PWR017
U 1 1 5157B4DF
P 3750 4300
F 0 "#PWR017" H 3750 4260 30  0001 C CNN
F 1 "+3.3V" H 3750 4410 30  0000 C CNN
	1    3750 4300
	1    0    0    -1  
$EndComp
$Comp
L +3.3V #PWR018
U 1 1 5157B4D6
P 10450 1300
F 0 "#PWR018" H 10450 1260 30  0001 C CNN
F 1 "+3.3V" H 10450 1410 30  0000 C CNN
	1    10450 1300
	1    0    0    -1  
$EndComp
$Comp
L +3.3V #PWR019
U 1 1 5157B4CD
P 7150 1300
F 0 "#PWR019" H 7150 1260 30  0001 C CNN
F 1 "+3.3V" H 7150 1410 30  0000 C CNN
	1    7150 1300
	1    0    0    -1  
$EndComp
$Comp
L +3.3V #PWR020
U 1 1 5157B4C2
P 3750 1300
F 0 "#PWR020" H 3750 1260 30  0001 C CNN
F 1 "+3.3V" H 3750 1410 30  0000 C CNN
	1    3750 1300
	1    0    0    -1  
$EndComp
Text Label 10800 9300 0    60   ~ 0
VREF
$Comp
L +3,3V #PWR021
U 1 1 5143A60C
P 11200 8600
F 0 "#PWR021" H 11200 8560 30  0001 C CNN
F 1 "+3,3V" H 11200 8710 30  0000 C CNN
	1    11200 8600
	1    0    0    -1  
$EndComp
$Comp
L GND #PWR022
U 1 1 5143A5FF
P 11200 10000
F 0 "#PWR022" H 11200 10000 30  0001 C CNN
F 1 "GND" H 11200 9930 30  0001 C CNN
	1    11200 10000
	1    0    0    -1  
$EndComp
$Comp
L R R91
U 1 1 5143A5EA
P 11200 8950
F 0 "R91" V 11280 8950 50  0000 C CNN
F 1 "R" V 11200 8950 50  0000 C CNN
	1    11200 8950
	1    0    0    -1  
$EndComp
$Comp
L R R92
U 1 1 5143A5E2
P 11200 9600
F 0 "R92" V 11280 9600 50  0000 C CNN
F 1 "R" V 11200 9600 50  0000 C CNN
	1    11200 9600
	1    0    0    -1  
$EndComp
$Comp
L GND #PWR023
U 1 1 5143A5CF
P 5850 9500
F 0 "#PWR023" H 5850 9500 30  0001 C CNN
F 1 "GND" H 5850 9430 30  0001 C CNN
	1    5850 9500
	1    0    0    -1  
$EndComp
$Comp
L +3.3V #PWR024
U 1 1 5143A5CE
P 5850 9150
F 0 "#PWR024" H 5850 9110 30  0001 C CNN
F 1 "+3.3V" H 5850 9260 30  0000 C CNN
	1    5850 9150
	1    0    0    -1  
$EndComp
$Comp
L MCP6L02 U10
U 1 1 5143A4FD
P 6700 9300
F 0 "U10" H 6950 9750 60  0000 C CNN
F 1 "MCP6L02" H 6650 9750 60  0000 C CNN
	1    6700 9300
	1    0    0    -1  
$EndComp
Text Label 7600 9450 0    60   ~ 0
AMP6
Text Label 7600 9550 0    60   ~ 0
VREF
Text Label 7600 9200 0    60   ~ 0
VREF
Text Label 7600 9100 0    60   ~ 0
AMP5
Text Label 3600 10150 0    60   ~ 0
VREF
Text Label 3600 10050 0    60   ~ 0
AMP4
Text Label 3600 9600 0    60   ~ 0
AMP3
Text Label 3600 9700 0    60   ~ 0
VREF
Text Label 3600 9250 0    60   ~ 0
VREF
Text Label 3600 9150 0    60   ~ 0
AMP2
Text Label 3600 8700 0    60   ~ 0
AMP1
$Comp
L +3.3V #PWR025
U 1 1 512D28D3
P 1550 9350
F 0 "#PWR025" H 1550 9310 30  0001 C CNN
F 1 "+3.3V" H 1550 9460 30  0000 C CNN
	1    1550 9350
	1    0    0    -1  
$EndComp
$Comp
L +3.3V #PWR026
U 1 1 512D2770
P 11800 1300
F 0 "#PWR026" H 11800 1260 30  0001 C CNN
F 1 "+3.3V" H 11800 1410 30  0000 C CNN
	1    11800 1300
	1    0    0    -1  
$EndComp
$Comp
L +3.3V #PWR027
U 1 1 512D275F
P 5100 1300
F 0 "#PWR027" H 5100 1260 30  0001 C CNN
F 1 "+3.3V" H 5100 1410 30  0000 C CNN
	1    5100 1300
	1    0    0    -1  
$EndComp
$Comp
L +3.3V #PWR028
U 1 1 512D275C
P 8500 1300
F 0 "#PWR028" H 8500 1260 30  0001 C CNN
F 1 "+3.3V" H 8500 1410 30  0000 C CNN
	1    8500 1300
	1    0    0    -1  
$EndComp
$Comp
L +3.3V #PWR029
U 1 1 512D2713
P 11800 4300
F 0 "#PWR029" H 11800 4260 30  0001 C CNN
F 1 "+3.3V" H 11800 4410 30  0000 C CNN
	1    11800 4300
	1    0    0    -1  
$EndComp
$Comp
L +3.3V #PWR030
U 1 1 512D26DA
P 8500 4300
F 0 "#PWR030" H 8500 4260 30  0001 C CNN
F 1 "+3.3V" H 8500 4410 30  0000 C CNN
	1    8500 4300
	1    0    0    -1  
$EndComp
$Comp
L +3.3V #PWR031
U 1 1 512D26B3
P 5100 4300
F 0 "#PWR031" H 5100 4260 30  0001 C CNN
F 1 "+3.3V" H 5100 4410 30  0000 C CNN
	1    5100 4300
	1    0    0    -1  
$EndComp
$Comp
L GND #PWR032
U 1 1 512D266F
P 1550 9700
F 0 "#PWR032" H 1550 9700 30  0001 C CNN
F 1 "GND" H 1550 9630 30  0001 C CNN
	1    1550 9700
	1    0    0    -1  
$EndComp
Text Label 3600 8800 0    60   ~ 0
VREF
$Comp
L MCP6L04 U7
U 1 1 512D2455
P 2450 9500
F 0 "U7" H 2450 9500 60  0000 C CNN
F 1 "MCP6L04" H 2450 8600 60  0000 C CNN
	1    2450 9500
	1    0    0    -1  
$EndComp
Text Label 12100 2150 0    60   ~ 0
S3O
Text Label 12150 5100 0    60   ~ 0
S6O
Text Label 8750 5100 0    60   ~ 0
S5O
Text Label 5400 5050 0    60   ~ 0
S4O
Text Label 8650 2100 0    60   ~ 0
S2O
Text Label 5300 2050 0    60   ~ 0
S1O
Text Label 14100 9750 0    60   ~ 0
AMP6
Text Label 14100 9550 0    60   ~ 0
AMP5
Text Label 14100 9350 0    60   ~ 0
AMP4
Text Label 14100 9150 0    60   ~ 0
AMP3
Text Label 14100 8950 0    60   ~ 0
AMP2
Text Label 14100 8750 0    60   ~ 0
AMP1
Text GLabel 13550 8750 0    60   Input ~ 0
AMP1
Text Label 9550 3100 2    60   ~ 0
ON PULSE
Text Label 6350 3100 2    60   ~ 0
ON PULSE
Text Label 2800 3100 2    60   ~ 0
ON PULSE
Text Label 2800 6150 2    60   ~ 0
ON PULSE
Text Label 6150 6100 2    60   ~ 0
ON PULSE
Text Label 14100 8550 0    60   ~ 0
ON PULSE
Text Label 9600 6150 2    60   ~ 0
ON PULSE
Text GLabel 13850 8550 0    60   Input ~ 0
ON PULSE
$Comp
L MOSFET-NCH_SOT-23 Q6
U 1 1 511B0845
P 10100 6000
F 0 "Q6" H 9750 6100 50  0000 L BNN
F 1 "IRLML2803PbF" H 9750 6000 50  0000 L BNN
F 2 "ipc-7351-transistor-SOT95P280X135-3N" H 10100 6150 50  0001 C CNN
	1    10100 6000
	1    0    0    -1  
$EndComp
$Comp
L R R38
U 1 1 511B0844
P 9800 6450
F 0 "R38" V 9880 6450 50  0000 C CNN
F 1 "100k" V 9800 6450 50  0000 C CNN
	1    9800 6450
	1    0    0    -1  
$EndComp
$Comp
L GND #PWR033
U 1 1 511B0843
P 9800 6800
F 0 "#PWR033" H 9800 6800 30  0001 C CNN
F 1 "GND" H 9800 6730 30  0001 C CNN
	1    9800 6800
	1    0    0    -1  
$EndComp
$Comp
L R R40
U 1 1 511B0842
P 10450 4700
F 0 "R40" V 10530 4700 50  0000 C CNN
F 1 "18" V 10450 4700 50  0000 C CNN
	1    10450 4700
	1    0    0    -1  
$EndComp
$Comp
L R R42
U 1 1 511B0841
P 11800 4700
F 0 "R42" V 11880 4700 50  0000 C CNN
F 1 "10k" V 11800 4700 50  0000 C CNN
	1    11800 4700
	1    0    0    -1  
$EndComp
$Comp
L GND #PWR034
U 1 1 511B083F
P 11800 5800
F 0 "#PWR034" H 11800 5800 30  0001 C CNN
F 1 "GND" H 11800 5730 30  0001 C CNN
	1    11800 5800
	1    0    0    -1  
$EndComp
$Comp
L OPTO-TRANSISTOR4 U14
U 1 1 511B083E
P 11150 5400
F 0 "U14" H 11350 5650 60  0000 C CNN
F 1 "TCRT1000" H 11150 5150 60  0000 C CNN
	1    11150 5400
	1    0    0    -1  
$EndComp
$Comp
L OPTO-TRANSISTOR4 U12
U 1 1 511B0810
P 7850 5400
F 0 "U12" H 8050 5650 60  0000 C CNN
F 1 "TCRT1000" H 7850 5150 60  0000 C CNN
	1    7850 5400
	1    0    0    -1  
$EndComp
$Comp
L GND #PWR035
U 1 1 511B080F
P 8500 5800
F 0 "#PWR035" H 8500 5800 30  0001 C CNN
F 1 "GND" H 8500 5730 30  0001 C CNN
	1    8500 5800
	1    0    0    -1  
$EndComp
$Comp
L R R32
U 1 1 511B080D
P 8500 4700
F 0 "R32" V 8580 4700 50  0000 C CNN
F 1 "10k" V 8500 4700 50  0000 C CNN
	1    8500 4700
	1    0    0    -1  
$EndComp
$Comp
L R R30
U 1 1 511B080C
P 7150 4700
F 0 "R30" V 7230 4700 50  0000 C CNN
F 1 "18" V 7150 4700 50  0000 C CNN
	1    7150 4700
	1    0    0    -1  
$EndComp
$Comp
L GND #PWR036
U 1 1 511B080B
P 6500 6800
F 0 "#PWR036" H 6500 6800 30  0001 C CNN
F 1 "GND" H 6500 6730 30  0001 C CNN
	1    6500 6800
	1    0    0    -1  
$EndComp
$Comp
L R R28
U 1 1 511B080A
P 6500 6450
F 0 "R28" V 6580 6450 50  0000 C CNN
F 1 "100k" V 6500 6450 50  0000 C CNN
	1    6500 6450
	1    0    0    -1  
$EndComp
$Comp
L MOSFET-NCH_SOT-23 Q4
U 1 1 511B0809
P 6800 6000
F 0 "Q4" H 6450 6100 50  0000 L BNN
F 1 "IRLML2803PbF" H 6450 6000 50  0000 L BNN
F 2 "ipc-7351-transistor-SOT95P280X135-3N" H 6800 6150 50  0001 C CNN
	1    6800 6000
	1    0    0    -1  
$EndComp
$Comp
L MOSFET-NCH_SOT-23 Q2
U 1 1 511B07EA
P 3400 6000
F 0 "Q2" H 3050 6100 50  0000 L BNN
F 1 "IRLML2803PbF" H 3050 6000 50  0000 L BNN
F 2 "ipc-7351-transistor-SOT95P280X135-3N" H 3400 6150 50  0001 C CNN
	1    3400 6000
	1    0    0    -1  
$EndComp
$Comp
L R R14
U 1 1 511B07E9
P 3100 6450
F 0 "R14" V 3180 6450 50  0000 C CNN
F 1 "100k" V 3100 6450 50  0000 C CNN
	1    3100 6450
	1    0    0    -1  
$EndComp
$Comp
L GND #PWR037
U 1 1 511B07E8
P 3100 6800
F 0 "#PWR037" H 3100 6800 30  0001 C CNN
F 1 "GND" H 3100 6730 30  0001 C CNN
	1    3100 6800
	1    0    0    -1  
$EndComp
$Comp
L R R16
U 1 1 511B07E7
P 3750 4700
F 0 "R16" V 3830 4700 50  0000 C CNN
F 1 "18" V 3750 4700 50  0000 C CNN
	1    3750 4700
	1    0    0    -1  
$EndComp
$Comp
L R R26
U 1 1 511B07E6
P 5100 4700
F 0 "R26" V 5180 4700 50  0000 C CNN
F 1 "10k" V 5100 4700 50  0000 C CNN
	1    5100 4700
	1    0    0    -1  
$EndComp
$Comp
L GND #PWR038
U 1 1 511B07E4
P 5100 5800
F 0 "#PWR038" H 5100 5800 30  0001 C CNN
F 1 "GND" H 5100 5730 30  0001 C CNN
	1    5100 5800
	1    0    0    -1  
$EndComp
$Comp
L OPTO-TRANSISTOR4 U9
U 1 1 511B07E3
P 4450 5400
F 0 "U9" H 4650 5650 60  0000 C CNN
F 1 "TCRT1000" H 4450 5150 60  0000 C CNN
	1    4450 5400
	1    0    0    -1  
$EndComp
$Comp
L OPTO-TRANSISTOR4 U13
U 1 1 511B0784
P 11150 2400
F 0 "U13" H 11350 2650 60  0000 C CNN
F 1 "TCRT1000" H 11150 2150 60  0000 C CNN
	1    11150 2400
	1    0    0    -1  
$EndComp
$Comp
L GND #PWR039
U 1 1 511B0783
P 11800 2800
F 0 "#PWR039" H 11800 2800 30  0001 C CNN
F 1 "GND" H 11800 2730 30  0001 C CNN
	1    11800 2800
	1    0    0    -1  
$EndComp
$Comp
L R R41
U 1 1 511B0781
P 11800 1700
F 0 "R41" V 11880 1700 50  0000 C CNN
F 1 "10k" V 11800 1700 50  0000 C CNN
	1    11800 1700
	1    0    0    -1  
$EndComp
$Comp
L R R39
U 1 1 511B0780
P 10450 1700
F 0 "R39" V 10530 1700 50  0000 C CNN
F 1 "18" V 10450 1700 50  0000 C CNN
	1    10450 1700
	1    0    0    -1  
$EndComp
$Comp
L GND #PWR040
U 1 1 511B077F
P 9800 3800
F 0 "#PWR040" H 9800 3800 30  0001 C CNN
F 1 "GND" H 9800 3730 30  0001 C CNN
	1    9800 3800
	1    0    0    -1  
$EndComp
$Comp
L R R37
U 1 1 511B077E
P 9800 3450
F 0 "R37" V 9880 3450 50  0000 C CNN
F 1 "100k" V 9800 3450 50  0000 C CNN
	1    9800 3450
	1    0    0    -1  
$EndComp
$Comp
L MOSFET-NCH_SOT-23 Q5
U 1 1 511B077D
P 10100 3000
F 0 "Q5" H 9750 3100 50  0000 L BNN
F 1 "IRLML2803PbF" H 9750 3000 50  0000 L BNN
F 2 "ipc-7351-transistor-SOT95P280X135-3N" H 10100 3150 50  0001 C CNN
	1    10100 3000
	1    0    0    -1  
$EndComp
$Comp
L MOSFET-NCH_SOT-23 Q3
U 1 1 511B0775
P 6800 3000
F 0 "Q3" H 6450 3100 50  0000 L BNN
F 1 "IRLML2803PbF" H 6450 3000 50  0000 L BNN
F 2 "ipc-7351-transistor-SOT95P280X135-3N" H 6800 3150 50  0001 C CNN
	1    6800 3000
	1    0    0    -1  
$EndComp
$Comp
L R R27
U 1 1 511B0774
P 6500 3450
F 0 "R27" V 6580 3450 50  0000 C CNN
F 1 "100k" V 6500 3450 50  0000 C CNN
	1    6500 3450
	1    0    0    -1  
$EndComp
$Comp
L GND #PWR041
U 1 1 511B0773
P 6500 3800
F 0 "#PWR041" H 6500 3800 30  0001 C CNN
F 1 "GND" H 6500 3730 30  0001 C CNN
	1    6500 3800
	1    0    0    -1  
$EndComp
$Comp
L R R29
U 1 1 511B0772
P 7150 1700
F 0 "R29" V 7230 1700 50  0000 C CNN
F 1 "18" V 7150 1700 50  0000 C CNN
	1    7150 1700
	1    0    0    -1  
$EndComp
$Comp
L R R31
U 1 1 511B0771
P 8500 1700
F 0 "R31" V 8580 1700 50  0000 C CNN
F 1 "10k" V 8500 1700 50  0000 C CNN
	1    8500 1700
	1    0    0    -1  
$EndComp
$Comp
L GND #PWR042
U 1 1 511B076F
P 8500 2800
F 0 "#PWR042" H 8500 2800 30  0001 C CNN
F 1 "GND" H 8500 2730 30  0001 C CNN
	1    8500 2800
	1    0    0    -1  
$EndComp
$Comp
L OPTO-TRANSISTOR4 U11
U 1 1 511B076E
P 7850 2400
F 0 "U11" H 8050 2650 60  0000 C CNN
F 1 "TCRT1000" H 7850 2150 60  0000 C CNN
	1    7850 2400
	1    0    0    -1  
$EndComp
$Comp
L OPTO-TRANSISTOR4 U8
U 1 1 511B050F
P 4450 2400
F 0 "U8" H 4650 2650 60  0000 C CNN
F 1 "TCRT1000" H 4450 2150 60  0000 C CNN
	1    4450 2400
	1    0    0    -1  
$EndComp
Text GLabel 13550 9750 0    60   Input ~ 0
AMP6
Text GLabel 13550 9550 0    60   Input ~ 0
AMP5
Text GLabel 13550 9350 0    60   Input ~ 0
AMP4
Text GLabel 13550 9150 0    60   Input ~ 0
AMP3
Text GLabel 13550 8950 0    60   Input ~ 0
AMP2
$Comp
L GND #PWR043
U 1 1 5112B8F7
P 5100 2800
F 0 "#PWR043" H 5100 2800 30  0001 C CNN
F 1 "GND" H 5100 2730 30  0001 C CNN
	1    5100 2800
	1    0    0    -1  
$EndComp
$Comp
L R R25
U 1 1 5112B853
P 5100 1700
F 0 "R25" V 5180 1700 50  0000 C CNN
F 1 "10k" V 5100 1700 50  0000 C CNN
	1    5100 1700
	1    0    0    -1  
$EndComp
$Comp
L R R15
U 1 1 5112B825
P 3750 1700
F 0 "R15" V 3830 1700 50  0000 C CNN
F 1 "18" V 3750 1700 50  0000 C CNN
	1    3750 1700
	1    0    0    -1  
$EndComp
$Comp
L GND #PWR044
U 1 1 5112B7C0
P 3100 3800
F 0 "#PWR044" H 3100 3800 30  0001 C CNN
F 1 "GND" H 3100 3730 30  0001 C CNN
	1    3100 3800
	1    0    0    -1  
$EndComp
$Comp
L R R13
U 1 1 5112B7B6
P 3100 3450
F 0 "R13" V 3180 3450 50  0000 C CNN
F 1 "100k" V 3100 3450 50  0000 C CNN
	1    3100 3450
	1    0    0    -1  
$EndComp
$Comp
L MOSFET-NCH_SOT-23 Q1
U 1 1 5112B7AF
P 3400 3000
F 0 "Q1" H 3050 3100 50  0000 L BNN
F 1 "IRLML2803PbF" H 3050 3000 50  0000 L BNN
F 2 "ipc-7351-transistor-SOT95P280X135-3N" H 3400 3150 50  0001 C CNN
	1    3400 3000
	1    0    0    -1  
$EndComp
$EndSCHEMATC
