EESchema Schematic File Version 2  date Fri 19 Apr 2013 17:10:57 COT
LIBS:power
LIBS:device
LIBS:transistors
LIBS:conn
LIBS:linear
LIBS:regul
LIBS:74xx
LIBS:cmos4000
LIBS:adc-dac
LIBS:memory
LIBS:xilinx
LIBS:special
LIBS:microcontrollers
LIBS:dsp
LIBS:microchip
LIBS:analog_switches
LIBS:motorola
LIBS:texas
LIBS:intel
LIBS:audio
LIBS:interface
LIBS:digital-audio
LIBS:philips
LIBS:display
LIBS:cypress
LIBS:siliconi
LIBS:opto
LIBS:atmel
LIBS:contrib
LIBS:valves
LIBS:ipc-7351-transistor
LIBS:LM3485
LIBS:transistor-arrays
LIBS:mc74hc595a
LIBS:PCB-cache
LIBS:irf9333
LIBS:mcp73831
LIBS:usb_a
LIBS:usba-plug
LIBS:usbconn
LIBS:usb-mini
LIBS:con-jack
LIBS:csd16323q3
LIBS:MCP73837
LIBS:baw101
LIBS:ovsrrgbcc3
LIBS:mcp6l04
LIBS:irf5803
LIBS:mcp6l02
LIBS:xc6216
LIBS:bat_con
LIBS:mbrb2515lt4g
LIBS:lf50cdt
LIBS:lm3478
LIBS:PCB-cache
EELAYER 25  0
EELAYER END
$Descr A4 11700 8267
encoding utf-8
Sheet 2 4
Title ""
Date "19 apr 2013"
Rev ""
Comp ""
Comment1 ""
Comment2 ""
Comment3 ""
Comment4 ""
$EndDescr
$Comp
L CP1 C11
U 1 1 515C4C5F
P 10550 5800
F 0 "C11" H 10600 5900 50  0000 L CNN
F 1 "10uF" H 10600 5700 50  0000 L CNN
	1    10550 5800
	1    0    0    -1  
$EndComp
NoConn ~ 7350 1600
Wire Wire Line
	3500 2400 3500 2900
Wire Wire Line
	9550 5300 9550 5450
Wire Wire Line
	9250 5300 9250 5450
Connection ~ 9400 6350
Wire Wire Line
	9250 5450 7150 5450
Connection ~ 10620 1475
Wire Wire Line
	10620 1475 10830 1475
Wire Wire Line
	10620 650  9350 650 
Wire Wire Line
	10620 650  10620 1000
Wire Wire Line
	10625 1435 10625 1475
Wire Wire Line
	10625 1475 10400 1475
Wire Wire Line
	10400 1475 10400 1300
Wire Wire Line
	10400 1300 10300 1300
Wire Wire Line
	8900 1750 8900 1300
Connection ~ 9550 1300
Wire Wire Line
	9550 1300 9550 1800
Wire Wire Line
	9550 1800 10200 1800
Connection ~ 10100 650 
Wire Wire Line
	9700 1300 7350 1300
Connection ~ 10550 5450
Connection ~ 8150 5450
Connection ~ 7150 5450
Connection ~ 8900 1300
Wire Wire Line
	8550 2950 8550 2250
Wire Wire Line
	7700 1900 7700 1700
Wire Wire Line
	7700 1700 7350 1700
Wire Wire Line
	8550 1750 8550 1400
Wire Wire Line
	8550 1400 7350 1400
Wire Wire Line
	7350 1500 7650 1500
Connection ~ 4000 2800
Wire Wire Line
	4200 2800 4000 2800
Wire Wire Line
	4600 3100 4850 3100
Wire Wire Line
	4600 2500 4850 2500
Wire Wire Line
	6100 1600 5650 1600
Wire Wire Line
	5650 1600 5650 2800
Wire Wire Line
	5650 2800 5350 2800
Wire Wire Line
	2350 1300 2350 1350
Connection ~ 7150 5550
Wire Wire Line
	7150 4050 7150 5850
Wire Wire Line
	6950 5550 7150 5550
Connection ~ 6000 5200
Wire Wire Line
	6200 5700 6000 5700
Wire Wire Line
	6000 5700 6000 4300
Connection ~ 6000 5000
Wire Wire Line
	6000 5000 5900 5000
Wire Wire Line
	6000 5200 5900 5200
Wire Wire Line
	5900 4900 6000 4900
Connection ~ 4900 5100
Wire Wire Line
	4950 5100 4900 5100
Wire Wire Line
	4100 4900 4950 4900
Connection ~ 3450 4050
Wire Wire Line
	3800 4050 3450 4050
Connection ~ 4300 6900
Wire Wire Line
	4900 6900 4900 6550
Wire Wire Line
	4300 6050 4300 5800
Connection ~ 3450 6900
Wire Wire Line
	3700 6900 3700 6550
Connection ~ 2550 6900
Wire Wire Line
	3200 6900 3200 5750
Connection ~ 2000 6900
Wire Wire Line
	2000 6900 2000 5800
Connection ~ 1450 4900
Wire Wire Line
	1450 5400 1450 4900
Wire Wire Line
	2550 6900 2550 6550
Connection ~ 2550 5100
Wire Wire Line
	2000 5400 2000 5100
Wire Wire Line
	2000 5100 2750 5100
Connection ~ 1550 1500
Wire Wire Line
	1450 1400 1550 1400
Wire Wire Line
	1550 1500 1450 1500
Wire Wire Line
	1550 1400 1550 1700
Wire Wire Line
	2550 5400 2550 5100
Wire Wire Line
	2550 6050 2550 5800
Wire Wire Line
	900  4900 900  5400
Wire Wire Line
	900  5800 900  6900
Wire Wire Line
	1450 5800 1450 6900
Connection ~ 1450 6900
Connection ~ 3200 6900
Wire Wire Line
	3700 5750 3700 6050
Wire Wire Line
	4100 5100 4300 5100
Wire Wire Line
	4300 5100 4300 5300
Wire Wire Line
	4300 6900 4300 6450
Connection ~ 3700 6900
Wire Wire Line
	4900 5950 4300 5950
Connection ~ 4300 5950
Wire Wire Line
	3450 4450 3450 3700
Wire Wire Line
	3450 3700 3800 3700
Wire Wire Line
	4550 3850 4550 3700
Wire Wire Line
	4550 3700 4300 3700
Wire Wire Line
	2200 4300 2000 4300
Wire Wire Line
	2000 4300 2000 4900
Connection ~ 2000 4900
Wire Wire Line
	4900 6050 4900 5000
Wire Wire Line
	4900 5000 4950 5000
Connection ~ 4900 5950
Wire Wire Line
	4900 5200 4950 5200
Connection ~ 4900 5200
Wire Wire Line
	6000 5100 5900 5100
Connection ~ 6000 5100
Wire Wire Line
	6000 4300 2800 4300
Connection ~ 6000 4900
Wire Wire Line
	8150 5450 8150 5600
Wire Wire Line
	8150 6000 8150 6350
Wire Wire Line
	8150 6350 10550 6350
Wire Wire Line
	10550 6350 10550 6000
Wire Wire Line
	6000 5400 6200 5400
Connection ~ 6000 5400
Wire Wire Line
	7150 6250 7150 6900
Wire Wire Line
	7150 6900 900  6900
Connection ~ 4900 6900
Wire Wire Line
	2350 1950 2350 1750
Wire Wire Line
	6100 1500 5550 1500
Wire Wire Line
	5550 1500 5550 2500
Wire Wire Line
	5550 2500 5350 2500
Wire Wire Line
	6100 1700 5750 1700
Wire Wire Line
	5750 1700 5750 3100
Wire Wire Line
	5750 3100 5350 3100
Wire Wire Line
	4850 2800 4600 2800
Wire Wire Line
	6100 1300 1450 1300
Connection ~ 2350 1300
Wire Wire Line
	3450 7300 3450 5750
Wire Wire Line
	3500 2900 4000 2900
Wire Wire Line
	4200 2500 4000 2500
Wire Wire Line
	4000 3100 4200 3100
Connection ~ 4000 2900
Connection ~ 3500 1300
Wire Wire Line
	8900 2750 8900 2150
Wire Wire Line
	7700 2400 7700 2750
Connection ~ 8550 2750
Wire Wire Line
	4000 2500 4000 3400
Wire Wire Line
	4000 3400 4600 3400
Connection ~ 4000 3100
Connection ~ 8900 2300
Wire Wire Line
	750  4900 2750 4900
Connection ~ 900  4900
Wire Wire Line
	7450 4050 4300 4050
Connection ~ 7150 4050
Wire Wire Line
	10550 5250 10550 5600
Wire Wire Line
	10100 650  10100 1000
Wire Wire Line
	9350 2750 9350 2250
Connection ~ 8900 2750
Wire Wire Line
	10200 2200 9700 2200
Wire Wire Line
	9700 2200 9700 2750
Wire Wire Line
	9700 2750 7700 2750
Connection ~ 9350 2750
Wire Wire Line
	9350 650  9350 1750
Connection ~ 9550 1400
Wire Wire Line
	10520 1475 10520 1435
Connection ~ 10520 1475
Wire Wire Line
	10520 1000 10520 935 
Wire Wire Line
	10520 935  10620 935 
Connection ~ 10620 935 
Wire Wire Line
	9705 1400 9550 1400
Wire Wire Line
	9550 5450 10550 5450
Wire Wire Line
	9450 6350 9450 6550
Connection ~ 9450 6350
Wire Wire Line
	9400 5300 9400 6350
Wire Wire Line
	3500 2000 3500 1300
$Comp
L DIODE D5
U 1 1 515C40AE
P 3500 2200
F 0 "D5" H 3500 2300 40  0000 C CNN
F 1 "DIODE" H 3500 2100 40  0000 C CNN
	1    3500 2200
	0    1    1    0   
$EndComp
$Comp
L LF50CDT U5
U 1 1 515B56C2
P 9400 4850
F 0 "U5" H 9800 4900 60  0000 C CNN
F 1 "LF50CDT" H 9400 4950 60  0000 C CNN
	1    9400 4850
	1    0    0    -1  
$EndComp
$Comp
L SCHDIODE D4
U 1 1 51492F30
P 6750 5550
F 0 "D4" H 6750 5650 40  0000 C CNN
F 1 "SCHDIODE" H 6750 5450 40  0000 C CNN
	1    6750 5550
	1    0    0    -1  
$EndComp
$Comp
L BAT_CON CON1
U 1 1 51492DE7
P 10550 2000
F 0 "CON1" H 10550 1950 60  0000 C CNN
F 1 "BAT_CON" H 10550 2050 60  0000 C CNN
	1    10550 2000
	1    0    0    -1  
$EndComp
$Comp
L IRF5803 U6
U 1 1 51423ED8
P 9725 1025
F 0 "U6" H 9225 775 50  0000 L BNN
F 1 "IRF5803" H 9645 1000 50  0000 L BNN
F 2 "irf5803" H 8675 1175 50  0001 C CNN
	1    9725 1025
	1    0    0    -1  
$EndComp
$Comp
L LM3478 U1
U 1 1 5137E5E9
P 3350 4300
F 0 "U1" H 3650 3950 60  0000 C CNN
F 1 "LM3478" H 3150 3950 60  0000 C CNN
	1    3350 4300
	1    0    0    -1  
$EndComp
Text Label 750  4900 0    60   ~ 0
V6
Text Label 10830 1475 0    60   ~ 0
V6
Text Label 4600 3400 0    60   ~ 0
V_IN
Text Label 9750 650  0    60   ~ 0
V_IN
$Comp
L R R12
U 1 1 512254D6
P 9350 2000
F 0 "R12" V 9430 2000 50  0000 C CNN
F 1 "100k" V 9350 2000 50  0000 C CNN
	1    9350 2000
	1    0    0    -1  
$EndComp
$Comp
L +5V #PWR07
U 1 1 511D7597
P 10550 5250
F 0 "#PWR07" H 10550 5340 20  0001 C CNN
F 1 "+5V" H 10550 5340 30  0000 C CNN
	1    10550 5250
	1    0    0    -1  
$EndComp
Text GLabel 7450 4050 2    60   Input ~ 0
VMOTOR
$Comp
L GND #PWR08
U 1 1 511BA0B2
P 8550 2950
F 0 "#PWR08" H 8550 2950 30  0001 C CNN
F 1 "GND" H 8550 2880 30  0001 C CNN
	1    8550 2950
	1    0    0    -1  
$EndComp
$Comp
L R R10
U 1 1 511BA096
P 7700 2150
F 0 "R10" V 7780 2150 50  0000 C CNN
F 1 "1k" V 7700 2150 50  0000 C CNN
	1    7700 2150
	1    0    0    -1  
$EndComp
$Comp
L R R11
U 1 1 511BA07B
P 8550 2000
F 0 "R11" V 8630 2000 50  0000 C CNN
F 1 "10k" V 8550 2000 50  0000 C CNN
	1    8550 2000
	1    0    0    -1  
$EndComp
$Comp
L GND #PWR09
U 1 1 511B9F85
P 7650 1500
F 0 "#PWR09" H 7650 1500 30  0001 C CNN
F 1 "GND" H 7650 1430 30  0001 C CNN
	1    7650 1500
	0    -1   -1   0   
$EndComp
$Comp
L C C10
U 1 1 511B9739
P 8900 1950
F 0 "C10" H 8950 2050 50  0000 L CNN
F 1 "4,7uF" H 8950 1850 50  0000 L CNN
	1    8900 1950
	1    0    0    -1  
$EndComp
$Comp
L GND #PWR010
U 1 1 511B1BD1
P 3450 7300
F 0 "#PWR010" H 3450 7300 30  0001 C CNN
F 1 "GND" H 3450 7230 30  0001 C CNN
	1    3450 7300
	1    0    0    -1  
$EndComp
$Comp
L GND #PWR011
U 1 1 511B1AB3
P 2350 1950
F 0 "#PWR011" H 2350 1950 30  0001 C CNN
F 1 "GND" H 2350 1880 30  0001 C CNN
	1    2350 1950
	1    0    0    -1  
$EndComp
$Comp
L LED D3
U 1 1 511B1A1F
P 4400 3100
F 0 "D3" H 4400 3200 50  0000 C CNN
F 1 "LED" H 4400 3000 50  0000 C CNN
	1    4400 3100
	1    0    0    -1  
$EndComp
$Comp
L R R9
U 1 1 511B1A1E
P 5100 3100
F 0 "R9" V 5180 3100 50  0000 C CNN
F 1 "1k" V 5100 3100 50  0000 C CNN
	1    5100 3100
	0    1    1    0   
$EndComp
$Comp
L R R8
U 1 1 511B1A05
P 5100 2800
F 0 "R8" V 5180 2800 50  0000 C CNN
F 1 "1k" V 5100 2800 50  0000 C CNN
	1    5100 2800
	0    1    1    0   
$EndComp
$Comp
L LED D2
U 1 1 511B1A04
P 4400 2800
F 0 "D2" H 4400 2900 50  0000 C CNN
F 1 "LED" H 4400 2700 50  0000 C CNN
	1    4400 2800
	1    0    0    -1  
$EndComp
$Comp
L MCP73837 U4
U 1 1 511B185F
P 5750 1950
F 0 "U4" H 6750 2950 60  0000 C CNN
F 1 "MCP73837" H 6750 2850 50  0000 C CNN
	1    5750 1950
	1    0    0    -1  
$EndComp
$Comp
L GND #PWR012
U 1 1 511AFBA6
P 9450 6550
F 0 "#PWR012" H 9450 6550 30  0001 C CNN
F 1 "GND" H 9450 6480 30  0001 C CNN
	1    9450 6550
	1    0    0    -1  
$EndComp
$Comp
L C C9
U 1 1 511AFB6B
P 8150 5800
F 0 "C9" H 8200 5900 50  0000 L CNN
F 1 "0,1uF" H 8200 5700 50  0000 L CNN
	1    8150 5800
	1    0    0    -1  
$EndComp
$Comp
L CSD16323Q3 U3
U 1 1 511AF73B
P 5400 5400
F 0 "U3" H 5400 4750 60  0000 C CNN
F 1 "CSD16323Q3" H 5450 5350 60  0000 C CNN
	1    5400 5400
	1    0    0    1   
$EndComp
$Comp
L CP1 C8
U 1 1 511AF315
P 7150 6050
F 0 "C8" H 7200 6150 50  0000 L CNN
F 1 "330uF" H 7200 5950 50  0000 L CNN
	1    7150 6050
	1    0    0    -1  
$EndComp
$Comp
L GND #PWR013
U 1 1 511AF2EA
P 4550 3850
F 0 "#PWR013" H 4550 3850 30  0001 C CNN
F 1 "GND" H 4550 3780 30  0001 C CNN
	1    4550 3850
	1    0    0    -1  
$EndComp
$Comp
L INDUCTOR L1
U 1 1 511ACE39
P 2500 4300
F 0 "L1" V 2450 4300 40  0000 C CNN
F 1 "INDUCTOR 5.6 uH" V 2600 4300 40  0000 C CNN
	1    2500 4300
	0    1    1    0   
$EndComp
$Comp
L R R3
U 1 1 511ACE2E
P 4050 3700
F 0 "R3" V 4130 3700 50  0000 C CNN
F 1 "1K" V 4050 3700 50  0000 C CNN
	1    4050 3700
	0    1    1    0   
$EndComp
$Comp
L R R4
U 1 1 511ACE28
P 4050 4050
F 0 "R4" V 4130 4050 50  0000 C CNN
F 1 "3,74k" V 4050 4050 50  0000 C CNN
	1    4050 4050
	0    1    1    0   
$EndComp
$Comp
L R R6
U 1 1 511ACCAB
P 4900 6300
F 0 "R6" V 4980 6300 50  0000 C CNN
F 1 "8m" V 4900 6300 50  0000 C CNN
	1    4900 6300
	1    0    0    -1  
$EndComp
$Comp
L C C7
U 1 1 511ACC88
P 4300 6250
F 0 "C7" H 4350 6350 50  0000 L CNN
F 1 "10nF" H 4350 6150 50  0000 L CNN
	1    4300 6250
	1    0    0    -1  
$EndComp
$Comp
L R R5
U 1 1 511ACC80
P 4300 5550
F 0 "R5" V 4380 5550 50  0000 C CNN
F 1 "100" V 4300 5550 50  0000 C CNN
	1    4300 5550
	1    0    0    -1  
$EndComp
$Comp
L R R2
U 1 1 511ACC64
P 3700 6300
F 0 "R2" V 3780 6300 50  0000 C CNN
F 1 "127k" V 3700 6300 50  0000 C CNN
	1    3700 6300
	1    0    0    -1  
$EndComp
$Comp
L R R1
U 1 1 511ACBB1
P 2550 6300
F 0 "R1" V 2630 6300 50  0000 C CNN
F 1 "1.4k" V 2550 6300 50  0000 C CNN
	1    2550 6300
	1    0    0    -1  
$EndComp
$Comp
L C C5
U 1 1 511ACBAA
P 2550 5600
F 0 "C5" H 2600 5700 50  0000 L CNN
F 1 "150nF" H 2600 5500 50  0000 L CNN
	1    2550 5600
	1    0    0    -1  
$EndComp
$Comp
L C C3
U 1 1 511ACBA5
P 2000 5600
F 0 "C3" H 2050 5700 50  0000 L CNN
F 1 "6.8nF" H 2050 5500 50  0000 L CNN
	1    2000 5600
	1    0    0    -1  
$EndComp
$Comp
L C C2
U 1 1 511ACBA0
P 1450 5600
F 0 "C2" H 1500 5700 50  0000 L CNN
F 1 "100nF" H 1500 5500 50  0000 L CNN
	1    1450 5600
	1    0    0    -1  
$EndComp
$Comp
L CP1 C1
U 1 1 511ACB96
P 900 5600
F 0 "C1" H 950 5700 50  0000 L CNN
F 1 "470uF" H 950 5500 50  0000 L CNN
	1    900  5600
	1    0    0    -1  
$EndComp
$Comp
L GND #PWR014
U 1 1 511ABFB7
P 1550 1700
F 0 "#PWR014" H 1550 1700 30  0001 C CNN
F 1 "GND" H 1550 1630 30  0001 C CNN
	1    1550 1700
	1    0    0    -1  
$EndComp
$Comp
L JACK-PLUG0 J1
U 1 1 511ABF32
P 1250 1400
F 0 "J1" H 950 1600 50  0000 L BNN
F 1 "JACK-PLUG0" H 950 1200 50  0000 L BNN
F 2 "con-jack-SPC4077" H 1250 1550 50  0001 C CNN
	1    1250 1400
	1    0    0    -1  
$EndComp
$Comp
L LED D1
U 1 1 511AB3A3
P 4400 2500
F 0 "D1" H 4400 2600 50  0000 C CNN
F 1 "LED" H 4400 2400 50  0000 C CNN
	1    4400 2500
	1    0    0    -1  
$EndComp
$Comp
L R R7
U 1 1 511AB384
P 5100 2500
F 0 "R7" V 5180 2500 50  0000 C CNN
F 1 "1k" V 5100 2500 50  0000 C CNN
	1    5100 2500
	0    1    1    0   
$EndComp
$Comp
L C C4
U 1 1 511AB2B1
P 2350 1550
F 0 "C4" H 2400 1650 50  0000 L CNN
F 1 "4,7uF" H 2400 1450 50  0000 L CNN
	1    2350 1550
	1    0    0    -1  
$EndComp
$EndSCHEMATC
