PCBNEW-BOARD Version 1 date Wed Oct 10 01:30:11 2012

# Created by Pcbnew(2012-jan-04)-stable

$GENERAL
encoding utf-8
LayerCount 2
Ly 1FFF8001
EnabledLayers 1FFF8001
Links 16
NoConn 0
Di 15601 9849 22551 15551
Ndraw 5
Ntrack 69
Nzone 0
BoardThickness 630
Nmodule 7
Nnets 9
$EndGENERAL

$SHEETDESCR
Sheet A4 11700 8267
Title ""
Date "10 oct 2012"
Rev ""
Comp ""
Comment1 ""
Comment2 ""
Comment3 ""
Comment4 ""
$EndSHEETDESCR

$SETUP
InternalUnit 0.000100 INCH
Layers 2
Layer[0] Back signal
Layer[15] Front signal
TrackWidth 80
TrackClearence 59
ZoneClearence 121
TrackMinWidth 59
DrawSegmWidth 150
EdgeSegmWidth 150
ViaSize 197
ViaDrill 79
ViaMinSize 197
ViaMinDrill 79
MicroViaSize 197
MicroViaDrill 79
MicroViasAllowed 0
MicroViaMinSize 197
MicroViaMinDrill 79
TextPcbWidth 120
TextPcbSize 600 800
EdgeModWidth 150
TextModSize 600 600
TextModWidth 120
PadSize 600 600
PadDrill 320
Pad2MaskClearance 100
AuxiliaryAxisOrg 0 0
PcbPlotParams (pcbplotparams (layerselection 284196865) (usegerberextensions true) (excludeedgelayer true) (linewidth 60) (plotframeref false) (viasonmask false) (mode 1) (useauxorigin false) (hpglpennumber 1) (hpglpenspeed 20) (hpglpendiameter 15) (hpglpenoverlay 0) (pscolor true) (psnegative false) (psa4output false) (plotreference true) (plotvalue true) (plotothertext true) (plotinvisibletext false) (padsonsilk false) (subtractmaskfromsilk false) (outputformat 1) (mirror false) (drillshape 1) (scaleselection 1) (outputdirectory ""))
$EndSETUP

$EQUIPOT
Na 0 ""
St ~
$EndEQUIPOT
$EQUIPOT
Na 1 "GMTR"
St ~
$EndEQUIPOT
$EQUIPOT
Na 2 "IN1"
St ~
$EndEQUIPOT
$EQUIPOT
Na 3 "IN2"
St ~
$EndEQUIPOT
$EQUIPOT
Na 4 "N-000001"
St ~
$EndEQUIPOT
$EQUIPOT
Na 5 "N-000008"
St ~
$EndEQUIPOT
$EQUIPOT
Na 6 "OUT1"
St ~
$EndEQUIPOT
$EQUIPOT
Na 7 "OUT2"
St ~
$EndEQUIPOT
$EQUIPOT
Na 8 "VMTR"
St ~
$EndEQUIPOT
$NCLASS
Name "Default"
Desc "This is the default net class."
Clearance 59
TrackWidth 80
ViaDia 197
ViaDrill 79
uViaDia 197
uViaDrill 79
AddNet ""
AddNet "IN1"
AddNet "IN2"
$EndNCLASS
$NCLASS
Name "ANALOGUE"
Desc ""
Clearance 59
TrackWidth 394
ViaDia 197
ViaDrill 79
uViaDia 197
uViaDrill 79
AddNet "GMTR"
AddNet "N-000001"
AddNet "N-000008"
AddNet "OUT1"
AddNet "OUT2"
AddNet "VMTR"
$EndNCLASS
$MODULE SOT23
Po 20250 12700 1800 0 50053B6F 5074EDF6 ~~
Li SOT23
Kw SOT23
Sc 5074EDF6
AR /5074E3BB
Op 0 0 0
T0 787 39 300 300 4500 30 M V 20 N "Q1"
T1 25 0 197 197 1800 30 M V 20 N "BS170F"
DS -200 -300 -500 -100 50 20
DS 500 -300 -525 -300 50 20
DS -525 -300 -525 300 50 20
DS -525 300 500 300 50 20
DS 500 300 500 -300 50 20
$PAD
Sh "3" R 276 394 0 0 1800
Dr 0 0 0
At SMD N 00440001
Ne 5 "N-000008"
Po 0 500
$EndPAD
$PAD
Sh "2" R 276 394 0 0 1800
Dr 0 0 0
At SMD N 00440001
Ne 1 "GMTR"
Po 375 -500
$EndPAD
$PAD
Sh "1" R 276 394 0 0 1800
Dr 0 0 0
At SMD N 00440001
Ne 2 "IN1"
Po -375 -500
$EndPAD
$SHAPE3D
Na "smd\\SOT23_3.wrl"
Sc 0.400000 0.400000 0.400000
Of 0.000000 0.000000 0.000000
Ro 0.000000 0.000000 180.000000
$EndSHAPE3D
$EndMODULE  SOT23
$MODULE SOT23
Po 18700 12500 1800 0 50053B6F 5074EDF8 ~~
Li SOT23
Kw SOT23
Sc 5074EDF8
AR /5074E2F9
Op 0 0 0
T0 787 39 300 300 4500 30 M V 20 N "Q2"
T1 25 0 197 197 1800 30 M V 20 N "BS170F"
DS -200 -300 -500 -100 50 20
DS 500 -300 -525 -300 50 20
DS -525 -300 -525 300 50 20
DS -525 300 500 300 50 20
DS 500 300 500 -300 50 20
$PAD
Sh "3" R 276 394 0 0 1800
Dr 0 0 0
At SMD N 00440001
Ne 4 "N-000001"
Po 0 500
$EndPAD
$PAD
Sh "2" R 276 394 0 0 1800
Dr 0 0 0
At SMD N 00440001
Ne 1 "GMTR"
Po 375 -500
$EndPAD
$PAD
Sh "1" R 276 394 0 0 1800
Dr 0 0 0
At SMD N 00440001
Ne 3 "IN2"
Po -375 -500
$EndPAD
$SHAPE3D
Na "smd\\SOT23_3.wrl"
Sc 0.400000 0.400000 0.400000
Of 0.000000 0.000000 0.000000
Ro 0.000000 0.000000 180.000000
$EndSHAPE3D
$EndMODULE  SOT23
$MODULE SM0603
Po 18300 10950 0 15 4E43A3D1 5074EDF9 ~~
Li SM0603
Sc 5074EDF9
AR /5074E412
Op 0 0 0
At SMD 
T0 0 0 200 180 0 45 N V 21 N "R1"
T1 0 0 200 180 0 45 N I 21 N "2.2k"
DS -450 -250 450 -250 50 21
DS 450 -250 450 250 50 21
DS 450 250 -450 250 50 21
DS -450 250 -450 -250 50 21
$PAD
Sh "1" R 250 450 0 0 0
Dr 0 0 0
At SMD N 00888000
Ne 5 "N-000008"
Po -300 0
$EndPAD
$PAD
Sh "2" R 250 450 0 0 0
Dr 0 0 0
At SMD N 00888000
Ne 8 "VMTR"
Po 300 0
$EndPAD
$SHAPE3D
Na "smd\\resistors\\R0603.wrl"
Sc 0.500000 0.500000 0.500000
Of 0.000000 0.000000 0.001000
Ro 0.000000 0.000000 0.000000
$EndSHAPE3D
$EndMODULE  SM0603
$MODULE SM0603
Po 19550 10950 0 15 4E43A3D1 5074EDFB ~~
Li SM0603
Sc 5074EDFB
AR /5074E417
Op 0 0 0
At SMD 
T0 0 0 200 180 0 45 N V 21 N "R2"
T1 0 0 200 180 0 45 N I 21 N "2.2k"
DS -450 -250 450 -250 50 21
DS 450 -250 450 250 50 21
DS 450 250 -450 250 50 21
DS -450 250 -450 -250 50 21
$PAD
Sh "1" R 250 450 0 0 0
Dr 0 0 0
At SMD N 00888000
Ne 8 "VMTR"
Po -300 0
$EndPAD
$PAD
Sh "2" R 250 450 0 0 0
Dr 0 0 0
At SMD N 00888000
Ne 4 "N-000001"
Po 300 0
$EndPAD
$SHAPE3D
Na "smd\\resistors\\R0603.wrl"
Sc 0.500000 0.500000 0.500000
Of 0.000000 0.000000 0.001000
Ro 0.000000 0.000000 0.000000
$EndSHAPE3D
$EndMODULE  SM0603
$MODULE -SO8
Po 19000 13000 0 15 507512E3 5074EE30 ~~
Li -SO8
Cd SMALL OUTLINE INTEGRATED CIRCUIT
Kw SMALL OUTLINE INTEGRATED CIRCUIT
Sc 5074EE30
AR /5074E8BB
Op 0 0 0
At SMD 
T0 -400 -200 500 500 900 35 N V 21 N "U1"
T1 1500 -750 236 236 900 35 N V 21 N "H-BRIDGE"
DS -846 1220 -653 1220 26 21
DS -653 1220 -653 787 26 21
DS -846 787 -653 787 26 21
DS -846 1220 -846 787 26 21
DS -346 1220 -153 1220 26 21
DS -153 1220 -153 787 26 21
DS -346 787 -153 787 26 21
DS -346 1220 -346 787 26 21
DS 153 1220 346 1220 26 21
DS 346 1220 346 787 26 21
DS 153 787 346 787 26 21
DS 153 1220 153 787 26 21
DS 653 1220 846 1220 26 21
DS 846 1220 846 787 26 21
DS 653 787 846 787 26 21
DS 653 1220 653 787 26 21
DS 653 -787 846 -787 26 21
DS 846 -787 846 -1220 26 21
DS 653 -1220 846 -1220 26 21
DS 653 -787 653 -1220 26 21
DS 153 -787 346 -787 26 21
DS 346 -787 346 -1220 26 21
DS 153 -1220 346 -1220 26 21
DS 153 -787 153 -1220 26 21
DS -346 -787 -153 -787 26 21
DS -153 -787 -153 -1220 26 21
DS -346 -1220 -153 -1220 26 21
DS -346 -787 -346 -1220 26 21
DS -846 -787 -653 -787 26 21
DS -653 -787 -653 -1220 26 21
DS -846 -1220 -653 -1220 26 21
DS -846 -787 -846 -1220 26 21
DS 944 -748 944 551 80 21
DS 944 551 944 748 80 21
DS 944 748 -944 748 80 21
DS -944 748 -944 551 80 21
DS -944 551 -944 -748 80 21
DS -944 -748 944 -748 80 21
DS 944 551 -944 551 80 21
$PAD
Sh "1" R 236 866 0 0 0
Dr 0 0 0
At SMD N 00888000
Ne 3 "IN2"
Po -750 1023
$EndPAD
$PAD
Sh "2" R 236 866 0 0 0
Dr 0 0 0
At SMD N 00888000
Ne 6 "OUT1"
Po -250 1023
$EndPAD
$PAD
Sh "3" R 236 866 0 0 0
Dr 0 0 0
At SMD N 00888000
Ne 1 "GMTR"
Po 250 1023
$EndPAD
$PAD
Sh "4" R 236 866 0 0 0
Dr 0 0 0
At SMD N 00888000
Ne 2 "IN1"
Po 750 1023
$EndPAD
$PAD
Sh "5" R 236 866 0 0 0
Dr 0 0 0
At SMD N 00888000
Ne 4 "N-000001"
Po 750 -1023
$EndPAD
$PAD
Sh "6" R 236 866 0 0 0
Dr 0 0 0
At SMD N 00888000
Ne 7 "OUT2"
Po 250 -1023
$EndPAD
$PAD
Sh "7" R 236 866 0 0 0
Dr 0 0 0
At SMD N 00888000
Ne 8 "VMTR"
Po -250 -1023
$EndPAD
$PAD
Sh "8" R 236 866 0 0 0
Dr 0 0 0
At SMD N 00888000
Ne 5 "N-000008"
Po -750 -1023
$EndPAD
$EndMODULE  -SO8
$MODULE PIN_ARRAY_4x1
Po 16900 12600 2700 15 507511AB 5074F0FB ~~
Li PIN_ARRAY_4x1
Cd Double rangee de contacts 2 x 5 pins
Kw CONN
Sc 5074F0FB
AR /5074EF07
Op 0 0 0
T0 2400 -100 400 400 2700 80 N V 21 N "P1"
T1 0 1000 400 400 2700 80 N I 21 N ""
DS 2000 500 -2000 500 100 21
DS 2000 -500 -2000 -500 100 21
DS -2000 -500 -2000 500 100 21
DS 2000 500 2000 -500 100 21
$PAD
Sh "1" R 600 600 0 0 2700
Dr 400 0 0
At STD N 00E0FFFF
Ne 8 "VMTR"
Po -1500 0
$EndPAD
$PAD
Sh "2" C 600 600 0 0 2700
Dr 400 0 0
At STD N 00E0FFFF
Ne 2 "IN1"
Po -500 0
$EndPAD
$PAD
Sh "3" C 600 600 0 0 2700
Dr 400 0 0
At STD N 00E0FFFF
Ne 3 "IN2"
Po 500 0
$EndPAD
$PAD
Sh "4" C 600 600 0 0 2700
Dr 400 0 0
At STD N 00E0FFFF
Ne 1 "GMTR"
Po 1500 0
$EndPAD
$SHAPE3D
Na "pin_array\\pins_array_4x1.wrl"
Sc 1.000000 1.000000 1.000000
Of 0.000000 0.000000 0.000000
Ro 0.000000 0.000000 0.000000
$EndSHAPE3D
$EndMODULE  PIN_ARRAY_4x1
$MODULE PIN_ARRAY_2X1
Po 21400 12900 2700 15 50751186 5074F0FC ~~
Li PIN_ARRAY_2X1
Cd Connecteurs 2 pins
Kw CONN DEV
Sc 5074F0FC
AR /5074EF16
Op 0 0 0
T0 -1500 -200 300 300 2700 60 N V 21 N "P2"
T1 1500 0 300 300 2700 60 N I 21 N "MOUT"
DS -1000 500 -1000 -500 60 21
DS -1000 -500 1000 -500 60 21
DS 1000 -500 1000 500 60 21
DS 1000 500 -1000 500 60 21
$PAD
Sh "1" R 600 600 0 0 2700
Dr 400 0 0
At STD N 00E0FFFF
Ne 7 "OUT2"
Po -500 0
$EndPAD
$PAD
Sh "2" C 600 600 0 0 2700
Dr 400 0 0
At STD N 00E0FFFF
Ne 6 "OUT1"
Po 500 0
$EndPAD
$SHAPE3D
Na "pin_array/pins_array_2x1.wrl"
Sc 1.000000 1.000000 1.000000
Of 0.000000 0.000000 0.000000
Ro 0.000000 0.000000 0.000000
$EndSHAPE3D
$EndMODULE  PIN_ARRAY_2X1
$DRAWSEGMENT
Po 0 22400 10000 16200 10000 150
De 28 0 900 0 0
$EndDRAWSEGMENT
$DRAWSEGMENT
Po 0 22400 15400 22400 10000 150
De 28 0 900 0 0
$EndDRAWSEGMENT
$DRAWSEGMENT
Po 0 16200 15400 22400 15400 150
De 28 0 900 0 0
$EndDRAWSEGMENT
$DRAWSEGMENT
Po 0 16200 15200 16200 15400 150
De 28 0 900 0 0
$EndDRAWSEGMENT
$DRAWSEGMENT
Po 0 16200 10000 16200 15200 150
De 28 0 900 0 0
$EndDRAWSEGMENT
$TRACK
Po 0 19250 14300 19200 14300 394 -1
De 0 0 1 0 0
Po 0 17350 14550 16900 14100 394 -1
De 0 0 1 0 800000
Po 0 18950 14550 17350 14550 394 -1
De 0 0 1 0 0
Po 0 19200 14300 18950 14550 394 -1
De 0 0 1 0 0
Po 0 19875 13200 19875 13675 394 -1
De 0 0 1 0 400000
Po 0 19250 14300 19250 14023 394 -1
De 15 0 1 0 800000
Po 3 19250 14300 19250 14300 197 -1
De 15 1 1 0 0
Po 0 19875 13675 19250 14300 394 -1
De 0 0 1 0 0
Po 0 16900 14100 17225 14100 394 -1
De 0 0 1 0 400000
Po 0 17225 14100 18325 13000 394 -1
De 0 0 1 0 800000
Po 3 16900 14100 16900 14100 197 -1
De 15 1 1 0 C00000
Po 0 16900 12100 16900 12400 80 -1
De 15 0 2 0 400000
Po 0 19500 13450 19750 13700 80 -1
De 15 0 2 0 0
Po 0 17950 13450 19500 13450 80 -1
De 15 0 2 0 0
Po 0 16900 12400 17950 13450 80 -1
De 15 0 2 0 0
Po 0 19750 13700 19750 14023 80 -1
De 15 0 2 0 800000
Po 0 20625 13475 20050 14050 80 -1
De 0 0 2 0 0
Po 3 16900 12100 16900 12100 197 -1
De 15 1 2 0 C00000
Po 0 20625 13200 20625 13475 80 -1
De 0 0 2 0 400000
Po 3 20050 14050 20050 14050 197 -1
De 15 1 2 0 0
Po 0 20050 14050 20023 14023 80 -1
De 15 0 2 0 0
Po 0 20023 14023 19750 14023 80 -1
De 15 0 2 0 800000
Po 3 16900 13100 16900 13100 197 -1
De 15 1 3 0 C00000
Po 0 18000 14023 17823 14023 80 -1
De 15 0 3 0 0
Po 0 18250 14023 18000 14023 80 -1
De 15 0 3 0 400000
Po 0 19075 13000 19000 13000 80 -1
De 0 0 3 0 400000
Po 0 18000 14000 18000 14023 80 -1
De 15 0 3 0 0
Po 0 17823 14023 16900 13100 80 -1
De 15 0 3 0 800000
Po 0 19000 13000 18000 14000 80 -1
De 0 0 3 0 0
Po 3 18000 14000 18000 14000 197 -1
De 15 1 3 0 0
Po 0 19900 11550 19850 11550 394 -1
De 15 0 4 0 0
Po 0 19850 11877 19750 11977 394 -1
De 15 0 4 0 800000
Po 0 19850 11550 19850 11877 394 -1
De 15 0 4 0 0
Po 0 19850 10950 19850 11550 394 -1
De 15 0 4 0 400000
Po 0 19850 11550 19900 11550 394 -1
De 15 0 4 0 0
Po 3 19850 11550 19850 11550 197 -1
De 15 1 4 0 0
Po 0 18700 12000 18700 11850 394 -1
De 0 0 4 0 400000
Po 0 18700 11850 19000 11550 394 -1
De 0 0 4 0 0
Po 0 19000 11550 19850 11550 394 -1
De 0 0 4 0 0
Po 0 18223 11977 18250 11977 394 -1
De 15 0 5 0 800000
Po 0 19600 12500 18350 12500 394 -1
De 0 0 5 0 0
Po 0 18000 10950 18000 11727 394 -1
De 15 0 5 0 400000
Po 0 18100 12100 18223 11977 394 -1
De 15 0 5 0 0
Po 0 18000 11727 18250 11977 394 -1
De 15 0 5 0 800000
Po 0 18100 12250 18100 12100 394 -1
De 0 0 5 0 0
Po 0 20250 12200 19600 12500 394 -1
De 0 0 5 0 400000
Po 3 18100 12100 18100 12100 197 -1
De 15 1 5 0 0
Po 0 20250 12200 20250 12200 394 -1
De 0 0 5 0 C00000
Po 0 18350 12500 18100 12250 394 -1
De 0 0 5 0 0
Po 0 19000 14950 19850 14950 394 -1
De 15 0 6 0 0
Po 0 19850 14950 21400 13400 394 -1
De 15 0 6 0 800000
Po 0 18750 14700 19000 14950 394 -1
De 15 0 6 0 0
Po 3 21400 13400 21400 13400 197 -1
De 15 1 6 0 C00000
Po 0 18750 14023 18750 14700 394 -1
De 15 0 6 0 400000
Po 3 21400 12400 21400 12400 197 -1
De 15 1 7 0 C00000
Po 0 19250 11977 19250 12550 394 -1
De 15 0 7 0 400000
Po 0 20900 12700 21400 12400 394 -1
De 15 0 7 0 800000
Po 0 19400 12700 20900 12700 394 -1
De 15 0 7 0 0
Po 0 19250 12550 19400 12700 394 -1
De 15 0 7 0 0
Po 0 16900 11100 16900 10800 394 -1
De 15 0 8 0 400000
Po 0 19000 10700 19000 10950 394 -1
De 15 0 8 0 0
Po 0 18600 10300 19000 10700 394 -1
De 15 0 8 0 0
Po 0 17400 10300 18600 10300 394 -1
De 15 0 8 0 0
Po 0 16900 10800 17400 10300 394 -1
De 15 0 8 0 0
Po 0 18750 11977 18750 11200 394 -1
De 15 0 8 0 400000
Po 0 18750 11200 19000 10950 394 -1
De 15 0 8 0 0
Po 0 19250 10950 19000 10950 394 -1
De 15 0 8 0 400000
Po 0 19000 10950 18600 10950 394 -1
De 15 0 8 0 800000
Po 3 16900 11100 16900 11100 197 -1
De 15 1 8 0 C00000
$EndTRACK
$ZONE
$EndZONE
$CZONE_OUTLINE
ZInfo 5075113A 1 "GMTR"
ZLayer 0
ZAux 4 E
ZClearance 200 T
ZMinThickness 100
ZOptions 0 32 F 200 200
ZSmoothing 2 0
ZCorner 22400 15400 0
ZCorner 22400 10000 0
ZCorner 16200 10000 0
ZCorner 16200 15400 1
$POLYSCORNERS
22075 15075 0 0
21950 15075 0 0
21950 12727 0 0
21950 12678 0 0
21950 12076 0 0
21941 12028 0 0
21922 11983 0 0
21895 11942 0 0
21860 11907 0 0
21820 11879 0 0
21775 11860 0 0
21727 11850 0 0
21678 11850 0 0
21076 11850 0 0
21028 11859 0 0
20983 11878 0 0
20942 11905 0 0
20907 11940 0 0
20879 11980 0 0
20860 12025 0 0
20850 12073 0 0
20850 12122 0 0
20850 12724 0 0
20858 12771 0 0
20838 12763 0 0
20790 12753 0 0
20741 12753 0 0
20463 12753 0 0
20415 12762 0 0
20370 12781 0 0
20329 12808 0 0
20294 12843 0 0
20266 12883 0 0
20250 12920 0 0
20234 12883 0 0
20206 12843 0 0
20171 12808 0 0
20130 12781 0 0
20092 12765 0 0
20348 12647 0 0
20412 12647 0 0
20460 12638 0 0
20505 12619 0 0
20546 12592 0 0
20581 12557 0 0
20609 12517 0 0
20628 12472 0 0
20638 12424 0 0
20638 12418 0 0
20638 12416 0 0
20662 12373 0 0
20666 12359 0 0
20668 12356 0 0
20672 12340 0 0
20688 12290 0 0
20689 12277 0 0
20691 12271 0 0
20692 12248 0 0
20697 12203 0 0
20695 12189 0 0
20696 12184 0 0
20693 12168 0 0
20689 12116 0 0
20684 12100 0 0
20684 12098 0 0
20680 12086 0 0
20664 12033 0 0
20658 12022 0 0
20656 12015 0 0
20646 11998 0 0
20638 11984 0 0
20638 11982 0 0
20638 11979 0 0
20629 11931 0 0
20610 11886 0 0
20583 11845 0 0
20548 11810 0 0
20508 11782 0 0
20463 11763 0 0
20415 11753 0 0
20366 11753 0 0
20256 11753 0 0
20250 11753 0 0
20246 11753 0 0
20262 11723 0 0
20288 11640 0 0
20297 11553 0 0
20289 11466 0 0
20264 11383 0 0
20224 11305 0 0
20169 11237 0 0
20103 11181 0 0
20026 11139 0 0
19943 11113 0 0
19856 11103 0 0
19850 11103 0 0
19004 11103 0 0
19000 11103 0 0
18985 11104 0 0
18918 11110 0 0
18834 11135 0 0
18830 11136 0 0
18830 11137 0 0
18824 11140 0 0
18757 11175 0 0
18753 11177 0 0
18753 11178 0 0
18736 11191 0 0
18688 11230 0 0
18685 11233 0 0
18684 11234 0 0
18387 11531 0 0
18384 11534 0 0
18374 11545 0 0
18331 11597 0 0
18289 11674 0 0
18283 11693 0 0
18282 11693 0 0
18273 11688 0 0
18190 11662 0 0
18103 11653 0 0
18016 11661 0 0
17933 11686 0 0
17855 11726 0 0
17787 11781 0 0
17731 11847 0 0
17689 11924 0 0
17663 12007 0 0
17653 12094 0 0
17653 12100 0 0
17653 12246 0 0
17653 12250 0 0
17654 12264 0 0
17660 12332 0 0
17685 12416 0 0
17686 12419 0 0
17687 12420 0 0
17690 12426 0 0
17725 12493 0 0
17727 12496 0 0
17728 12497 0 0
17741 12513 0 0
17780 12562 0 0
17783 12565 0 0
17784 12566 0 0
17946 12728 0 0
17937 12776 0 0
17937 12825 0 0
17937 12888 0 0
17999 12950 0 0
18225 12950 0 0
18275 12950 0 0
18375 12950 0 0
18375 13050 0 0
18275 13050 0 0
18225 13050 0 0
17999 13050 0 0
17937 13112 0 0
17937 13175 0 0
17937 13224 0 0
17947 13272 0 0
17966 13317 0 0
17994 13357 0 0
18029 13392 0 0
18070 13419 0 0
18115 13438 0 0
18146 13443 0 0
17929 13660 0 0
17902 13666 0 0
17838 13691 0 0
17782 13728 0 0
17733 13776 0 0
17694 13832 0 0
17668 13895 0 0
17654 13961 0 0
17653 14029 0 0
17665 14096 0 0
17690 14159 0 0
17727 14217 0 0
17774 14266 0 0
17830 14304 0 0
17892 14332 0 0
17959 14346 0 0
18027 14348 0 0
18094 14336 0 0
18157 14311 0 0
18215 14275 0 0
18264 14228 0 0
18303 14172 0 0
18331 14110 0 0
18340 14069 0 0
18963 13447 0 0
19237 13447 0 0
19285 13438 0 0
19330 13419 0 0
19371 13392 0 0
19406 13357 0 0
19434 13317 0 0
19453 13272 0 0
19463 13224 0 0
19463 13175 0 0
19463 12947 0 0
19493 12947 0 0
19487 12976 0 0
19487 13025 0 0
19487 13088 0 0
19549 13150 0 0
19775 13150 0 0
19825 13150 0 0
19925 13150 0 0
19925 13250 0 0
19925 13300 0 0
19925 13585 0 0
19987 13647 0 0
20037 13647 0 0
20044 13645 0 0
19979 13710 0 0
19952 13716 0 0
19888 13741 0 0
19832 13778 0 0
19825 13784 0 0
19825 13585 0 0
19825 13250 0 0
19549 13250 0 0
19487 13312 0 0
19487 13375 0 0
19487 13424 0 0
19497 13472 0 0
19516 13517 0 0
19544 13557 0 0
19579 13592 0 0
19620 13619 0 0
19665 13638 0 0
19713 13647 0 0
19763 13647 0 0
19825 13585 0 0
19825 13784 0 0
19783 13826 0 0
19744 13882 0 0
19718 13945 0 0
19704 14011 0 0
19703 14079 0 0
19715 14146 0 0
19740 14209 0 0
19777 14267 0 0
19824 14316 0 0
19880 14354 0 0
19942 14382 0 0
20009 14396 0 0
20077 14398 0 0
20144 14386 0 0
20207 14361 0 0
20265 14325 0 0
20314 14278 0 0
20353 14222 0 0
20381 14160 0 0
20390 14119 0 0
20828 13682 0 0
20830 13680 0 0
20836 13672 0 0
20864 13639 0 0
20865 13636 0 0
20872 13622 0 0
20873 13621 0 0
20880 13619 0 0
20892 13610 0 0
20909 13652 0 0
20968 13743 0 0
21043 13820 0 0
21131 13882 0 0
21230 13925 0 0
21335 13948 0 0
21442 13950 0 0
21549 13931 0 0
21649 13892 0 0
21740 13835 0 0
21818 13760 0 0
21880 13672 0 0
21924 13574 0 0
21947 13469 0 0
21949 13346 0 0
21928 13240 0 0
21887 13141 0 0
21827 13051 0 0
21752 12975 0 0
21714 12950 0 0
21724 12950 0 0
21772 12941 0 0
21817 12922 0 0
21858 12895 0 0
21893 12860 0 0
21921 12820 0 0
21940 12775 0 0
21950 12727 0 0
21950 15075 0 0
17449 15075 0 0
17449 14073 0 0
17433 13967 0 0
17397 13866 0 0
17372 13819 0 0
17278 13792 0 0
16971 14100 0 0
17278 14408 0 0
17372 14381 0 0
17418 14284 0 0
17444 14180 0 0
17449 14073 0 0
17449 15075 0 0
17208 15075 0 0
16525 15075 0 0
16525 14506 0 0
16580 14561 0 0
16607 14533 0 0
16619 14572 0 0
16716 14618 0 0
16820 14644 0 0
16927 14649 0 0
17033 14633 0 0
17134 14597 0 0
17181 14572 0 0
17208 14478 0 0
16935 14206 0 0
16900 14171 0 0
16829 14100 0 0
16900 14029 0 0
16935 13994 0 0
17208 13722 0 0
17181 13628 0 0
17124 13601 0 0
17149 13592 0 0
17240 13535 0 0
17318 13460 0 0
17380 13372 0 0
17424 13274 0 0
17447 13169 0 0
17449 13046 0 0
17428 12940 0 0
17387 12841 0 0
17327 12751 0 0
17252 12675 0 0
17162 12615 0 0
17127 12600 0 0
17149 12592 0 0
17240 12535 0 0
17318 12460 0 0
17380 12372 0 0
17424 12274 0 0
17447 12169 0 0
17449 12046 0 0
17428 11940 0 0
17387 11841 0 0
17327 11751 0 0
17252 11675 0 0
17214 11650 0 0
17224 11650 0 0
17272 11641 0 0
17317 11622 0 0
17358 11595 0 0
17393 11560 0 0
17421 11520 0 0
17440 11475 0 0
17450 11427 0 0
17450 11378 0 0
17450 10776 0 0
17441 10728 0 0
17422 10683 0 0
17395 10642 0 0
17360 10607 0 0
17320 10579 0 0
17275 10560 0 0
17227 10550 0 0
17178 10550 0 0
16576 10550 0 0
16528 10559 0 0
16525 10560 0 0
16525 10325 0 0
22075 10325 0 0
22075 15075 1 0
$endPOLYSCORNERS
$endCZONE_OUTLINE
$CZONE_OUTLINE
ZInfo 5075128A 1 "GMTR"
ZLayer 15
ZAux 4 E
ZClearance 121 T
ZMinThickness 61
ZOptions 0 32 F 200 200
ZSmoothing 2 0
ZCorner 22400 15400 0
ZCorner 22400 10000 0
ZCorner 16200 10000 0
ZCorner 16200 15400 1
$POLYSCORNERS
19319 14092 0 0
19309 14092 0 0
19191 14092 0 0
19181 14092 0 0
19181 13954 0 0
19191 13954 0 0
19309 13954 0 0
19319 13954 0 0
19319 14092 1 0
22174 15174 0 0
20118 15174 0 0
21441 13850 0 0
21522 13837 0 0
21604 13805 0 0
21679 13757 0 0
21743 13696 0 0
21794 13624 0 0
21830 13543 0 0
21850 13457 0 0
21851 13356 0 0
21834 13269 0 0
21800 13187 0 0
21751 13114 0 0
21689 13051 0 0
21616 13001 0 0
21534 12967 0 0
21448 12949 0 0
21359 12949 0 0
21272 12965 0 0
21190 12998 0 0
21116 13047 0 0
21053 13109 0 0
21003 13182 0 0
20968 13263 0 0
20950 13349 0 0
20949 13358 0 0
20296 14011 0 0
20290 13978 0 0
20271 13933 0 0
20244 13892 0 0
20210 13858 0 0
20169 13830 0 0
20124 13811 0 0
20077 13801 0 0
20028 13801 0 0
20018 13802 0 0
20018 13575 0 0
20012 13546 0 0
20001 13519 0 0
19985 13494 0 0
19964 13474 0 0
19939 13457 0 0
19912 13446 0 0
19883 13440 0 0
19854 13440 0 0
19760 13440 0 0
19636 13316 0 0
19635 13315 0 0
19632 13313 0 0
19608 13292 0 0
19583 13278 0 0
19575 13274 0 0
19574 13273 0 0
19558 13268 0 0
19540 13263 0 0
19526 13261 0 0
19501 13258 0 0
19493 13259 0 0
18029 13259 0 0
17203 12433 0 0
17243 12396 0 0
17294 12324 0 0
17330 12243 0 0
17350 12157 0 0
17351 12056 0 0
17334 11969 0 0
17300 11887 0 0
17251 11814 0 0
17189 11751 0 0
17116 11701 0 0
17034 11667 0 0
16948 11649 0 0
16859 11649 0 0
16772 11665 0 0
16690 11698 0 0
16616 11747 0 0
16553 11809 0 0
16503 11882 0 0
16468 11963 0 0
16450 12049 0 0
16448 12138 0 0
16464 12225 0 0
16497 12307 0 0
16545 12381 0 0
16606 12445 0 0
16679 12495 0 0
16760 12531 0 0
16761 12531 0 0
16763 12533 0 0
16764 12535 0 0
16765 12535 0 0
16768 12538 0 0
16879 12649 0 0
16859 12649 0 0
16772 12665 0 0
16690 12698 0 0
16616 12747 0 0
16553 12809 0 0
16503 12882 0 0
16468 12963 0 0
16450 13049 0 0
16448 13138 0 0
16464 13225 0 0
16497 13307 0 0
16545 13381 0 0
16606 13445 0 0
16679 13495 0 0
16760 13531 0 0
16846 13550 0 0
16935 13552 0 0
17022 13537 0 0
17054 13524 0 0
17194 13664 0 0
17170 13687 0 0
17153 13635 0 0
17058 13594 0 0
16957 13574 0 0
16853 13572 0 0
16752 13592 0 0
16656 13630 0 0
16647 13635 0 0
16619 13721 0 0
16878 13980 0 0
16900 14002 0 0
16998 14100 0 0
17020 14122 0 0
17279 14381 0 0
17365 14353 0 0
17406 14258 0 0
17426 14157 0 0
17428 14053 0 0
17408 13952 0 0
17370 13856 0 0
17365 13847 0 0
17312 13829 0 0
17336 13806 0 0
17687 14157 0 0
17688 14158 0 0
17690 14159 0 0
17715 14181 0 0
17739 14194 0 0
17748 14199 0 0
17749 14200 0 0
17767 14205 0 0
17783 14210 0 0
17785 14210 0 0
17820 14214 0 0
17822 14214 0 0
17823 14214 0 0
17872 14214 0 0
17878 14218 0 0
17922 14238 0 0
17970 14248 0 0
17982 14248 0 0
17982 14471 0 0
17988 14500 0 0
17999 14527 0 0
18015 14552 0 0
18036 14572 0 0
18061 14589 0 0
18088 14600 0 0
18117 14606 0 0
18146 14606 0 0
18383 14606 0 0
18402 14602 0 0
18402 14696 0 0
18402 14700 0 0
18404 14724 0 0
18408 14764 0 0
18408 14767 0 0
18409 14768 0 0
18427 14829 0 0
18428 14833 0 0
18460 14893 0 0
18480 14917 0 0
18500 14943 0 0
18503 14945 0 0
18504 14946 0 0
18732 15174 0 0
17428 15174 0 0
17181 15174 0 0
17181 14479 0 0
16900 14198 0 0
16619 14479 0 0
16647 14565 0 0
16742 14606 0 0
16843 14626 0 0
16947 14628 0 0
17048 14608 0 0
17144 14570 0 0
17153 14565 0 0
17181 14479 0 0
17181 15174 0 0
16426 15174 0 0
16426 14333 0 0
16430 14344 0 0
16435 14353 0 0
16521 14381 0 0
16802 14100 0 0
16521 13819 0 0
16435 13847 0 0
16426 13867 0 0
16426 10226 0 0
16982 10226 0 0
16657 10551 0 0
16654 10554 0 0
16643 10567 0 0
16613 10603 0 0
16599 10628 0 0
16586 10650 0 0
16585 10650 0 0
16556 10656 0 0
16529 10667 0 0
16504 10683 0 0
16484 10704 0 0
16467 10729 0 0
16456 10756 0 0
16450 10785 0 0
16450 10814 0 0
16450 11415 0 0
16456 11444 0 0
16467 11471 0 0
16483 11496 0 0
16504 11516 0 0
16529 11533 0 0
16556 11544 0 0
16585 11550 0 0
16614 11550 0 0
17215 11550 0 0
17244 11544 0 0
17271 11533 0 0
17296 11517 0 0
17316 11496 0 0
17333 11471 0 0
17344 11444 0 0
17350 11415 0 0
17350 11386 0 0
17350 10842 0 0
17544 10648 0 0
17746 10648 0 0
17742 10654 0 0
17731 10681 0 0
17725 10710 0 0
17725 10738 0 0
17713 10753 0 0
17680 10813 0 0
17660 10878 0 0
17652 10945 0 0
17652 10950 0 0
17652 11723 0 0
17652 11727 0 0
17654 11751 0 0
17658 11791 0 0
17658 11794 0 0
17659 11795 0 0
17677 11856 0 0
17678 11860 0 0
17710 11920 0 0
17730 11944 0 0
17750 11970 0 0
17753 11972 0 0
17754 11973 0 0
17770 11989 0 0
17758 12031 0 0
17752 12099 0 0
17758 12166 0 0
17778 12232 0 0
17809 12292 0 0
17853 12345 0 0
17904 12388 0 0
17964 12420 0 0
17982 12425 0 0
17988 12454 0 0
17999 12481 0 0
18015 12506 0 0
18036 12526 0 0
18061 12543 0 0
18088 12554 0 0
18117 12560 0 0
18146 12560 0 0
18383 12560 0 0
18412 12554 0 0
18439 12543 0 0
18464 12527 0 0
18484 12506 0 0
18499 12482 0 0
18515 12506 0 0
18536 12526 0 0
18561 12543 0 0
18588 12554 0 0
18617 12560 0 0
18646 12560 0 0
18883 12560 0 0
18902 12555 0 0
18904 12574 0 0
18908 12614 0 0
18908 12617 0 0
18909 12618 0 0
18927 12679 0 0
18928 12683 0 0
18960 12743 0 0
18980 12767 0 0
19000 12793 0 0
19003 12795 0 0
19004 12796 0 0
19151 12943 0 0
19154 12946 0 0
19167 12956 0 0
19203 12987 0 0
19207 12989 0 0
19228 13001 0 0
19263 13020 0 0
19266 13022 0 0
19328 13040 0 0
19331 13041 0 0
19374 13045 0 0
19395 13048 0 0
19398 13048 0 0
19400 13048 0 0
20900 13048 0 0
20922 13045 0 0
20947 13045 0 0
20960 13041 0 0
20968 13041 0 0
20989 13034 0 0
21013 13029 0 0
21020 13025 0 0
21033 13022 0 0
21057 13008 0 0
21075 13001 0 0
21079 12998 0 0
21087 12993 0 0
21093 12990 0 0
21094 12988 0 0
21325 12850 0 0
21715 12850 0 0
21744 12844 0 0
21771 12833 0 0
21796 12817 0 0
21816 12796 0 0
21833 12771 0 0
21844 12744 0 0
21850 12715 0 0
21850 12686 0 0
21850 12085 0 0
21844 12056 0 0
21833 12029 0 0
21817 12004 0 0
21796 11984 0 0
21771 11967 0 0
21744 11956 0 0
21715 11950 0 0
21686 11950 0 0
21085 11950 0 0
21056 11956 0 0
21029 11967 0 0
21004 11983 0 0
20984 12004 0 0
20967 12029 0 0
20956 12056 0 0
20950 12085 0 0
20950 12114 0 0
20950 12263 0 0
20803 12352 0 0
20018 12352 0 0
20018 12201 0 0
20093 12126 0 0
20096 12123 0 0
20106 12109 0 0
20137 12074 0 0
20139 12070 0 0
20170 12014 0 0
20170 12011 0 0
20171 12011 0 0
20190 11949 0 0
20191 11946 0 0
20195 11903 0 0
20198 11882 0 0
20198 11879 0 0
20198 11877 0 0
20198 11728 0 0
20221 11685 0 0
20241 11620 0 0
20248 11552 0 0
20242 11485 0 0
20223 11420 0 0
20198 11372 0 0
20198 10950 0 0
20191 10882 0 0
20172 10817 0 0
20140 10757 0 0
20125 10738 0 0
20125 10710 0 0
20119 10681 0 0
20108 10654 0 0
20092 10629 0 0
20071 10609 0 0
20046 10592 0 0
20019 10581 0 0
19990 10575 0 0
19961 10575 0 0
19710 10575 0 0
19681 10581 0 0
19654 10592 0 0
19629 10608 0 0
19609 10629 0 0
19592 10654 0 0
19581 10681 0 0
19575 10710 0 0
19575 10738 0 0
19563 10753 0 0
19550 10776 0 0
19541 10759 0 0
19525 10739 0 0
19525 10710 0 0
19519 10681 0 0
19508 10654 0 0
19492 10629 0 0
19471 10609 0 0
19446 10592 0 0
19419 10581 0 0
19390 10575 0 0
19361 10575 0 0
19324 10575 0 0
19323 10570 0 0
19322 10569 0 0
19322 10567 0 0
19291 10510 0 0
19290 10507 0 0
19256 10467 0 0
19249 10457 0 0
19247 10455 0 0
19246 10453 0 0
19018 10226 0 0
22174 10226 0 0
22174 15174 1 0
$endPOLYSCORNERS
$endCZONE_OUTLINE
$EndBOARD
